{"playlists": {"href": "https://api.spotify.com/v1/search?offset=0&limit=5&query=bouncy%20pop&type=playlist", "limit": 5, "next": "https://api.spotify.com/v1/search?offset=5&limit=5&query=bouncy%20pop&type=playlist", "offset": 0, "previous": null, "total": 900, "items": [null, {"collaborative": false, "description": "John Mayer emerged with a bang in the early \u201800s, with his bouncy blend of infectious, melodic pop and smoky, low-key vocals making him one of the era&#x27;s biggest young singer&#x2F;songwriters.", "external_urls": {"spotify": "https://open.spotify.com/playlist/30SGzkJqg86tue8BqPKYZI"}, "href": "https://api.spotify.com/v1/playlists/30SGzkJqg86tue8BqPKYZI", "id": "30SGzkJqg86tue8BqPKYZI", "images": [{"height": null, "url": "https://image-cdn-ak.spotifycdn.com/image/ab67706c0000da84e97847f131fe40eae1a44e88", "width": null}], "name": "JOHN MAYER ESSENTIALS", "owner": {"display_name": "Joseph", "external_urls": {"spotify": "https://open.spotify.com/user/s2l1in462oelin6153qgn40zi"}, "href": "https://api.spotify.com/v1/users/s2l1in462oelin6153qgn40zi", "id": "s2l1in462oelin6153qgn40zi", "type": "user", "uri": "spotify:user:s2l1in462oelin6153qgn40zi"}, "primary_color": null, "public": true, "snapshot_id": "AAAAMJ5vHrDTc2siIvAk2o+T6oDk29Cn", "tracks": {"href": "https://api.spotify.com/v1/playlists/30SGzkJqg86tue8BqPKYZI/tracks", "total": 33}, "type": "playlist", "uri": "spotify:playlist:30SGzkJqg86tue8BqPKYZI"}, null, {"collaborative": false, "description": "Fast, bouncy, 4x4 and fo\u2019 2 da floor: Saint Popsy\u2019s favorite tekky dnb crossover tunes! \ud83d\ude08\ud83d\ude08\ud83d\ude08", "external_urls": {"spotify": "https://open.spotify.com/playlist/5pCJ0Z9cPk7w23oKwNf3IG"}, "href": "https://api.spotify.com/v1/playlists/5pCJ0Z9cPk7w23oKwNf3IG", "id": "5pCJ0Z9cPk7w23oKwNf3IG", "images": [{"height": null, "url": "https://image-cdn-ak.spotifycdn.com/image/ab67706c0000d72c0cad7d4da6472af992ab0be0", "width": null}], "name": "Speedbass Bangers", "owner": {"display_name": "saintp\u00f6psy", "external_urls": {"spotify": "https://open.spotify.com/user/patrykmaciejewski"}, "href": "https://api.spotify.com/v1/users/patrykmaciejewski", "id": "patrykmaciejewski", "type": "user", "uri": "spotify:user:patrykmaciejewski"}, "primary_color": null, "public": true, "snapshot_id": "AAABRnR9JD1hiE7n++ceoQdvnodMRtLZ", "tracks": {"href": "https://api.spotify.com/v1/playlists/5pCJ0Z9cPk7w23oKwNf3IG/tracks", "total": 153}, "type": "playlist", "uri": "spotify:playlist:5pCJ0Z9cPk7w23oKwNf3IG"}, {"collaborative": false, "description": "", "external_urls": {"spotify": "https://open.spotify.com/playlist/1EFJr3NcmCgzU6YkIKIULe"}, "href": "https://api.spotify.com/v1/playlists/1EFJr3NcmCgzU6YkIKIULe", "id": "1EFJr3NcmCgzU6YkIKIULe", "images": [{"height": 640, "url": "https://mosaic.scdn.co/640/ab67616d00001e02185fce5ea773d4968df10d31ab67616d00001e02bd24d952777919dda1809b90ab67616d00001e02c3373c1e648b342f8b14d1a2ab67616d00001e02e62b3773f8bc912320251c9b", "width": 640}, {"height": 300, "url": "https://mosaic.scdn.co/300/ab67616d00001e02185fce5ea773d4968df10d31ab67616d00001e02bd24d952777919dda1809b90ab67616d00001e02c3373c1e648b342f8b14d1a2ab67616d00001e02e62b3773f8bc912320251c9b", "width": 300}, {"height": 60, "url": "https://mosaic.scdn.co/60/ab67616d00001e02185fce5ea773d4968df10d31ab67616d00001e02bd24d952777919dda1809b90ab67616d00001e02c3373c1e648b342f8b14d1a2ab67616d00001e02e62b3773f8bc912320251c9b", "width": 60}], "name": "Bouncy Bouncy", "owner": {"display_name": "r.wirnitzer", "external_urls": {"spotify": "https://open.spotify.com/user/r.wirnitzer"}, "href": "https://api.spotify.com/v1/users/r.wirnitzer", "id": "r.wirnitzer", "type": "user", "uri": "spotify:user:r.wirnitzer"}, "primary_color": null, "public": true, "snapshot_id": "AAABjEReasbB+96EFwnQySihlm2ZjPbG", "tracks": {"href": "https://api.spotify.com/v1/playlists/1EFJr3NcmCgzU6YkIKIULe/tracks", "total": 333}, "type": "playlist", "uri": "spotify:playlist:1EFJr3NcmCgzU6YkIKIULe"}]}}