{"playlists": {"href": "https://api.spotify.com/v1/search?offset=0&limit=5&query=rainy%20late%20night%20drive&type=playlist", "limit": 5, "next": "https://api.spotify.com/v1/search?offset=5&limit=5&query=rainy%20late%20night%20drive&type=playlist", "offset": 0, "previous": null, "total": 898, "items": [null, {"collaborative": false, "description": "Songs for late night vibes | RnB for drives | rainy drives | late night driving | midnight road trips | chill driving music | summer nights | relaxing rap music | sad rap for drives", "external_urls": {"spotify": "https://open.spotify.com/playlist/0C4E0G59TOVsRAqXQbt33N"}, "href": "https://api.spotify.com/v1/playlists/0C4E0G59TOVsRAqXQbt33N", "id": "0C4E0G59TOVsRAqXQbt33N", "images": [{"height": null, "url": "https://image-cdn-ak.spotifycdn.com/image/ab67706c0000da84eaad5835609f911ceab98284", "width": null}], "name": "LATE NIGHT DRIVES \ud83d\udda4", "owner": {"display_name": "AZ", "external_urls": {"spotify": "https://open.spotify.com/user/azarrella9"}, "href": "https://api.spotify.com/v1/users/azarrella9", "id": "azarrella9", "type": "user", "uri": "spotify:user:azarrella9"}, "primary_color": null, "public": true, "snapshot_id": "AAAHE0XSHL5JVQVvdrc2+bRxHPgRYD0g", "tracks": {"href": "https://api.spotify.com/v1/playlists/0C4E0G59TOVsRAqXQbt33N/tracks", "total": 228}, "type": "playlist", "uri": "spotify:playlist:0C4E0G59TOVsRAqXQbt33N"}, {"collaborative": false, "description": "\ud83c\udf27\ufe0f\ud83c\udf27\ufe0f", "external_urls": {"spotify": "https://open.spotify.com/playlist/6SLANwuSCx0B23XF4cIcaO"}, "href": "https://api.spotify.com/v1/playlists/6SLANwuSCx0B23XF4cIcaO", "id": "6SLANwuSCx0B23XF4cIcaO", "images": [{"height": null, "url": "https://image-cdn-ak.spotifycdn.com/image/ab67706c0000da84e76a8d8dc9520674ddd69824", "width": null}], "name": "late night rainy drives ", "owner": {"display_name": "sanjot", "external_urls": {"spotify": "https://open.spotify.com/user/sanjotdhami"}, "href": "https://api.spotify.com/v1/users/sanjotdhami", "id": "sanjotdhami", "type": "user", "uri": "spotify:user:sanjotdhami"}, "primary_color": null, "public": true, "snapshot_id": "AAACtMAxb0ibJtn+WNFhPQl61xADOALI", "tracks": {"href": "https://api.spotify.com/v1/playlists/6SLANwuSCx0B23XF4cIcaO/tracks", "total": 518}, "type": "playlist", "uri": "spotify:playlist:6SLANwuSCx0B23XF4cIcaO"}, {"collaborative": false, "description": "sit back, relax and let the vibes take over... use for yoga, meditation, a walk, maybe a rainy day, late night drive, studying, smoke sesh\u2026.", "external_urls": {"spotify": "https://open.spotify.com/playlist/2HlkbcUHohdfnNdjnMgNsR"}, "href": "https://api.spotify.com/v1/playlists/2HlkbcUHohdfnNdjnMgNsR", "id": "2HlkbcUHohdfnNdjnMgNsR", "images": [{"height": null, "url": "https://image-cdn-fa.spotifycdn.com/image/ab67706c0000d72cbb3d27c78967c59cafcb1a85", "width": null}], "name": "Vibey Instrumental ", "owner": {"display_name": "Brianna Anderson", "external_urls": {"spotify": "https://open.spotify.com/user/128919003"}, "href": "https://api.spotify.com/v1/users/128919003", "id": "128919003", "type": "user", "uri": "spotify:user:128919003"}, "primary_color": null, "public": true, "snapshot_id": "AAAAr7ecacdtd2HDh/a5qdbRd0dne7K1", "tracks": {"href": "https://api.spotify.com/v1/playlists/2HlkbcUHohdfnNdjnMgNsR/tracks", "total": 74}, "type": "playlist", "uri": "spotify:playlist:2HlkbcUHohdfnNdjnMgNsR"}, {"collaborative": false, "description": "Soundtrack for rainy thoughts and late night drives. Music inspired by Joji, keshi, Powfu, Montell Fish and more. Indie R&amp;B, chill pop, lo-fi, sad rap \u2013 pure vibes only. Are you an artist? Want your music featured here? DM me on Discord (Introvercik) or Instagram (@after1337).", "external_urls": {"spotify": "https://open.spotify.com/playlist/5BAuzhsMQgwDWg2NjteFoR"}, "href": "https://api.spotify.com/v1/playlists/5BAuzhsMQgwDWg2NjteFoR", "id": "5BAuzhsMQgwDWg2NjteFoR", "images": [{"height": null, "url": "https://image-cdn-fa.spotifycdn.com/image/ab67706c0000da844a0cff791a9445ac5d201bf3", "width": null}], "name": "sad & vibey \ud83c\udf12 | joji, lo-fi, indie pop", "owner": {"display_name": "Introvert", "external_urls": {"spotify": "https://open.spotify.com/user/31rw57u3u4kx7fcffpdh4yrqachq"}, "href": "https://api.spotify.com/v1/users/31rw57u3u4kx7fcffpdh4yrqachq", "id": "31rw57u3u4kx7fcffpdh4yrqachq", "type": "user", "uri": "spotify:user:31rw57u3u4kx7fcffpdh4yrqachq"}, "primary_color": null, "public": true, "snapshot_id": "AAAAaC3ABGKkMyVw3j6UFLmfftZL9VLm", "tracks": {"href": "https://api.spotify.com/v1/playlists/5BAuzhsMQgwDWg2NjteFoR/tracks", "total": 48}, "type": "playlist", "uri": "spotify:playlist:5BAuzhsMQgwDWg2NjteFoR"}]}}