{"playlists": {"href": "https://api.spotify.com/v1/search?offset=0&limit=5&query=rainy%20forest&type=playlist", "limit": 5, "next": "https://api.spotify.com/v1/search?offset=5&limit=5&query=rainy%20forest&type=playlist", "offset": 0, "previous": null, "total": 902, "items": [{"collaborative": false, "description": "Forest Rain Sounds (10 Hours). Soothing Rainfall &amp; Rumbling Thunder Sounds for Sleep, Stress relief, insomnia, relaxation, spa massage, reading, concentration, chilling-out and study. Fall asleep fast to the calming sounds of rain, thunder, &amp; birds as night &amp; wake up calm &amp; refreshed in the morning.", "external_urls": {"spotify": "https://open.spotify.com/playlist/1R7ENEdRB5DLTkqpdXDwR9"}, "href": "https://api.spotify.com/v1/playlists/1R7ENEdRB5DLTkqpdXDwR9", "id": "1R7ENEdRB5DLTkqpdXDwR9", "images": [{"height": null, "url": "https://image-cdn-ak.spotifycdn.com/image/ab67706c0000da84ab8f2f3b73caac5ecd921371", "width": null}], "name": "Forest Rain Sounds (10 Hours)", "owner": {"display_name": "Stardust Vibes", "external_urls": {"spotify": "https://open.spotify.com/user/ugneds4edxfc52vgqcm3s9gu3"}, "href": "https://api.spotify.com/v1/users/ugneds4edxfc52vgqcm3s9gu3", "id": "ugneds4edxfc52vgqcm3s9gu3", "type": "user", "uri": "spotify:user:ugneds4edxfc52vgqcm3s9gu3"}, "primary_color": null, "public": true, "snapshot_id": "AAACk1FdaFst+b1+77kl975tqK24I/Fx", "tracks": {"href": "https://api.spotify.com/v1/playlists/1R7ENEdRB5DLTkqpdXDwR9/tracks", "total": 340}, "type": "playlist", "uri": "spotify:playlist:1R7ENEdRB5DLTkqpdXDwR9"}, {"collaborative": false, "description": "Rainy forest sounds combine with peaceful instrumental music and lush ambient soundscapes. Restful and relaxing in equal measure, this dreamy playlist is perfect for sleep and restoration. Artists include Center of Attention, Memories of the Forgotten, Be Still the Earth, We Dream of Eden, and more!", "external_urls": {"spotify": "https://open.spotify.com/playlist/0ESkeDIKVDNL0lskLr4ftk"}, "href": "https://api.spotify.com/v1/playlists/0ESkeDIKVDNL0lskLr4ftk", "id": "0ESkeDIKVDNL0lskLr4ftk", "images": [{"height": null, "url": "https://image-cdn-fa.spotifycdn.com/image/ab67706c0000da84e751cd9abc704daebb0ea4bd", "width": null}], "name": "Rain Ambient : sleepy ambient music with rain sounds", "owner": {"display_name": "Echoes Blue Music", "external_urls": {"spotify": "https://open.spotify.com/user/inxpzsvcvcho9462ljymcdee3"}, "href": "https://api.spotify.com/v1/users/inxpzsvcvcho9462ljymcdee3", "id": "inxpzsvcvcho9462ljymcdee3", "type": "user", "uri": "spotify:user:inxpzsvcvcho9462ljymcdee3"}, "primary_color": null, "public": true, "snapshot_id": "AAAAlUBzoMAyOuNCCjVHULROJ6G3mqLx", "tracks": {"href": "https://api.spotify.com/v1/playlists/0ESkeDIKVDNL0lskLr4ftk/tracks", "total": 57}, "type": "playlist", "uri": "spotify:playlist:0ESkeDIKVDNL0lskLr4ftk"}, null, {"collaborative": false, "description": "specifically for quiet background ambience vibes in a pacific northwest forest cabin, in the middle of nowhere, in a rainstorm. do not listen to under any other circumstances", "external_urls": {"spotify": "https://open.spotify.com/playlist/1Ix3bfNJSUZVPKxaOR89zr"}, "href": "https://api.spotify.com/v1/playlists/1Ix3bfNJSUZVPKxaOR89zr", "id": "1Ix3bfNJSUZVPKxaOR89zr", "images": [{"height": null, "url": "https://image-cdn-ak.spotifycdn.com/image/ab67706c0000da840d32a3bb35f71bba094d194e", "width": null}], "name": "rainy forest cabin", "owner": {"display_name": "tessa_boyd", "external_urls": {"spotify": "https://open.spotify.com/user/tessa_boyd"}, "href": "https://api.spotify.com/v1/users/tessa_boyd", "id": "tessa_boyd", "type": "user", "uri": "spotify:user:tessa_boyd"}, "primary_color": null, "public": true, "snapshot_id": "AAABK1iZmNwAvn3x4nOe0zqpZnf2hPfg", "tracks": {"href": "https://api.spotify.com/v1/playlists/1Ix3bfNJSUZVPKxaOR89zr/tracks", "total": 198}, "type": "playlist", "uri": "spotify:playlist:1Ix3bfNJSUZVPKxaOR89zr"}, {"collaborative": false, "description": "", "external_urls": {"spotify": "https://open.spotify.com/playlist/77mm4QEFDrXqeGfjA1Hmht"}, "href": "https://api.spotify.com/v1/playlists/77mm4QEFDrXqeGfjA1Hmht", "id": "77mm4QEFDrXqeGfjA1Hmht", "images": [{"height": null, "url": "https://image-cdn-fa.spotifycdn.com/image/ab67706c0000d72c315cf58eea979e10532d5adc", "width": null}], "name": "Twilight rainy forest vibes", "owner": {"display_name": "Tilde werninger", "external_urls": {"spotify": "https://open.spotify.com/user/hu4l9occhxx7b723cn023a6is"}, "href": "https://api.spotify.com/v1/users/hu4l9occhxx7b723cn023a6is", "id": "hu4l9occhxx7b723cn023a6is", "type": "user", "uri": "spotify:user:hu4l9occhxx7b723cn023a6is"}, "primary_color": null, "public": true, "snapshot_id": "AAAAQcCcQjelr83EOGBORAeYKk7EQ2mM", "tracks": {"href": "https://api.spotify.com/v1/playlists/77mm4QEFDrXqeGfjA1Hmht/tracks", "total": 106}, "type": "playlist", "uri": "spotify:playlist:77mm4QEFDrXqeGfjA1Hmht"}]}}