{"playlists": {"href": "https://api.spotify.com/v1/search?offset=0&limit=5&query=yacht%20in%20turks&type=playlist", "limit": 5, "next": "https://api.spotify.com/v1/search?offset=5&limit=5&query=yacht%20in%20turks&type=playlist", "offset": 0, "previous": null, "total": 801, "items": [{"collaborative": false, "description": "Embodies opulence, affluence, and extravagance. Picture Monaco, Turks and Caicos, Monte Carlo, on a Yacht, Maybach,or in an AMG G63", "external_urls": {"spotify": "https://open.spotify.com/playlist/20OmRdilvh3AZpGWaKns9Y"}, "href": "https://api.spotify.com/v1/playlists/20OmRdilvh3AZpGWaKns9Y", "id": "20OmRdilvh3AZpGWaKns9Y", "images": [{"height": null, "url": "https://image-cdn-ak.spotifycdn.com/image/ab67706c0000da84cb7506319fc66f94909e7d68", "width": null}], "name": "Luxury Rap", "owner": {"display_name": "Uju", "external_urls": {"spotify": "https://open.spotify.com/user/31jijqhxczomj4amlxgqgh6tkusy"}, "href": "https://api.spotify.com/v1/users/31jijqhxczomj4amlxgqgh6tkusy", "id": "31jijqhxczomj4amlxgqgh6tkusy", "type": "user", "uri": "spotify:user:31jijqhxczomj4amlxgqgh6tkusy"}, "primary_color": null, "public": true, "snapshot_id": "AAAAw2+sUdZa3G+DYk7fynDAs16mLQuN", "tracks": {"href": "https://api.spotify.com/v1/playlists/20OmRdilvh3AZpGWaKns9Y/tracks", "total": 106}, "type": "playlist", "uri": "spotify:playlist:20OmRdilvh3AZpGWaKns9Y"}, {"collaborative": false, "description": "70s + 80s Soft Rock for a day on the boat. Island tunes, chill summer hits + smooth sailing while jamming to hits from Earth, Wind &amp; Fire, TOTO, Looking Glass, Billy Joel, Hall &amp; Oates + more.", "external_urls": {"spotify": "https://open.spotify.com/playlist/5mMwgU3jW7Wxxkr5F7GzSj"}, "href": "https://api.spotify.com/v1/playlists/5mMwgU3jW7Wxxkr5F7GzSj", "id": "5mMwgU3jW7Wxxkr5F7GzSj", "images": [{"height": null, "url": "https://image-cdn-ak.spotifycdn.com/image/ab67706c0000da840ec02ed883a282fd82389b1a", "width": null}], "name": "YACHT ROCK | TOP 100 SONGS", "owner": {"display_name": "Filtr US", "external_urls": {"spotify": "https://open.spotify.com/user/myplay.com"}, "href": "https://api.spotify.com/v1/users/myplay.com", "id": "myplay.com", "type": "user", "uri": "spotify:user:myplay.com"}, "primary_color": null, "public": true, "snapshot_id": "AAAClWh1WypsNFlSUhAFr6hZb1VS5ckg", "tracks": {"href": "https://api.spotify.com/v1/playlists/5mMwgU3jW7Wxxkr5F7GzSj/tracks", "total": 147}, "type": "playlist", "uri": "spotify:playlist:5mMwgU3jW7Wxxkr5F7GzSj"}, null, {"collaborative": false, "description": "Yacht rock (originally known as the West Coast sound or adult-oriented rock) is a broad music style and aesthetic commonly associated with soft rock, one of the most commercially successful genres from the mid-1970s to the mid-1980s. Drawing on sources such as smooth soul, smooth jazz", "external_urls": {"spotify": "https://open.spotify.com/playlist/4J2R4B8QKsIMLvqMTW2WLs"}, "href": "https://api.spotify.com/v1/playlists/4J2R4B8QKsIMLvqMTW2WLs", "id": "4J2R4B8QKsIMLvqMTW2WLs", "images": [{"height": 640, "url": "https://mosaic.scdn.co/640/ab67616d00001e0206fcef1522850ea2c72173ecab67616d00001e025a9b9e265814a9c9636a71a4ab67616d00001e02b413611fad88fc58ba8be137ab67616d00001e02c6c33db3521f22786d3e1e0e", "width": 640}, {"height": 300, "url": "https://mosaic.scdn.co/300/ab67616d00001e0206fcef1522850ea2c72173ecab67616d00001e025a9b9e265814a9c9636a71a4ab67616d00001e02b413611fad88fc58ba8be137ab67616d00001e02c6c33db3521f22786d3e1e0e", "width": 300}, {"height": 60, "url": "https://mosaic.scdn.co/60/ab67616d00001e0206fcef1522850ea2c72173ecab67616d00001e025a9b9e265814a9c9636a71a4ab67616d00001e02b413611fad88fc58ba8be137ab67616d00001e02c6c33db3521f22786d3e1e0e", "width": 60}], "name": "Yacht Rock Classics", "owner": {"display_name": "d.cleeve-gb", "external_urls": {"spotify": "https://open.spotify.com/user/d.cleeve-gb"}, "href": "https://api.spotify.com/v1/users/d.cleeve-gb", "id": "d.cleeve-gb", "type": "user", "uri": "spotify:user:d.cleeve-gb"}, "primary_color": null, "public": true, "snapshot_id": "AAAAbQNAFdzRVQ83AGC2qVmVsxusZ8L8", "tracks": {"href": "https://api.spotify.com/v1/playlists/4J2R4B8QKsIMLvqMTW2WLs/tracks", "total": 69}, "type": "playlist", "uri": "spotify:playlist:4J2R4B8QKsIMLvqMTW2WLs"}, {"collaborative": false, "description": "", "external_urls": {"spotify": "https://open.spotify.com/playlist/6JWx6dmm569MwPsZM3P1vg"}, "href": "https://api.spotify.com/v1/playlists/6JWx6dmm569MwPsZM3P1vg", "id": "6JWx6dmm569MwPsZM3P1vg", "images": [{"height": 640, "url": "https://mosaic.scdn.co/640/ab67616d00001e023a3c381f6910a4fe51c2640bab67616d00001e02ef0d65084591b500e97a2850ab67616d00001e02f43547de689aabc4c44ab62dab67616d00001e02f7a98ba49d930956ac0af9d9", "width": 640}, {"height": 300, "url": "https://mosaic.scdn.co/300/ab67616d00001e023a3c381f6910a4fe51c2640bab67616d00001e02ef0d65084591b500e97a2850ab67616d00001e02f43547de689aabc4c44ab62dab67616d00001e02f7a98ba49d930956ac0af9d9", "width": 300}, {"height": 60, "url": "https://mosaic.scdn.co/60/ab67616d00001e023a3c381f6910a4fe51c2640bab67616d00001e02ef0d65084591b500e97a2850ab67616d00001e02f43547de689aabc4c44ab62dab67616d00001e02f7a98ba49d930956ac0af9d9", "width": 60}], "name": "THE Best Yacht Rock Ever! (big list)", "owner": {"display_name": "JOHNspotPACE", "external_urls": {"spotify": "https://open.spotify.com/user/johnspotpace"}, "href": "https://api.spotify.com/v1/users/johnspotpace", "id": "johnspotpace", "type": "user", "uri": "spotify:user:johnspotpace"}, "primary_color": null, "public": true, "snapshot_id": "AAABRqf99AArinJYfPdmSmmA39Ksbhhk", "tracks": {"href": "https://api.spotify.com/v1/playlists/6JWx6dmm569MwPsZM3P1vg/tracks", "total": 134}, "type": "playlist", "uri": "spotify:playlist:6JWx6dmm569MwPsZM3P1vg"}]}}