{"playlists": {"href": "https://api.spotify.com/v1/search?offset=0&limit=5&query=mysterious%20halloween%20weekend&type=playlist", "limit": 5, "next": "https://api.spotify.com/v1/search?offset=5&limit=5&query=mysterious%20halloween%20weekend&type=playlist", "offset": 0, "previous": null, "total": 800, "items": [{"collaborative": false, "description": "It\u2019s the Spooky Month! Boo! \ud83d\udc7b\ud83c\udf83", "external_urls": {"spotify": "https://open.spotify.com/playlist/0xDHDjP1Du4jFv0cjSqPBw"}, "href": "https://api.spotify.com/v1/playlists/0xDHDjP1Du4jFv0cjSqPBw", "id": "0xDHDjP1Du4jFv0cjSqPBw", "images": [{"height": null, "url": "https://image-cdn-ak.spotifycdn.com/image/ab67706c0000d72c090efb1db0c0f0c270d1513b", "width": null}], "name": " \ud83c\udf83\ud83d\udc7b 90\u2019s-2000\u2019s Halloween\ud83d\udc08\u200d\u2b1b\ud83c\udf16", "owner": {"display_name": "\ud835\udd11\ud835\udd1e\ud835\udd31 \u2615\ufe0f", "external_urls": {"spotify": "https://open.spotify.com/user/k909xgmvozqv5wy7z6afpbtkq"}, "href": "https://api.spotify.com/v1/users/k909xgmvozqv5wy7z6afpbtkq", "id": "k909xgmvozqv5wy7z6afpbtkq", "type": "user", "uri": "spotify:user:k909xgmvozqv5wy7z6afpbtkq"}, "primary_color": null, "public": true, "snapshot_id": "AAAAZ9cqUn9AGfH0gMCXMFz1V/1CJk0w", "tracks": {"href": "https://api.spotify.com/v1/playlists/0xDHDjP1Du4jFv0cjSqPBw/tracks", "total": 61}, "type": "playlist", "uri": "spotify:playlist:0xDHDjP1Du4jFv0cjSqPBw"}, {"collaborative": false, "description": "", "external_urls": {"spotify": "https://open.spotify.com/playlist/0oGK7xmyKLusOZ3j2x83IY"}, "href": "https://api.spotify.com/v1/playlists/0oGK7xmyKLusOZ3j2x83IY", "id": "0oGK7xmyKLusOZ3j2x83IY", "images": [{"height": 640, "url": "https://mosaic.scdn.co/640/ab67616d00001e023ab8221d5883c15656370102ab67616d00001e0247cc5d86f3528b233f2b78ffab67616d00001e02a3cf7d524baed9e303302918ab67616d00001e02aed4808eac27b70ba532f0e4", "width": 640}, {"height": 300, "url": "https://mosaic.scdn.co/300/ab67616d00001e023ab8221d5883c15656370102ab67616d00001e0247cc5d86f3528b233f2b78ffab67616d00001e02a3cf7d524baed9e303302918ab67616d00001e02aed4808eac27b70ba532f0e4", "width": 300}, {"height": 60, "url": "https://mosaic.scdn.co/60/ab67616d00001e023ab8221d5883c15656370102ab67616d00001e0247cc5d86f3528b233f2b78ffab67616d00001e02a3cf7d524baed9e303302918ab67616d00001e02aed4808eac27b70ba532f0e4", "width": 60}], "name": "Kids Halloween mix", "owner": {"display_name": "nichole659", "external_urls": {"spotify": "https://open.spotify.com/user/nichole659"}, "href": "https://api.spotify.com/v1/users/nichole659", "id": "nichole659", "type": "user", "uri": "spotify:user:nichole659"}, "primary_color": null, "public": true, "snapshot_id": "AAAAAp2mDYZgAs5pkLlLSKnejzMTrBm5", "tracks": {"href": "https://api.spotify.com/v1/playlists/0oGK7xmyKLusOZ3j2x83IY/tracks", "total": 13}, "type": "playlist", "uri": "spotify:playlist:0oGK7xmyKLusOZ3j2x83IY"}, {"collaborative": false, "description": "halloween is COOL.", "external_urls": {"spotify": "https://open.spotify.com/playlist/6PnC6tI0J9bfeLnbG7IgBA"}, "href": "https://api.spotify.com/v1/playlists/6PnC6tI0J9bfeLnbG7IgBA", "id": "6PnC6tI0J9bfeLnbG7IgBA", "images": [{"height": null, "url": "https://image-cdn-ak.spotifycdn.com/image/ab67706c0000da8411192ec904a682b1055b3c25", "width": null}], "name": "why are you so obsessed with halloween?", "owner": {"display_name": "lydia", "external_urls": {"spotify": "https://open.spotify.com/user/kmbjenuwt9zmj7rmni975jyrl"}, "href": "https://api.spotify.com/v1/users/kmbjenuwt9zmj7rmni975jyrl", "id": "kmbjenuwt9zmj7rmni975jyrl", "type": "user", "uri": "spotify:user:kmbjenuwt9zmj7rmni975jyrl"}, "primary_color": null, "public": true, "snapshot_id": "AAAAO5hSAnw6yULM6uZJgnPDslxjsnUv", "tracks": {"href": "https://api.spotify.com/v1/playlists/6PnC6tI0J9bfeLnbG7IgBA/tracks", "total": 54}, "type": "playlist", "uri": "spotify:playlist:6PnC6tI0J9bfeLnbG7IgBA"}, {"collaborative": false, "description": "it has some of the stuff you usually hear plus really good shiz you haven&#x27;t heard but you&#x27;ll love", "external_urls": {"spotify": "https://open.spotify.com/playlist/7i0L8n1KBBNHfpuEJwqeG8"}, "href": "https://api.spotify.com/v1/playlists/7i0L8n1KBBNHfpuEJwqeG8", "id": "7i0L8n1KBBNHfpuEJwqeG8", "images": [{"height": null, "url": "https://image-cdn-ak.spotifycdn.com/image/ab67706c0000da8485d4e45a1859e13b58fe421d", "width": null}], "name": "An actually good Halloween Playlist", "owner": {"display_name": "wallace", "external_urls": {"spotify": "https://open.spotify.com/user/ztx584atl73owmxc7p2jmdz3x"}, "href": "https://api.spotify.com/v1/users/ztx584atl73owmxc7p2jmdz3x", "id": "ztx584atl73owmxc7p2jmdz3x", "type": "user", "uri": "spotify:user:ztx584atl73owmxc7p2jmdz3x"}, "primary_color": null, "public": true, "snapshot_id": "AAAAQP6hzKhDGl19x+hZmiXoFIy3s0Lw", "tracks": {"href": "https://api.spotify.com/v1/playlists/7i0L8n1KBBNHfpuEJwqeG8/tracks", "total": 50}, "type": "playlist", "uri": "spotify:playlist:7i0L8n1KBBNHfpuEJwqeG8"}, {"collaborative": false, "description": "halloween | halloween 2025 | indie fall | autumn | fall | halloween vibes | spooky indie | autumn songs | autumn playlist | fall songs | fall feels | fall playlist | sweater weather | october | november | americana | folk | 70s | chilly | spooky vibes | chill in the air | leaves falling | ghosts", "external_urls": {"spotify": "https://open.spotify.com/playlist/10B6zySvb25USKTcxjcKB1"}, "href": "https://api.spotify.com/v1/playlists/10B6zySvb25USKTcxjcKB1", "id": "10B6zySvb25USKTcxjcKB1", "images": [{"height": null, "url": "https://image-cdn-ak.spotifycdn.com/image/ab67706c0000da841be4999e54798108f3dc7f45", "width": null}], "name": "HALLOWEEN VIBES \ud83c\udf42  INDIE FALL", "owner": {"display_name": "Filtr US", "external_urls": {"spotify": "https://open.spotify.com/user/myplay.com"}, "href": "https://api.spotify.com/v1/users/myplay.com", "id": "myplay.com", "type": "user", "uri": "spotify:user:myplay.com"}, "primary_color": null, "public": true, "snapshot_id": "AAAEvEFKeXxD+KYYYKvtX/jlgmNljb8W", "tracks": {"href": "https://api.spotify.com/v1/playlists/10B6zySvb25USKTcxjcKB1/tracks", "total": 186}, "type": "playlist", "uri": "spotify:playlist:10B6zySvb25USKTcxjcKB1"}]}}