{"playlists": {"href": "https://api.spotify.com/v1/search?offset=0&limit=5&query=santa%20monica%20boardwalk&type=playlist", "limit": 5, "next": "https://api.spotify.com/v1/search?offset=5&limit=5&query=santa%20monica%20boardwalk&type=playlist", "offset": 0, "previous": null, "total": 801, "items": [{"collaborative": false, "description": "", "external_urls": {"spotify": "https://open.spotify.com/playlist/7hkfXiLARrWgZHPRdVvlpS"}, "href": "https://api.spotify.com/v1/playlists/7hkfXiLARrWgZHPRdVvlpS", "id": "7hkfXiLARrWgZHPRdVvlpS", "images": [{"height": null, "url": "https://image-cdn-ak.spotifycdn.com/image/ab67706c0000da84d22e7666cc3b91caa9ce4233", "width": null}], "name": "sunset dates at the santa monica boardwalk", "owner": {"display_name": "justtoclairify", "external_urls": {"spotify": "https://open.spotify.com/user/justtoclairify"}, "href": "https://api.spotify.com/v1/users/justtoclairify", "id": "justtoclairify", "type": "user", "uri": "spotify:user:justtoclairify"}, "primary_color": null, "public": true, "snapshot_id": "AAAAdn3GvOsaC0GeEfRGEeXg4FWTbme/", "tracks": {"href": "https://api.spotify.com/v1/playlists/7hkfXiLARrWgZHPRdVvlpS/tracks", "total": 101}, "type": "playlist", "uri": "spotify:playlist:7hkfXiLARrWgZHPRdVvlpS"}, null, {"collaborative": false, "description": "meet me at Rivas after we get off the water ", "external_urls": {"spotify": "https://open.spotify.com/playlist/6FuRxrI7o5FkNXoZHhggHK"}, "href": "https://api.spotify.com/v1/playlists/6FuRxrI7o5FkNXoZHhggHK", "id": "6FuRxrI7o5FkNXoZHhggHK", "images": [{"height": 640, "url": "https://mosaic.scdn.co/640/ab67616d00001e028fc4b0dcfb9509553f195c85ab67616d00001e02c63cd31653491e102712ee1aab67616d00001e02d77299e3d29f44495cd7fbcbab67616d00001e02dc1886ac54cb45a8843404d7", "width": 640}, {"height": 300, "url": "https://mosaic.scdn.co/300/ab67616d00001e028fc4b0dcfb9509553f195c85ab67616d00001e02c63cd31653491e102712ee1aab67616d00001e02d77299e3d29f44495cd7fbcbab67616d00001e02dc1886ac54cb45a8843404d7", "width": 300}, {"height": 60, "url": "https://mosaic.scdn.co/60/ab67616d00001e028fc4b0dcfb9509553f195c85ab67616d00001e02c63cd31653491e102712ee1aab67616d00001e02d77299e3d29f44495cd7fbcbab67616d00001e02dc1886ac54cb45a8843404d7", "width": 60}], "name": "Santa Cruz boardwalk ", "owner": {"display_name": "Jack Duchala", "external_urls": {"spotify": "https://open.spotify.com/user/21ja4j2mgmntrmeya3yx4e5aa"}, "href": "https://api.spotify.com/v1/users/21ja4j2mgmntrmeya3yx4e5aa", "id": "21ja4j2mgmntrmeya3yx4e5aa", "type": "user", "uri": "spotify:user:21ja4j2mgmntrmeya3yx4e5aa"}, "primary_color": null, "public": true, "snapshot_id": "AAAAdK+XDjq+qzVcBVyWZrb7lwwR7Czy", "tracks": {"href": "https://api.spotify.com/v1/playlists/6FuRxrI7o5FkNXoZHhggHK/tracks", "total": 99}, "type": "playlist", "uri": "spotify:playlist:6FuRxrI7o5FkNXoZHhggHK"}, null, {"collaborative": false, "description": "", "external_urls": {"spotify": "https://open.spotify.com/playlist/4ozGJZksOIklqHDa5klgER"}, "href": "https://api.spotify.com/v1/playlists/4ozGJZksOIklqHDa5klgER", "id": "4ozGJZksOIklqHDa5klgER", "images": [{"height": 640, "url": "https://mosaic.scdn.co/640/ab67616d00001e021e0dc5baaabda304b0ad1815ab67616d00001e02c98277eb4535eaeb19f403ccab67616d00001e02cbce842ff4960675dcfc921eab67616d00001e02dfdedd4553b40bbaab342dae", "width": 640}, {"height": 300, "url": "https://mosaic.scdn.co/300/ab67616d00001e021e0dc5baaabda304b0ad1815ab67616d00001e02c98277eb4535eaeb19f403ccab67616d00001e02cbce842ff4960675dcfc921eab67616d00001e02dfdedd4553b40bbaab342dae", "width": 300}, {"height": 60, "url": "https://mosaic.scdn.co/60/ab67616d00001e021e0dc5baaabda304b0ad1815ab67616d00001e02c98277eb4535eaeb19f403ccab67616d00001e02cbce842ff4960675dcfc921eab67616d00001e02dfdedd4553b40bbaab342dae", "width": 60}], "name": "90s/2000s Beach Music", "owner": {"display_name": "Lauren Hays", "external_urls": {"spotify": "https://open.spotify.com/user/laurennicole93"}, "href": "https://api.spotify.com/v1/users/laurennicole93", "id": "laurennicole93", "type": "user", "uri": "spotify:user:laurennicole93"}, "primary_color": null, "public": true, "snapshot_id": "AAAASGMKf2ml7K6waLmLqfPTMATJr+yO", "tracks": {"href": "https://api.spotify.com/v1/playlists/4ozGJZksOIklqHDa5klgER/tracks", "total": 44}, "type": "playlist", "uri": "spotify:playlist:4ozGJZksOIklqHDa5klgER"}]}}