{"playlists": {"href": "https://api.spotify.com/v1/search?offset=0&limit=5&query=sad%20tamil&type=playlist", "limit": 5, "next": "https://api.spotify.com/v1/search?offset=5&limit=5&query=sad%20tamil&type=playlist", "offset": 0, "previous": null, "total": 901, "items": [{"collaborative": false, "description": "", "external_urls": {"spotify": "https://open.spotify.com/playlist/51hmVNeZVcZQKaSecPoLs0"}, "href": "https://api.spotify.com/v1/playlists/51hmVNeZVcZQKaSecPoLs0", "id": "51hmVNeZVcZQKaSecPoLs0", "images": [{"height": null, "url": "https://image-cdn-ak.spotifycdn.com/image/ab67706c0000da84329ea7e0ddb2b20185ef84f3", "width": null}], "name": "Tamil Sad Songs", "owner": {"display_name": "Varsh\ud83d\udcab", "external_urls": {"spotify": "https://open.spotify.com/user/sr2mhrplmh50bkk2p2vc0behx"}, "href": "https://api.spotify.com/v1/users/sr2mhrplmh50bkk2p2vc0behx", "id": "sr2mhrplmh50bkk2p2vc0behx", "type": "user", "uri": "spotify:user:sr2mhrplmh50bkk2p2vc0behx"}, "primary_color": null, "public": true, "snapshot_id": "AAAA48gyNWf+/KunbMQNEOn6qzSMlRW0", "tracks": {"href": "https://api.spotify.com/v1/playlists/51hmVNeZVcZQKaSecPoLs0/tracks", "total": 234}, "type": "playlist", "uri": "spotify:playlist:51hmVNeZVcZQKaSecPoLs0"}, {"collaborative": false, "description": "new tamil songs 2025, new tamil songs 2024, tamil songs, latest tamil songs 2025, latest tamil, tamil songs, sad tamil songs, tamil melody hits, tamil vibe songs, romantic tamil songs, hot hits tamil, tamil new songs, trending tamil songs, tamil trending songs, trending songs, viral 50, Tamil", "external_urls": {"spotify": "https://open.spotify.com/playlist/75wi76gHtFUUYspvu4iFhX"}, "href": "https://api.spotify.com/v1/playlists/75wi76gHtFUUYspvu4iFhX", "id": "75wi76gHtFUUYspvu4iFhX", "images": [{"height": null, "url": "https://image-cdn-ak.spotifycdn.com/image/ab67706c0000da84bec52222081685b1bda36587", "width": null}], "name": "New Tamil Songs 2025 \ud83d\udc95 | Trending Tamil Songs \ud83e\ude77 | Latest Tamil Songs 2025 | Tamil Songs | Tamil", "owner": {"display_name": "Your me time \ud83e\udd0d", "external_urls": {"spotify": "https://open.spotify.com/user/313awrkuuhjj2zvdnsji3gqmmgle"}, "href": "https://api.spotify.com/v1/users/313awrkuuhjj2zvdnsji3gqmmgle", "id": "313awrkuuhjj2zvdnsji3gqmmgle", "type": "user", "uri": "spotify:user:313awrkuuhjj2zvdnsji3gqmmgle"}, "primary_color": null, "public": true, "snapshot_id": "AAABz72rdv9hN3y5AQ3/ZGBeWU9qMvpM", "tracks": {"href": "https://api.spotify.com/v1/playlists/75wi76gHtFUUYspvu4iFhX/tracks", "total": 91}, "type": "playlist", "uri": "spotify:playlist:75wi76gHtFUUYspvu4iFhX"}, {"collaborative": false, "description": "", "external_urls": {"spotify": "https://open.spotify.com/playlist/4Q4t0yrlTIWVjNNVphqJ9d"}, "href": "https://api.spotify.com/v1/playlists/4Q4t0yrlTIWVjNNVphqJ9d", "id": "4Q4t0yrlTIWVjNNVphqJ9d", "images": [{"height": 640, "url": "https://mosaic.scdn.co/640/ab67616d00001e021d95a687101bd4cd802c83a1ab67616d00001e02729ad68875f57912947255d5ab67616d00001e027de8959929372430846f570eab67616d00001e029aaf33eabf53468f161ca1de", "width": 640}, {"height": 300, "url": "https://mosaic.scdn.co/300/ab67616d00001e021d95a687101bd4cd802c83a1ab67616d00001e02729ad68875f57912947255d5ab67616d00001e027de8959929372430846f570eab67616d00001e029aaf33eabf53468f161ca1de", "width": 300}, {"height": 60, "url": "https://mosaic.scdn.co/60/ab67616d00001e021d95a687101bd4cd802c83a1ab67616d00001e02729ad68875f57912947255d5ab67616d00001e027de8959929372430846f570eab67616d00001e029aaf33eabf53468f161ca1de", "width": 60}], "name": "\ud83d\udc94\ud83e\udd40U1 DRUGS \ud83c\udf41\ud83c\udf08", "owner": {"display_name": "Swetha", "external_urls": {"spotify": "https://open.spotify.com/user/31ykquy2jazq4lx65lipe6jvtr4m"}, "href": "https://api.spotify.com/v1/users/31ykquy2jazq4lx65lipe6jvtr4m", "id": "31ykquy2jazq4lx65lipe6jvtr4m", "type": "user", "uri": "spotify:user:31ykquy2jazq4lx65lipe6jvtr4m"}, "primary_color": null, "public": true, "snapshot_id": "AAAAIisy1KrhiNcUOPJizJqy2NuiIWLO", "tracks": {"href": "https://api.spotify.com/v1/playlists/4Q4t0yrlTIWVjNNVphqJ9d/tracks", "total": 22}, "type": "playlist", "uri": "spotify:playlist:4Q4t0yrlTIWVjNNVphqJ9d"}, null, {"collaborative": false, "description": "kaayathai nesikiren enna solla naanum ini", "external_urls": {"spotify": "https://open.spotify.com/playlist/1KFlRWPbEzhUbOe6SKWBXz"}, "href": "https://api.spotify.com/v1/playlists/1KFlRWPbEzhUbOe6SKWBXz", "id": "1KFlRWPbEzhUbOe6SKWBXz", "images": [{"height": null, "url": "https://image-cdn-ak.spotifycdn.com/image/ab67706c0000da84f5417001fe809b43057340e7", "width": null}], "name": "sad melodies", "owner": {"display_name": "yavvanastories", "external_urls": {"spotify": "https://open.spotify.com/user/8nw7pdkh23dykr9zaott9fdus"}, "href": "https://api.spotify.com/v1/users/8nw7pdkh23dykr9zaott9fdus", "id": "8nw7pdkh23dykr9zaott9fdus", "type": "user", "uri": "spotify:user:8nw7pdkh23dykr9zaott9fdus"}, "primary_color": null, "public": true, "snapshot_id": "AAAAbx72YKVQyZF89SWGVSD28qru5Uy5", "tracks": {"href": "https://api.spotify.com/v1/playlists/1KFlRWPbEzhUbOe6SKWBXz/tracks", "total": 95}, "type": "playlist", "uri": "spotify:playlist:1KFlRWPbEzhUbOe6SKWBXz"}]}}