{"playlists": {"href": "https://api.spotify.com/v1/search?offset=0&limit=5&query=black%20girl%20pop&type=playlist", "limit": 5, "next": "https://api.spotify.com/v1/search?offset=5&limit=5&query=black%20girl%20pop&type=playlist", "offset": 0, "previous": null, "total": 904, "items": [{"collaborative": false, "description": "pop (bubblegum, alt, rap, dance, rock) songs by black artists!", "external_urls": {"spotify": "https://open.spotify.com/playlist/5afwczn1vLSBQmZfGbxu4G"}, "href": "https://api.spotify.com/v1/playlists/5afwczn1vLSBQmZfGbxu4G", "id": "5afwczn1vLSBQmZfGbxu4G", "images": [{"height": null, "url": "https://image-cdn-ak.spotifycdn.com/image/ab67706c0000d72c94f93a27002b9d9d104dff6a", "width": null}], "name": "BLACK POP GIRLZ", "owner": {"display_name": "RAE", "external_urls": {"spotify": "https://open.spotify.com/user/russellrae8"}, "href": "https://api.spotify.com/v1/users/russellrae8", "id": "russellrae8", "type": "user", "uri": "spotify:user:russellrae8"}, "primary_color": null, "public": true, "snapshot_id": "AAABei7FBHhxC1hgqKQRco+KJLLXEvJX", "tracks": {"href": "https://api.spotify.com/v1/playlists/5afwczn1vLSBQmZfGbxu4G/tracks", "total": 229}, "type": "playlist", "uri": "spotify:playlist:5afwczn1vLSBQmZfGbxu4G"}, {"collaborative": false, "description": "songs like jump by blackpink, golden vibes,  sounds like jump, gabriela katseye, killin it girl vibes by j hope glorilla, like jennie, apt rose bruno, gnarly katseye, touch, magnetic illit, earthquake jisoo, born again lisa doja cat raye, extral jennie doechii, fuck up the world, mantra, new jeans", "external_urls": {"spotify": "https://open.spotify.com/playlist/79e6HXT6tTCoxs4Bm9qlge"}, "href": "https://api.spotify.com/v1/playlists/79e6HXT6tTCoxs4Bm9qlge", "id": "79e6HXT6tTCoxs4Bm9qlge", "images": [{"height": null, "url": "https://image-cdn-ak.spotifycdn.com/image/ab67706c0000da84bedd058ae44b3722e3570bfa", "width": null}], "name": "hot gym girl kpop workout playlist \ud83d\udd25 best k-pop hits \u2764\ufe0f\u200d\ud83d\udd25", "owner": {"display_name": "Stormy Chocada", "external_urls": {"spotify": "https://open.spotify.com/user/biels09"}, "href": "https://api.spotify.com/v1/users/biels09", "id": "biels09", "type": "user", "uri": "spotify:user:biels09"}, "primary_color": null, "public": true, "snapshot_id": "AAAPm6xmzw1egAeLE7AhiLjp2gV4WqzI", "tracks": {"href": "https://api.spotify.com/v1/playlists/79e6HXT6tTCoxs4Bm9qlge/tracks", "total": 138}, "type": "playlist", "uri": "spotify:playlist:79e6HXT6tTCoxs4Bm9qlge"}, {"collaborative": false, "description": "a hype playlist for the black girls \ud83d\ude1c\ud83d\ude1d", "external_urls": {"spotify": "https://open.spotify.com/playlist/6L7NmARWQdlIISvKkdIrDi"}, "href": "https://api.spotify.com/v1/playlists/6L7NmARWQdlIISvKkdIrDi", "id": "6L7NmARWQdlIISvKkdIrDi", "images": [{"height": null, "url": "https://image-cdn-ak.spotifycdn.com/image/ab67706c0000da846a1260343e136943d811f78b", "width": null}], "name": "black girl hype \ud83e\udef6\ud83c\udffe", "owner": {"display_name": "chelsea <3", "external_urls": {"spotify": "https://open.spotify.com/user/dtj5pqk2jrw5gn507dcypdt2k"}, "href": "https://api.spotify.com/v1/users/dtj5pqk2jrw5gn507dcypdt2k", "id": "dtj5pqk2jrw5gn507dcypdt2k", "type": "user", "uri": "spotify:user:dtj5pqk2jrw5gn507dcypdt2k"}, "primary_color": null, "public": true, "snapshot_id": "AAABjDaxSemVVaA23khMQIpxBKZIFLXg", "tracks": {"href": "https://api.spotify.com/v1/playlists/6L7NmARWQdlIISvKkdIrDi/tracks", "total": 190}, "type": "playlist", "uri": "spotify:playlist:6L7NmARWQdlIISvKkdIrDi"}, {"collaborative": false, "description": "black girl magic", "external_urls": {"spotify": "https://open.spotify.com/playlist/5SxaM0HGm9nfYfSxcbh4cG"}, "href": "https://api.spotify.com/v1/playlists/5SxaM0HGm9nfYfSxcbh4cG", "id": "5SxaM0HGm9nfYfSxcbh4cG", "images": [{"height": null, "url": "https://image-cdn-ak.spotifycdn.com/image/ab67706c0000da84f6cef14911ed7fbce8043d31", "width": null}], "name": "black pop girlies", "owner": {"display_name": "Rahmat Subarkah", "external_urls": {"spotify": "https://open.spotify.com/user/rahmatole"}, "href": "https://api.spotify.com/v1/users/rahmatole", "id": "rahmatole", "type": "user", "uri": "spotify:user:rahmatole"}, "primary_color": null, "public": true, "snapshot_id": "AAAAin9Njh65CP+pZ6QkQdVK6CMtkkj3", "tracks": {"href": "https://api.spotify.com/v1/playlists/5SxaM0HGm9nfYfSxcbh4cG/tracks", "total": 93}, "type": "playlist", "uri": "spotify:playlist:5SxaM0HGm9nfYfSxcbh4cG"}, {"collaborative": false, "description": "BEAUTY MAY BE DANGEROUS, BUT INTELLIGENCE IS LETHAL \ud83d\udc8b\ud83d\udda4\ud83d\udc80\ud83d\udd78\ufe0f\ud83c\udf77\ud83e\ude78 WALKING RED FLAG, FEMME FATALE, BLACK WIDOW, DARK POP DARK ROMANCE SIREN ENERGY VILLAINESS PLAYLIST SONGS THAT MAKE YOU FEEL LIKE A VILLAIN ARC GOD COMPLEX MUSIC PSYCHO KILLER CRAZY UNHINGED INSANE RAGE BAD GIRL VAMPIRE MANIPULATOR", "external_urls": {"spotify": "https://open.spotify.com/playlist/6yP1AEB5iExgrItHjOGjsR"}, "href": "https://api.spotify.com/v1/playlists/6yP1AEB5iExgrItHjOGjsR", "id": "6yP1AEB5iExgrItHjOGjsR", "images": [{"height": null, "url": "https://image-cdn-ak.spotifycdn.com/image/ab67706c0000da846941def1c543d770ad62b4fd", "width": null}], "name": "Psychotically Toxic Female Villain \ud83d\udd25\ud83d\udd2a Hot Girl Revenge Era, Sexy Badass Vibes, Dark Feminine Energy", "owner": {"display_name": "PRETTY GIRL FM \ud83d\udc96\ud83c\udf80", "external_urls": {"spotify": "https://open.spotify.com/user/4ihsf0f7i9n07sytp3svh7g97"}, "href": "https://api.spotify.com/v1/users/4ihsf0f7i9n07sytp3svh7g97", "id": "4ihsf0f7i9n07sytp3svh7g97", "type": "user", "uri": "spotify:user:4ihsf0f7i9n07sytp3svh7g97"}, "primary_color": null, "public": true, "snapshot_id": "AAAcK8GLlhYsW5P6x/LbuDBBHjtKR8qq", "tracks": {"href": "https://api.spotify.com/v1/playlists/6yP1AEB5iExgrItHjOGjsR/tracks", "total": 218}, "type": "playlist", "uri": "spotify:playlist:6yP1AEB5iExgrItHjOGjsR"}]}}