{"playlists": {"href": "https://api.spotify.com/v1/search?offset=0&limit=5&query=outdoors&type=playlist", "limit": 5, "next": "https://api.spotify.com/v1/search?offset=5&limit=5&query=outdoors&type=playlist", "offset": 0, "previous": null, "total": 903, "items": [{"collaborative": false, "description": "Relaxing music for your patio, BBQs, late nights by the campfire, and everything in between. Chill vibes is an all-new playlist of indie folk songs to soothe your soul. Chill Out Indie Music Playlist  <a href=\"https://ko-fi.com/irlesmusic\">Submissions</a> ", "external_urls": {"spotify": "https://open.spotify.com/playlist/5lpsNdp8BTahoNICyl1r1K"}, "href": "https://api.spotify.com/v1/playlists/5lpsNdp8BTahoNICyl1r1K", "id": "5lpsNdp8BTahoNICyl1r1K", "images": [{"height": null, "url": "https://image-cdn-ak.spotifycdn.com/image/ab67706c0000d72c93cc8c08357a0ba128553f37", "width": null}], "name": "Outdoorsy Chill Vibes \u26f0\ufe0f", "owner": {"display_name": "Irles Music", "external_urls": {"spotify": "https://open.spotify.com/user/jaime33"}, "href": "https://api.spotify.com/v1/users/jaime33", "id": "jaime33", "type": "user", "uri": "spotify:user:jaime33"}, "primary_color": null, "public": true, "snapshot_id": "AAABl4re9IPcrdWdGOo5iAsIABmC8qX2", "tracks": {"href": "https://api.spotify.com/v1/playlists/5lpsNdp8BTahoNICyl1r1K/tracks", "total": 129}, "type": "playlist", "uri": "spotify:playlist:5lpsNdp8BTahoNICyl1r1K"}, {"collaborative": false, "description": "Lots of sounds to help you sleep \u2014 crickets, frogs, rain, forest, brooks, and much more. Enjoy the great outdoors without leaving your house!", "external_urls": {"spotify": "https://open.spotify.com/playlist/2yYkcHktFQCxLQmCmY8N5M"}, "href": "https://api.spotify.com/v1/playlists/2yYkcHktFQCxLQmCmY8N5M", "id": "2yYkcHktFQCxLQmCmY8N5M", "images": [{"height": null, "url": "https://image-cdn-ak.spotifycdn.com/image/ab67706c0000da846e5534fb5bbe135f985eb510", "width": null}], "name": "Night Sounds for Sleep and Relaxation", "owner": {"display_name": "Signal Alchemy", "external_urls": {"spotify": "https://open.spotify.com/user/uvefgsc9awlnsgk180e7vypcw"}, "href": "https://api.spotify.com/v1/users/uvefgsc9awlnsgk180e7vypcw", "id": "uvefgsc9awlnsgk180e7vypcw", "type": "user", "uri": "spotify:user:uvefgsc9awlnsgk180e7vypcw"}, "primary_color": null, "public": true, "snapshot_id": "AAABIBgiC53NoY1gPVfkb1CKB4tO0kIX", "tracks": {"href": "https://api.spotify.com/v1/playlists/2yYkcHktFQCxLQmCmY8N5M/tracks", "total": 115}, "type": "playlist", "uri": "spotify:playlist:2yYkcHktFQCxLQmCmY8N5M"}, {"collaborative": false, "description": "this playlist smells like pine trees", "external_urls": {"spotify": "https://open.spotify.com/playlist/0xLjL6UJmkvXE809gcUWCv"}, "href": "https://api.spotify.com/v1/playlists/0xLjL6UJmkvXE809gcUWCv", "id": "0xLjL6UJmkvXE809gcUWCv", "images": [{"height": null, "url": "https://image-cdn-ak.spotifycdn.com/image/ab67706c0000da8463207c455be3276784df1ceb", "width": null}], "name": "outdoorsy\ud83c\udf32", "owner": {"display_name": "Trinity Templin", "external_urls": {"spotify": "https://open.spotify.com/user/127847955"}, "href": "https://api.spotify.com/v1/users/127847955", "id": "127847955", "type": "user", "uri": "spotify:user:127847955"}, "primary_color": null, "public": true, "snapshot_id": "AAABSBgOzqYW/J0v2oF4y+NGZDEhC2it", "tracks": {"href": "https://api.spotify.com/v1/playlists/0xLjL6UJmkvXE809gcUWCv/tracks", "total": 216}, "type": "playlist", "uri": "spotify:playlist:0xLjL6UJmkvXE809gcUWCv"}, null, {"collaborative": false, "description": "Lazy | Mellow | Calming | Relax | Acoustic | Folk | Instrumental | Relaxing | Camping | Outdoors | Nature | Summer | Cabin | Hike | Slow | Calm | Quiet | Guitar | Piano | No Words | Chill | Peace | Peaceful | Iced Coffee | Reading | Writing | Mindfulness | Camp | Campfire | Granola | Focus | Sleep", "external_urls": {"spotify": "https://open.spotify.com/playlist/6IAv4j4SLLFgkv4ztgCYcf"}, "href": "https://api.spotify.com/v1/playlists/6IAv4j4SLLFgkv4ztgCYcf", "id": "6IAv4j4SLLFgkv4ztgCYcf", "images": [{"height": null, "url": "https://image-cdn-ak.spotifycdn.com/image/ab67706c0000da84a757c1517213389f914c7bed", "width": null}], "name": "Cozy Summer Instrumentals", "owner": {"display_name": "Root Note Records", "external_urls": {"spotify": "https://open.spotify.com/user/1244068226"}, "href": "https://api.spotify.com/v1/users/1244068226", "id": "1244068226", "type": "user", "uri": "spotify:user:1244068226"}, "primary_color": null, "public": true, "snapshot_id": "AAABlDLTGCMOW1AUEuaZNofU8A2CGeaC", "tracks": {"href": "https://api.spotify.com/v1/playlists/6IAv4j4SLLFgkv4ztgCYcf/tracks", "total": 322}, "type": "playlist", "uri": "spotify:playlist:6IAv4j4SLLFgkv4ztgCYcf"}]}}