{"playlists": {"href": "https://api.spotify.com/v1/search?offset=0&limit=5&query=prom%20disco&type=playlist", "limit": 5, "next": "https://api.spotify.com/v1/search?offset=5&limit=5&query=prom%20disco&type=playlist", "offset": 0, "previous": null, "total": 1000, "items": [{"collaborative": false, "description": "best underground artists slayworld,opium  etc\ud83d\udc95. add @sexchanges on discord for quality promo(only can take visa giftcard rn)", "external_urls": {"spotify": "https://open.spotify.com/playlist/0wFPWACzVn4WYgXlMQoiGb"}, "href": "https://api.spotify.com/v1/playlists/0wFPWACzVn4WYgXlMQoiGb", "id": "0wFPWACzVn4WYgXlMQoiGb", "images": [{"height": null, "url": "https://image-cdn-ak.spotifycdn.com/image/ab67706c0000d72c5e9c15fc9bcb0acd8c804f05", "width": null}], "name": "BEST OF UNDERGROUND \ud83d\udde3\ufe0f", "owner": {"display_name": "sexchanges", "external_urls": {"spotify": "https://open.spotify.com/user/314rpvoobdbwalmvjthtkpbg2s3y"}, "href": "https://api.spotify.com/v1/users/314rpvoobdbwalmvjthtkpbg2s3y", "id": "314rpvoobdbwalmvjthtkpbg2s3y", "type": "user", "uri": "spotify:user:314rpvoobdbwalmvjthtkpbg2s3y"}, "primary_color": null, "public": true, "snapshot_id": "AAANw3U7nG17TNDwjjZr2AOqdscVHrcj", "tracks": {"href": "https://api.spotify.com/v1/playlists/0wFPWACzVn4WYgXlMQoiGb/tracks", "total": 896}, "type": "playlist", "uri": "spotify:playlist:0wFPWACzVn4WYgXlMQoiGb"}, {"collaborative": false, "description": "katseye discography \u2013 all songs in release order \u2661 from dream academy! hybe x geffen girl group. sophia manon daniela lara megan yoonchae. wont add repeated songs&#x2F;remixes&#x2F;instrumentals (unless there&#x27;s a significant difference, another language or a new line from a featuring) GNARLY GABRIELA GAMEBOY", "external_urls": {"spotify": "https://open.spotify.com/playlist/4inCE68BLhsabxlw2FEyDK"}, "href": "https://api.spotify.com/v1/playlists/4inCE68BLhsabxlw2FEyDK", "id": "4inCE68BLhsabxlw2FEyDK", "images": [{"height": null, "url": "https://image-cdn-ak.spotifycdn.com/image/ab67706c0000da84e656445926c303a2b241ec5e", "width": null}], "name": "katseye \u2014 all songs \u2726", "owner": {"display_name": "\u2730\u5f61", "external_urls": {"spotify": "https://open.spotify.com/user/fvuugjfmd42zfydde9oe5ptx7"}, "href": "https://api.spotify.com/v1/users/fvuugjfmd42zfydde9oe5ptx7", "id": "fvuugjfmd42zfydde9oe5ptx7", "type": "user", "uri": "spotify:user:fvuugjfmd42zfydde9oe5ptx7"}, "primary_color": null, "public": true, "snapshot_id": "AAAAL0VlOreC05WKhdMv8/WO8cMV1DKI", "tracks": {"href": "https://api.spotify.com/v1/playlists/4inCE68BLhsabxlw2FEyDK/tracks", "total": 14}, "type": "playlist", "uri": "spotify:playlist:4inCE68BLhsabxlw2FEyDK"}, null, null, {"collaborative": false, "description": "\ud83d\udfe1This is Rosal\u00eda Radio ULTIMO SINGLE de 2025 todas las canciones hits discografia completa gira tour setlist beso vampiros promesa El pa\u00f1uelo Despecha, bizcochito LLYLM la noche de anoche, fama, el pa\u00f1uelo, candy, saoko, con altura, yo x ti tu x mi, combi versace, chicken teriyaki, linda el m\u00e1s 6900", "external_urls": {"spotify": "https://open.spotify.com/playlist/253yzIXNxs8LVCE9AhCZ4u"}, "href": "https://api.spotify.com/v1/playlists/253yzIXNxs8LVCE9AhCZ4u", "id": "253yzIXNxs8LVCE9AhCZ4u", "images": [{"height": null, "url": "https://image-cdn-ak.spotifycdn.com/image/ab67706c0000da84ffc87a6e798c5438a864186d", "width": null}], "name": "ROSALIA MIX\ud83d\ude0dEXITOS/LO MEJOR", "owner": {"display_name": "\ud83d\udc9b\ud83d\udc9b\ud83d\udc9b\ud83d\udc9b M\u00fasica Urbana Playlists", "external_urls": {"spotify": "https://open.spotify.com/user/a3ffwe33s5tryl09c9yicb3vt"}, "href": "https://api.spotify.com/v1/users/a3ffwe33s5tryl09c9yicb3vt", "id": "a3ffwe33s5tryl09c9yicb3vt", "type": "user", "uri": "spotify:user:a3ffwe33s5tryl09c9yicb3vt"}, "primary_color": null, "public": true, "snapshot_id": "AAABTxhz2Ihx3lZiMwrYcouwXpfRTW4b", "tracks": {"href": "https://api.spotify.com/v1/playlists/253yzIXNxs8LVCE9AhCZ4u/tracks", "total": 31}, "type": "playlist", "uri": "spotify:playlist:253yzIXNxs8LVCE9AhCZ4u"}]}}