{"playlists": {"href": "https://api.spotify.com/v1/search?offset=0&limit=5&query=safari%20adventure&type=playlist", "limit": 5, "next": "https://api.spotify.com/v1/search?offset=5&limit=5&query=safari%20adventure&type=playlist", "offset": 0, "previous": null, "total": 822, "items": [{"collaborative": false, "description": "canvas tents, crickets chirping, riding in a jeep, lions and giraffes grazing in the grasslands, vibrant sunsets, flickering copper lanterns and constellations in the night sky", "external_urls": {"spotify": "https://open.spotify.com/playlist/5nKpyneY5XkHwu4F7CbF8G"}, "href": "https://api.spotify.com/v1/playlists/5nKpyneY5XkHwu4F7CbF8G", "id": "5nKpyneY5XkHwu4F7CbF8G", "images": [{"height": null, "url": "https://image-cdn-ak.spotifycdn.com/image/ab67706c0000da847584cc3f6ecf3470b94963f7", "width": null}], "name": "safari adventure", "owner": {"display_name": "juliasherman", "external_urls": {"spotify": "https://open.spotify.com/user/alexocean"}, "href": "https://api.spotify.com/v1/users/alexocean", "id": "alexocean", "type": "user", "uri": "spotify:user:alexocean"}, "primary_color": null, "public": true, "snapshot_id": "AAAAVsISsRBaha3JY9fWEVnSGoF3c0ZD", "tracks": {"href": "https://api.spotify.com/v1/playlists/5nKpyneY5XkHwu4F7CbF8G/tracks", "total": 73}, "type": "playlist", "uri": "spotify:playlist:5nKpyneY5XkHwu4F7CbF8G"}, {"collaborative": false, "description": "Safari Island", "external_urls": {"spotify": "https://open.spotify.com/playlist/4aCZ5Vv87sCf4YyuYlDXuM"}, "href": "https://api.spotify.com/v1/playlists/4aCZ5Vv87sCf4YyuYlDXuM", "id": "4aCZ5Vv87sCf4YyuYlDXuM", "images": [{"height": null, "url": "https://image-cdn-ak.spotifycdn.com/image/ab67706c0000da848979ff9715f885e8ed61ca7a", "width": null}], "name": "Camp Del Corazon Adventure 2025", "owner": {"display_name": "Kyle Johnson", "external_urls": {"spotify": "https://open.spotify.com/user/128488964"}, "href": "https://api.spotify.com/v1/users/128488964", "id": "128488964", "type": "user", "uri": "spotify:user:128488964"}, "primary_color": null, "public": true, "snapshot_id": "AAAAVN1eE5tj7EwHciCzh8E0eLsQVm+3", "tracks": {"href": "https://api.spotify.com/v1/playlists/4aCZ5Vv87sCf4YyuYlDXuM/tracks", "total": 39}, "type": "playlist", "uri": "spotify:playlist:4aCZ5Vv87sCf4YyuYlDXuM"}, null, null, {"collaborative": false, "description": "Whether on a safari in Africa or leading up to an epic adventure with Yellow Zebra Safaris, here are our top songs to get you excited about your trip.", "external_urls": {"spotify": "https://open.spotify.com/playlist/6GmeVkhtRa1ydMCyzyfL4I"}, "href": "https://api.spotify.com/v1/playlists/6GmeVkhtRa1ydMCyzyfL4I", "id": "6GmeVkhtRa1ydMCyzyfL4I", "images": [{"height": null, "url": "https://image-cdn-ak.spotifycdn.com/image/ab67706c0000da84fe1cf5bd699a128de8eda99a", "width": null}], "name": "The Yellow Zebra 'Safari Playlist'", "owner": {"display_name": "Yellow Zebra", "external_urls": {"spotify": "https://open.spotify.com/user/marketing-867"}, "href": "https://api.spotify.com/v1/users/marketing-867", "id": "marketing-867", "type": "user", "uri": "spotify:user:marketing-867"}, "primary_color": null, "public": true, "snapshot_id": "AAAAXjNYgAyjjF/cW3uIuEOLBaInuxwq", "tracks": {"href": "https://api.spotify.com/v1/playlists/6GmeVkhtRa1ydMCyzyfL4I/tracks", "total": 46}, "type": "playlist", "uri": "spotify:playlist:6GmeVkhtRa1ydMCyzyfL4I"}]}}