{"playlists": {"href": "https://api.spotify.com/v1/search?offset=0&limit=5&query=african%20beats&type=playlist", "limit": 5, "next": "https://api.spotify.com/v1/search?offset=5&limit=5&query=african%20beats&type=playlist", "offset": 0, "previous": null, "total": 903, "items": [{"collaborative": false, "description": "All the old and New Hits in one playlist. Best Afrobeats, Afrobeats Hits, African music, Top Afrobeats 2025, Afrobeat 2025, Top 100 Nigeria - Rema - Tyla - Ayra Starr - Oxlade - Wizkid - Burna Boy - Davido - Omah Lay - FireboyDML - Tems - Lojay -Libianca - Asake - Adekunle  - City Boys - Peru.", "external_urls": {"spotify": "https://open.spotify.com/playlist/25Y75ozl2aI0NylFToefO5"}, "href": "https://api.spotify.com/v1/playlists/25Y75ozl2aI0NylFToefO5", "id": "25Y75ozl2aI0NylFToefO5", "images": [{"height": null, "url": "https://image-cdn-ak.spotifycdn.com/image/ab67706c0000da8457a343b16f9396c0284a8e95", "width": null}], "name": "Afrobeats Hits \ud83d\udd25", "owner": {"display_name": "EMA Records", "external_urls": {"spotify": "https://open.spotify.com/user/4djxvzkx1svhemk7ozszfnkga"}, "href": "https://api.spotify.com/v1/users/4djxvzkx1svhemk7ozszfnkga", "id": "4djxvzkx1svhemk7ozszfnkga", "type": "user", "uri": "spotify:user:4djxvzkx1svhemk7ozszfnkga"}, "primary_color": null, "public": true, "snapshot_id": "AAADcLjapDcjV74cEhzdZtDFdzGVC40P", "tracks": {"href": "https://api.spotify.com/v1/playlists/25Y75ozl2aI0NylFToefO5/tracks", "total": 121}, "type": "playlist", "uri": "spotify:playlist:25Y75ozl2aI0NylFToefO5"}, {"collaborative": false, "description": "Cultures: African, Indian, American, Chinese, Asian. Traditional folk dance, shaman jungle songs, war beats and some chants from Africa. Early-2025 update.", "external_urls": {"spotify": "https://open.spotify.com/playlist/35DGnQJr31U5FDolOH7qcV"}, "href": "https://api.spotify.com/v1/playlists/35DGnQJr31U5FDolOH7qcV", "id": "35DGnQJr31U5FDolOH7qcV", "images": [{"height": null, "url": "https://image-cdn-ak.spotifycdn.com/image/ab67706c0000da84398373167330b31e3f006731", "width": null}], "name": "Tribal Drums Music, Ethnic Fast Hand Percussion, Native Tribes of the World Drumming - 2025 Playlist", "owner": {"display_name": "Demfire Creation", "external_urls": {"spotify": "https://open.spotify.com/user/izf817u876x31h8p0xbj0vzys"}, "href": "https://api.spotify.com/v1/users/izf817u876x31h8p0xbj0vzys", "id": "izf817u876x31h8p0xbj0vzys", "type": "user", "uri": "spotify:user:izf817u876x31h8p0xbj0vzys"}, "primary_color": null, "public": true, "snapshot_id": "AAAG83XPQW6LdpL24ukDaCV/yR2RsvbB", "tracks": {"href": "https://api.spotify.com/v1/playlists/35DGnQJr31U5FDolOH7qcV/tracks", "total": 80}, "type": "playlist", "uri": "spotify:playlist:35DGnQJr31U5FDolOH7qcV"}, {"collaborative": false, "description": "Afrobeats, originally from Nigeria and West Africa, is the musical genre resonating around the world with its blend of African music and contemporary global sounds.", "external_urls": {"spotify": "https://open.spotify.com/playlist/5myeBzohhCVewaK2Thqmo5"}, "href": "https://api.spotify.com/v1/playlists/5myeBzohhCVewaK2Thqmo5", "id": "5myeBzohhCVewaK2Thqmo5", "images": [{"height": null, "url": "https://image-cdn-fa.spotifycdn.com/image/ab67706c0000d72c6039f349319132ce7339c2ee", "width": null}], "name": "AFROBEATS \ud83d\udd25 2025", "owner": {"display_name": "AFROBEATS", "external_urls": {"spotify": "https://open.spotify.com/user/31z46xd27fpiht7soswkvlifzeva"}, "href": "https://api.spotify.com/v1/users/31z46xd27fpiht7soswkvlifzeva", "id": "31z46xd27fpiht7soswkvlifzeva", "type": "user", "uri": "spotify:user:31z46xd27fpiht7soswkvlifzeva"}, "primary_color": null, "public": true, "snapshot_id": "AAACiTaM+hHYTz015KTCdL4s6c5HZ7fM", "tracks": {"href": "https://api.spotify.com/v1/playlists/5myeBzohhCVewaK2Thqmo5/tracks", "total": 160}, "type": "playlist", "uri": "spotify:playlist:5myeBzohhCVewaK2Thqmo5"}, {"collaborative": false, "description": "", "external_urls": {"spotify": "https://open.spotify.com/playlist/1L1r2gqIjMYNzrpybyQowo"}, "href": "https://api.spotify.com/v1/playlists/1L1r2gqIjMYNzrpybyQowo", "id": "1L1r2gqIjMYNzrpybyQowo", "images": [{"height": 640, "url": "https://mosaic.scdn.co/640/ab67616d00001e0239041f1bb96943fde5bb86c9ab67616d00001e023b820e00addd0c78e6542dc3ab67616d00001e024c90a5f930e2b78ed330efe7ab67616d00001e02a8955d59d0d710c6e89285af", "width": 640}, {"height": 300, "url": "https://mosaic.scdn.co/300/ab67616d00001e0239041f1bb96943fde5bb86c9ab67616d00001e023b820e00addd0c78e6542dc3ab67616d00001e024c90a5f930e2b78ed330efe7ab67616d00001e02a8955d59d0d710c6e89285af", "width": 300}, {"height": 60, "url": "https://mosaic.scdn.co/60/ab67616d00001e0239041f1bb96943fde5bb86c9ab67616d00001e023b820e00addd0c78e6542dc3ab67616d00001e024c90a5f930e2b78ed330efe7ab67616d00001e02a8955d59d0d710c6e89285af", "width": 60}], "name": "BEST OF AFRICAN BEATS 2023", "owner": {"display_name": "PBK", "external_urls": {"spotify": "https://open.spotify.com/user/314disqfypd2pzwvit4eh7vixoae"}, "href": "https://api.spotify.com/v1/users/314disqfypd2pzwvit4eh7vixoae", "id": "314disqfypd2pzwvit4eh7vixoae", "type": "user", "uri": "spotify:user:314disqfypd2pzwvit4eh7vixoae"}, "primary_color": null, "public": true, "snapshot_id": "AAAAiiao3V9/P8VIypzKYQUDLPKej/7u", "tracks": {"href": "https://api.spotify.com/v1/playlists/1L1r2gqIjMYNzrpybyQowo/tracks", "total": 109}, "type": "playlist", "uri": "spotify:playlist:1L1r2gqIjMYNzrpybyQowo"}, null]}}