{"playlists": {"href": "https://api.spotify.com/v1/search?offset=0&limit=5&query=farmland%20tunes&type=playlist", "limit": 5, "next": "https://api.spotify.com/v1/search?offset=5&limit=5&query=farmland%20tunes&type=playlist", "offset": 0, "previous": null, "total": 800, "items": [null, {"collaborative": false, "description": "", "external_urls": {"spotify": "https://open.spotify.com/playlist/3YSPptfbaCmUeW1gxaEmWO"}, "href": "https://api.spotify.com/v1/playlists/3YSPptfbaCmUeW1gxaEmWO", "id": "3YSPptfbaCmUeW1gxaEmWO", "images": [{"height": 640, "url": "https://mosaic.scdn.co/640/ab67616d00001e024f9df2ba4fdd56dcd05a296cab67616d00001e02a68033ff9f447bd5df7296acab67616d00001e02a7e1e1bc8ddf0e767c056ea6ab67616d00001e02e6da8833a05a76e1f2a2ada5", "width": 640}, {"height": 300, "url": "https://mosaic.scdn.co/300/ab67616d00001e024f9df2ba4fdd56dcd05a296cab67616d00001e02a68033ff9f447bd5df7296acab67616d00001e02a7e1e1bc8ddf0e767c056ea6ab67616d00001e02e6da8833a05a76e1f2a2ada5", "width": 300}, {"height": 60, "url": "https://mosaic.scdn.co/60/ab67616d00001e024f9df2ba4fdd56dcd05a296cab67616d00001e02a68033ff9f447bd5df7296acab67616d00001e02a7e1e1bc8ddf0e767c056ea6ab67616d00001e02e6da8833a05a76e1f2a2ada5", "width": 60}], "name": "Farming Music", "owner": {"display_name": "Karsen Kurten", "external_urls": {"spotify": "https://open.spotify.com/user/battlebotboss"}, "href": "https://api.spotify.com/v1/users/battlebotboss", "id": "battlebotboss", "type": "user", "uri": "spotify:user:battlebotboss"}, "primary_color": null, "public": true, "snapshot_id": "AAAAc9KQVWGionlBCp8/Pn1WPH7mmbry", "tracks": {"href": "https://api.spotify.com/v1/playlists/3YSPptfbaCmUeW1gxaEmWO/tracks", "total": 88}, "type": "playlist", "uri": "spotify:playlist:3YSPptfbaCmUeW1gxaEmWO"}, {"collaborative": false, "description": "", "external_urls": {"spotify": "https://open.spotify.com/playlist/1C4AroZlyvVjXmuhJAmhEJ"}, "href": "https://api.spotify.com/v1/playlists/1C4AroZlyvVjXmuhJAmhEJ", "id": "1C4AroZlyvVjXmuhJAmhEJ", "images": [{"height": null, "url": "https://image-cdn-ak.spotifycdn.com/image/ab67706c0000da847db2180ab083721fe323eee1", "width": null}], "name": "FARMER MUSIC", "owner": {"display_name": "Silas", "external_urls": {"spotify": "https://open.spotify.com/user/solas95"}, "href": "https://api.spotify.com/v1/users/solas95", "id": "solas95", "type": "user", "uri": "spotify:user:solas95"}, "primary_color": null, "public": true, "snapshot_id": "AAABd3Bs236jTXvvAH4krgG+3QRHJj3H", "tracks": {"href": "https://api.spotify.com/v1/playlists/1C4AroZlyvVjXmuhJAmhEJ/tracks", "total": 357}, "type": "playlist", "uri": "spotify:playlist:1C4AroZlyvVjXmuhJAmhEJ"}, null, {"collaborative": false, "description": "", "external_urls": {"spotify": "https://open.spotify.com/playlist/1RJ9YkAcqBCcMXe7yYb4k7"}, "href": "https://api.spotify.com/v1/playlists/1RJ9YkAcqBCcMXe7yYb4k7", "id": "1RJ9YkAcqBCcMXe7yYb4k7", "images": [{"height": 640, "url": "https://mosaic.scdn.co/640/ab67616d00001e0214d09c1ad67f2028764ee0f4ab67616d00001e0277c9adc8a511d8c85e0fede8ab67616d00001e02969a3beb58231bd144388367ab67616d00001e02bc8bd54460418e1b75744424", "width": 640}, {"height": 300, "url": "https://mosaic.scdn.co/300/ab67616d00001e0214d09c1ad67f2028764ee0f4ab67616d00001e0277c9adc8a511d8c85e0fede8ab67616d00001e02969a3beb58231bd144388367ab67616d00001e02bc8bd54460418e1b75744424", "width": 300}, {"height": 60, "url": "https://mosaic.scdn.co/60/ab67616d00001e0214d09c1ad67f2028764ee0f4ab67616d00001e0277c9adc8a511d8c85e0fede8ab67616d00001e02969a3beb58231bd144388367ab67616d00001e02bc8bd54460418e1b75744424", "width": 60}], "name": "FARM COUNTRY", "owner": {"display_name": "balbers3023", "external_urls": {"spotify": "https://open.spotify.com/user/balbers3023"}, "href": "https://api.spotify.com/v1/users/balbers3023", "id": "balbers3023", "type": "user", "uri": "spotify:user:balbers3023"}, "primary_color": null, "public": true, "snapshot_id": "AAAB6Joq/WY+ux8mHTBKjxr7ueon3pg6", "tracks": {"href": "https://api.spotify.com/v1/playlists/1RJ9YkAcqBCcMXe7yYb4k7/tracks", "total": 312}, "type": "playlist", "uri": "spotify:playlist:1RJ9YkAcqBCcMXe7yYb4k7"}]}}