{"playlists": {"href": "https://api.spotify.com/v1/search?offset=0&limit=5&query=hungry&type=playlist", "limit": 5, "next": "https://api.spotify.com/v1/search?offset=5&limit=5&query=hungry&type=playlist", "offset": 0, "previous": null, "total": 905, "items": [{"collaborative": false, "description": "", "external_urls": {"spotify": "https://open.spotify.com/playlist/3v3ZywbNj1lloQrQ2zBeNu"}, "href": "https://api.spotify.com/v1/playlists/3v3ZywbNj1lloQrQ2zBeNu", "id": "3v3ZywbNj1lloQrQ2zBeNu", "images": [{"height": null, "url": "https://image-cdn-ak.spotifycdn.com/image/ab67706c0000da844c97ce5d70304ddb61f48112", "width": null}], "name": "80\u2019s Movie classics", "owner": {"display_name": "Quinn Zabel", "external_urls": {"spotify": "https://open.spotify.com/user/fc1rvtq6pbynjf1a5bkvvzdyq"}, "href": "https://api.spotify.com/v1/users/fc1rvtq6pbynjf1a5bkvvzdyq", "id": "fc1rvtq6pbynjf1a5bkvvzdyq", "type": "user", "uri": "spotify:user:fc1rvtq6pbynjf1a5bkvvzdyq"}, "primary_color": null, "public": true, "snapshot_id": "AAAAN95pi1wO4F7+etxLEQfA/9BfH7BP", "tracks": {"href": "https://api.spotify.com/v1/playlists/3v3ZywbNj1lloQrQ2zBeNu/tracks", "total": 44}, "type": "playlist", "uri": "spotify:playlist:3v3ZywbNj1lloQrQ2zBeNu"}, {"collaborative": false, "description": "Jes\u00fas, Jeshua, He is God. Melodies for a hungry heart for Jesus! Enjoy His overwhelming Presence that sorrounds you with His love, power and grace. He is King!", "external_urls": {"spotify": "https://open.spotify.com/playlist/7aUUgdCf6rKnamEtV1wGA4"}, "href": "https://api.spotify.com/v1/playlists/7aUUgdCf6rKnamEtV1wGA4", "id": "7aUUgdCf6rKnamEtV1wGA4", "images": [{"height": null, "url": "https://image-cdn-ak.spotifycdn.com/image/ab67706c0000da842e0efc8e60993d8ccd2f698f", "width": null}], "name": "Soaking Instrumental Christian Worship", "owner": {"display_name": "Marcelo Dominguez", "external_urls": {"spotify": "https://open.spotify.com/user/mdominguez.alarcon"}, "href": "https://api.spotify.com/v1/users/mdominguez.alarcon", "id": "mdominguez.alarcon", "type": "user", "uri": "spotify:user:mdominguez.alarcon"}, "primary_color": null, "public": true, "snapshot_id": "AAADegg4dT7Q9r64VhHDuB2/8bLl7pEG", "tracks": {"href": "https://api.spotify.com/v1/playlists/7aUUgdCf6rKnamEtV1wGA4/tracks", "total": 326}, "type": "playlist", "uri": "spotify:playlist:7aUUgdCf6rKnamEtV1wGA4"}, null, {"collaborative": false, "description": "Dirty Dancing Soundtrack Complete. 60s, 80s. Ive Had The Time Of My Life - Bill Medley, Jennifer Warnes. Be My Baby - The Ronettes. Big Girls Dont Cry - Frankie Valli, The Four Seasons. Hungry Eyes - Eric Carmen. Shes Like The Wind - Patrick Swayze. Will You Still Love Me Tomorrow - The Shirelles.", "external_urls": {"spotify": "https://open.spotify.com/playlist/1vCRha4cvGomcmbqaANzmk"}, "href": "https://api.spotify.com/v1/playlists/1vCRha4cvGomcmbqaANzmk", "id": "1vCRha4cvGomcmbqaANzmk", "images": [{"height": null, "url": "https://image-cdn-ak.spotifycdn.com/image/ab67706c0000da849257ab9fbab899602ef7f1d6", "width": null}], "name": "Dirty Dancing Soundtrack", "owner": {"display_name": "Sebasti\u00e1n Galaviz", "external_urls": {"spotify": "https://open.spotify.com/user/12183262554"}, "href": "https://api.spotify.com/v1/users/12183262554", "id": "12183262554", "type": "user", "uri": "spotify:user:12183262554"}, "primary_color": null, "public": true, "snapshot_id": "AAACJXGYyG0Y2maLkNzKBy0GovOoXKhm", "tracks": {"href": "https://api.spotify.com/v1/playlists/1vCRha4cvGomcmbqaANzmk/tracks", "total": 22}, "type": "playlist", "uri": "spotify:playlist:1vCRha4cvGomcmbqaANzmk"}, null]}}