{"artists": {"href": "https://api.spotify.com/v1/search?offset=0&limit=20&query=genre%3A%22pop%22&type=artist", "limit": 20, "next": "https://api.spotify.com/v1/search?offset=20&limit=20&query=genre%3A%22pop%22&type=artist", "offset": 0, "previous": null, "total": 100, "items": [{"external_urls": {"spotify": "https://open.spotify.com/artist/4oUHIQIBe0LHzYfvXNW4QM"}, "followers": {"href": null, "total": 13402300}, "genres": ["country"], "href": "https://api.spotify.com/v1/artists/4oUHIQIBe0LHzYfvXNW4QM", "id": "4oUHIQIBe0LHzYfvXNW4QM", "images": [{"url": "https://i.scdn.co/image/ab6761610000e5eb4245b1652fcc23f2b76ccd07", "height": 640, "width": 640}, {"url": "https://i.scdn.co/image/ab676161000051744245b1652fcc23f2b76ccd07", "height": 320, "width": 320}, {"url": "https://i.scdn.co/image/ab6761610000f1784245b1652fcc23f2b76ccd07", "height": 160, "width": 160}], "name": "Morgan Wallen", "popularity": 95, "type": "artist", "uri": "spotify:artist:4oUHIQIBe0LHzYfvXNW4QM"}, {"external_urls": {"spotify": "https://open.spotify.com/artist/06HL4z0CvFAxyc27GXpf02"}, "followers": {"href": null, "total": 141538065}, "genres": [], "href": "https://api.spotify.com/v1/artists/06HL4z0CvFAxyc27GXpf02", "id": "06HL4z0CvFAxyc27GXpf02", "images": [{"url": "https://i.scdn.co/image/ab6761610000e5ebe672b5f553298dcdccb0e676", "height": 640, "width": 640}, {"url": "https://i.scdn.co/image/ab67616100005174e672b5f553298dcdccb0e676", "height": 320, "width": 320}, {"url": "https://i.scdn.co/image/ab6761610000f178e672b5f553298dcdccb0e676", "height": 160, "width": 160}], "name": "Taylor Swift", "popularity": 99, "type": "artist", "uri": "spotify:artist:06HL4z0CvFAxyc27GXpf02"}, {"external_urls": {"spotify": "https://open.spotify.com/artist/1uNFoZAHBGtllmzznpCI3s"}, "followers": {"href": null, "total": 83882445}, "genres": [], "href": "https://api.spotify.com/v1/artists/1uNFoZAHBGtllmzznpCI3s", "id": "1uNFoZAHBGtllmzznpCI3s", "images": [{"url": "https://i.scdn.co/image/ab6761610000e5eb86e362deb9f22566331fbdeb", "height": 640, "width": 640}, {"url": "https://i.scdn.co/image/ab6761610000517486e362deb9f22566331fbdeb", "height": 320, "width": 320}, {"url": "https://i.scdn.co/image/ab6761610000f17886e362deb9f22566331fbdeb", "height": 160, "width": 160}], "name": "Justin Bieber", "popularity": 96, "type": "artist", "uri": "spotify:artist:1uNFoZAHBGtllmzznpCI3s"}, {"external_urls": {"spotify": "https://open.spotify.com/artist/7mW7Tv7NvywKKXqafZo0Lc"}, "followers": {"href": null, "total": 904126}, "genres": ["k-pop"], "href": "https://api.spotify.com/v1/artists/7mW7Tv7NvywKKXqafZo0Lc", "id": "7mW7Tv7NvywKKXqafZo0Lc", "images": [{"url": "https://i.scdn.co/image/ab67616d0000b2736c1334650ced0e28f0b2e13f", "height": 640, "width": 640}, {"url": "https://i.scdn.co/image/ab67616d00001e026c1334650ced0e28f0b2e13f", "height": 300, "width": 300}, {"url": "https://i.scdn.co/image/ab67616d000048514dcb6c5df15cf74596ab25a4", "height": 64, "width": 64}], "name": "KPop Demon Hunters Cast", "popularity": 95, "type": "artist", "uri": "spotify:artist:7mW7Tv7NvywKKXqafZo0Lc"}, {"external_urls": {"spotify": "https://open.spotify.com/artist/6qqNVTkY8uBg9cP3Jd7DAH"}, "followers": {"href": null, "total": 115796240}, "genres": [], "href": "https://api.spotify.com/v1/artists/6qqNVTkY8uBg9cP3Jd7DAH", "id": "6qqNVTkY8uBg9cP3Jd7DAH", "images": [{"url": "https://i.scdn.co/image/ab6761610000e5eb4a21b4760d2ecb7b0dcdc8da", "height": 640, "width": 640}, {"url": "https://i.scdn.co/image/ab676161000051744a21b4760d2ecb7b0dcdc8da", "height": 320, "width": 320}, {"url": "https://i.scdn.co/image/ab6761610000f1784a21b4760d2ecb7b0dcdc8da", "height": 160, "width": 160}], "name": "Billie Eilish", "popularity": 94, "type": "artist", "uri": "spotify:artist:6qqNVTkY8uBg9cP3Jd7DAH"}, {"external_urls": {"spotify": "https://open.spotify.com/artist/0RMJOzHDhAKY1o2j0W0vxY"}, "followers": {"href": null, "total": 185263}, "genres": ["k-pop"], "href": "https://api.spotify.com/v1/artists/0RMJOzHDhAKY1o2j0W0vxY", "id": "0RMJOzHDhAKY1o2j0W0vxY", "images": [{"url": "https://i.scdn.co/image/ab6761610000e5eb61e17a91f5c33c50400e59c1", "height": 640, "width": 640}, {"url": "https://i.scdn.co/image/ab6761610000517461e17a91f5c33c50400e59c1", "height": 320, "width": 320}, {"url": "https://i.scdn.co/image/ab6761610000f17861e17a91f5c33c50400e59c1", "height": 160, "width": 160}], "name": "EJAE", "popularity": 93, "type": "artist", "uri": "spotify:artist:0RMJOzHDhAKY1o2j0W0vxY"}, {"external_urls": {"spotify": "https://open.spotify.com/artist/45dkTj5sMRSjrmBSBeiHym"}, "followers": {"href": null, "total": 8549913}, "genres": [], "href": "https://api.spotify.com/v1/artists/45dkTj5sMRSjrmBSBeiHym", "id": "45dkTj5sMRSjrmBSBeiHym", "images": [{"url": "https://i.scdn.co/image/ab6761610000e5eb0ac65fc565cc8b59d561ee34", "height": 640, "width": 640}, {"url": "https://i.scdn.co/image/ab676161000051740ac65fc565cc8b59d561ee34", "height": 320, "width": 320}, {"url": "https://i.scdn.co/image/ab6761610000f1780ac65fc565cc8b59d561ee34", "height": 160, "width": 160}], "name": "Tate McRae", "popularity": 91, "type": "artist", "uri": "spotify:artist:45dkTj5sMRSjrmBSBeiHym"}, {"external_urls": {"spotify": "https://open.spotify.com/artist/66CXWjxzNUsdJxJ2JdwvnR"}, "followers": {"href": null, "total": 106332763}, "genres": ["pop"], "href": "https://api.spotify.com/v1/artists/66CXWjxzNUsdJxJ2JdwvnR", "id": "66CXWjxzNUsdJxJ2JdwvnR", "images": [{"url": "https://i.scdn.co/image/ab6761610000e5eb6725802588d7dc1aba076ca5", "height": 640, "width": 640}, {"url": "https://i.scdn.co/image/ab676161000051746725802588d7dc1aba076ca5", "height": 320, "width": 320}, {"url": "https://i.scdn.co/image/ab6761610000f1786725802588d7dc1aba076ca5", "height": 160, "width": 160}], "name": "Ariana Grande", "popularity": 93, "type": "artist", "uri": "spotify:artist:66CXWjxzNUsdJxJ2JdwvnR"}, {"external_urls": {"spotify": "https://open.spotify.com/artist/0ys2OFYzWYB5hRDLCsBqxt"}, "followers": {"href": null, "total": 17777198}, "genres": ["corrido", "corridos tumbados", "corridos b\u00e9licos", "m\u00fasica mexicana", "sierre\u00f1o", "banda", "electro corridos", "sad sierre\u00f1o", "dembow belico"], "href": "https://api.spotify.com/v1/artists/0ys2OFYzWYB5hRDLCsBqxt", "id": "0ys2OFYzWYB5hRDLCsBqxt", "images": [{"url": "https://i.scdn.co/image/ab6761610000e5eb158a3d24a31166b983e26325", "height": 640, "width": 640}, {"url": "https://i.scdn.co/image/ab67616100005174158a3d24a31166b983e26325", "height": 320, "width": 320}, {"url": "https://i.scdn.co/image/ab6761610000f178158a3d24a31166b983e26325", "height": 160, "width": 160}], "name": "Fuerza Regida", "popularity": 94, "type": "artist", "uri": "spotify:artist:0ys2OFYzWYB5hRDLCsBqxt"}, {"external_urls": {"spotify": "https://open.spotify.com/artist/5pKCCKE2ajJHZ9KAiaK11H"}, "followers": {"href": null, "total": 67818139}, "genres": [], "href": "https://api.spotify.com/v1/artists/5pKCCKE2ajJHZ9KAiaK11H", "id": "5pKCCKE2ajJHZ9KAiaK11H", "images": [{"url": "https://i.scdn.co/image/ab6761610000e5eb373e1be0410d4212bf72acab", "height": 640, "width": 640}, {"url": "https://i.scdn.co/image/ab67616100005174373e1be0410d4212bf72acab", "height": 320, "width": 320}, {"url": "https://i.scdn.co/image/ab6761610000f178373e1be0410d4212bf72acab", "height": 160, "width": 160}], "name": "Rihanna", "popularity": 93, "type": "artist", "uri": "spotify:artist:5pKCCKE2ajJHZ9KAiaK11H"}, {"external_urls": {"spotify": "https://open.spotify.com/artist/0du5cEVh5yTK9QJze8zA0C"}, "followers": {"href": null, "total": 73928479}, "genres": [], "href": "https://api.spotify.com/v1/artists/0du5cEVh5yTK9QJze8zA0C", "id": "0du5cEVh5yTK9QJze8zA0C", "images": [{"url": "https://i.scdn.co/image/ab6761610000e5ebc36dd9eb55fb0db4911f25dd", "height": 640, "width": 640}, {"url": "https://i.scdn.co/image/ab67616100005174c36dd9eb55fb0db4911f25dd", "height": 320, "width": 320}, {"url": "https://i.scdn.co/image/ab6761610000f178c36dd9eb55fb0db4911f25dd", "height": 160, "width": 160}], "name": "Bruno Mars", "popularity": 94, "type": "artist", "uri": "spotify:artist:0du5cEVh5yTK9QJze8zA0C"}, {"external_urls": {"spotify": "https://open.spotify.com/artist/6U1dV7aL68N7Gb0Naq34V5"}, "followers": {"href": null, "total": 216372}, "genres": [], "href": "https://api.spotify.com/v1/artists/6U1dV7aL68N7Gb0Naq34V5", "id": "6U1dV7aL68N7Gb0Naq34V5", "images": [{"url": "https://i.scdn.co/image/ab6761610000e5ebeb39ded0900c3e50e3d7ba68", "height": 640, "width": 640}, {"url": "https://i.scdn.co/image/ab67616100005174eb39ded0900c3e50e3d7ba68", "height": 320, "width": 320}, {"url": "https://i.scdn.co/image/ab6761610000f178eb39ded0900c3e50e3d7ba68", "height": 160, "width": 160}], "name": "REI AMI", "popularity": 91, "type": "artist", "uri": "spotify:artist:6U1dV7aL68N7Gb0Naq34V5"}, {"external_urls": {"spotify": "https://open.spotify.com/artist/0Wwji82sLA0Hcvtuak3omb"}, "followers": {"href": null, "total": 386952}, "genres": ["k-pop"], "href": "https://api.spotify.com/v1/artists/0Wwji82sLA0Hcvtuak3omb", "id": "0Wwji82sLA0Hcvtuak3omb", "images": [{"url": "https://i.scdn.co/image/ab6761610000e5eb2e9ac1a1188624174e9c86a3", "height": 640, "width": 640}, {"url": "https://i.scdn.co/image/ab676161000051742e9ac1a1188624174e9c86a3", "height": 320, "width": 320}, {"url": "https://i.scdn.co/image/ab6761610000f1782e9ac1a1188624174e9c86a3", "height": 160, "width": 160}], "name": "AUDREY NUNA", "popularity": 91, "type": "artist", "uri": "spotify:artist:0Wwji82sLA0Hcvtuak3omb"}, {"external_urls": {"spotify": "https://open.spotify.com/artist/74KM79TiuVKeVCqs8QtB0B"}, "followers": {"href": null, "total": 24698514}, "genres": [], "href": "https://api.spotify.com/v1/artists/74KM79TiuVKeVCqs8QtB0B", "id": "74KM79TiuVKeVCqs8QtB0B", "images": [{"url": "https://i.scdn.co/image/ab6761610000e5eb78e45cfa4697ce3c437cb455", "height": 640, "width": 640}, {"url": "https://i.scdn.co/image/ab6761610000517478e45cfa4697ce3c437cb455", "height": 320, "width": 320}, {"url": "https://i.scdn.co/image/ab6761610000f17878e45cfa4697ce3c437cb455", "height": 160, "width": 160}], "name": "Sabrina Carpenter", "popularity": 91, "type": "artist", "uri": "spotify:artist:74KM79TiuVKeVCqs8QtB0B"}, {"external_urls": {"spotify": "https://open.spotify.com/artist/2yNNYQBChuox9A5Ka93BIn"}, "followers": {"href": null, "total": 1785946}, "genres": ["k-pop"], "href": "https://api.spotify.com/v1/artists/2yNNYQBChuox9A5Ka93BIn", "id": "2yNNYQBChuox9A5Ka93BIn", "images": [{"url": "https://i.scdn.co/image/ab67616d0000b2736c1334650ced0e28f0b2e13f", "height": 640, "width": 640}, {"url": "https://i.scdn.co/image/ab67616d00001e026c1334650ced0e28f0b2e13f", "height": 300, "width": 300}, {"url": "https://i.scdn.co/image/ab67616d000048514dcb6c5df15cf74596ab25a4", "height": 64, "width": 64}], "name": "HUNTR/X", "popularity": 91, "type": "artist", "uri": "spotify:artist:2yNNYQBChuox9A5Ka93BIn"}, {"external_urls": {"spotify": "https://open.spotify.com/artist/00FQb4jTyendYWaN8pK0wa"}, "followers": {"href": null, "total": 49873182}, "genres": [], "href": "https://api.spotify.com/v1/artists/00FQb4jTyendYWaN8pK0wa", "id": "00FQb4jTyendYWaN8pK0wa", "images": [{"url": "https://i.scdn.co/image/ab6761610000e5ebb99cacf8acd5378206767261", "height": 640, "width": 640}, {"url": "https://i.scdn.co/image/ab67616100005174b99cacf8acd5378206767261", "height": 320, "width": 320}, {"url": "https://i.scdn.co/image/ab6761610000f178b99cacf8acd5378206767261", "height": 160, "width": 160}], "name": "Lana Del Rey", "popularity": 92, "type": "artist", "uri": "spotify:artist:00FQb4jTyendYWaN8pK0wa"}, {"external_urls": {"spotify": "https://open.spotify.com/artist/1HY2Jd0NmPuamShAr6KMms"}, "followers": {"href": null, "total": 40464997}, "genres": ["art pop", "pop"], "href": "https://api.spotify.com/v1/artists/1HY2Jd0NmPuamShAr6KMms", "id": "1HY2Jd0NmPuamShAr6KMms", "images": [{"url": "https://i.scdn.co/image/ab6761610000e5ebaadc18cac8d48124357c38e6", "height": 640, "width": 640}, {"url": "https://i.scdn.co/image/ab67616100005174aadc18cac8d48124357c38e6", "height": 320, "width": 320}, {"url": "https://i.scdn.co/image/ab6761610000f178aadc18cac8d48124357c38e6", "height": 160, "width": 160}], "name": "Lady Gaga", "popularity": 92, "type": "artist", "uri": "spotify:artist:1HY2Jd0NmPuamShAr6KMms"}, {"external_urls": {"spotify": "https://open.spotify.com/artist/4gzpq5DPGxSnKTe4SA8HAU"}, "followers": {"href": null, "total": 59669309}, "genres": [], "href": "https://api.spotify.com/v1/artists/4gzpq5DPGxSnKTe4SA8HAU", "id": "4gzpq5DPGxSnKTe4SA8HAU", "images": [{"url": "https://i.scdn.co/image/ab6761610000e5eb1ba8fc5f5c73e7e9313cc6eb", "height": 640, "width": 640}, {"url": "https://i.scdn.co/image/ab676161000051741ba8fc5f5c73e7e9313cc6eb", "height": 320, "width": 320}, {"url": "https://i.scdn.co/image/ab6761610000f1781ba8fc5f5c73e7e9313cc6eb", "height": 160, "width": 160}], "name": "Coldplay", "popularity": 93, "type": "artist", "uri": "spotify:artist:4gzpq5DPGxSnKTe4SA8HAU"}, {"external_urls": {"spotify": "https://open.spotify.com/artist/12GqGscKJx3aE4t07u7eVZ"}, "followers": {"href": null, "total": 22898744}, "genres": ["corrido", "corridos tumbados", "corridos b\u00e9licos", "m\u00fasica mexicana", "sad sierre\u00f1o", "banda", "electro corridos"], "href": "https://api.spotify.com/v1/artists/12GqGscKJx3aE4t07u7eVZ", "id": "12GqGscKJx3aE4t07u7eVZ", "images": [{"url": "https://i.scdn.co/image/ab6761610000e5ebe5283f5b671cf618b82a2696", "height": 640, "width": 640}, {"url": "https://i.scdn.co/image/ab67616100005174e5283f5b671cf618b82a2696", "height": 320, "width": 320}, {"url": "https://i.scdn.co/image/ab6761610000f178e5283f5b671cf618b82a2696", "height": 160, "width": 160}], "name": "Peso Pluma", "popularity": 91, "type": "artist", "uri": "spotify:artist:12GqGscKJx3aE4t07u7eVZ"}, {"external_urls": {"spotify": "https://open.spotify.com/artist/7GlBOeep6PqTfFi59PTUUN"}, "followers": {"href": null, "total": 6835170}, "genres": [], "href": "https://api.spotify.com/v1/artists/7GlBOeep6PqTfFi59PTUUN", "id": "7GlBOeep6PqTfFi59PTUUN", "images": [{"url": "https://i.scdn.co/image/ab6761610000e5ebd258ecb0d66244e6300bcf64", "height": 640, "width": 640}, {"url": "https://i.scdn.co/image/ab67616100005174d258ecb0d66244e6300bcf64", "height": 320, "width": 320}, {"url": "https://i.scdn.co/image/ab6761610000f178d258ecb0d66244e6300bcf64", "height": 160, "width": 160}], "name": "Chappell Roan", "popularity": 88, "type": "artist", "uri": "spotify:artist:7GlBOeep6PqTfFi59PTUUN"}]}}