{"playlists": {"href": "https://api.spotify.com/v1/search?offset=0&limit=5&query=sunny%20road%20trip&type=playlist", "limit": 5, "next": "https://api.spotify.com/v1/search?offset=5&limit=5&query=sunny%20road%20trip&type=playlist", "offset": 0, "previous": null, "total": 903, "items": [{"collaborative": false, "description": "for those long drives with no destination in sight ", "external_urls": {"spotify": "https://open.spotify.com/playlist/5DJ1rP5evelj6wYSxqnjzX"}, "href": "https://api.spotify.com/v1/playlists/5DJ1rP5evelj6wYSxqnjzX", "id": "5DJ1rP5evelj6wYSxqnjzX", "images": [{"height": null, "url": "https://image-cdn-ak.spotifycdn.com/image/ab67706c0000da8401489ca2656b244323682f2c", "width": null}], "name": "driving on a sunny summer day", "owner": {"display_name": "olivia.", "external_urls": {"spotify": "https://open.spotify.com/user/olivia_hazza"}, "href": "https://api.spotify.com/v1/users/olivia_hazza", "id": "olivia_hazza", "type": "user", "uri": "spotify:user:olivia_hazza"}, "primary_color": null, "public": true, "snapshot_id": "AAAA0WFb5uYMOEOCToO+B9K2mMqRNI1N", "tracks": {"href": "https://api.spotify.com/v1/playlists/5DJ1rP5evelj6wYSxqnjzX/tracks", "total": 188}, "type": "playlist", "uri": "spotify:playlist:5DJ1rP5evelj6wYSxqnjzX"}, {"collaborative": false, "description": "The perfect playlist for your sunny road trip! Sing and shout along to this driving mix with happy car music. road trip music  road trip songs road trip hits road trip chill road trip summer road trip mix road trip playlist road trip vibes", "external_urls": {"spotify": "https://open.spotify.com/playlist/3thUQNBZz9ZEqhaiN2UzBG"}, "href": "https://api.spotify.com/v1/playlists/3thUQNBZz9ZEqhaiN2UzBG", "id": "3thUQNBZz9ZEqhaiN2UzBG", "images": [{"height": null, "url": "https://image-cdn-ak.spotifycdn.com/image/ab67706c0000da84edff707983d9e22da4a8606f", "width": null}], "name": "Roadtrip songs everyone knows \ud83d\udcfb", "owner": {"display_name": "Soave", "external_urls": {"spotify": "https://open.spotify.com/user/21ifzjxggdajdpc4w6iqxslkq"}, "href": "https://api.spotify.com/v1/users/21ifzjxggdajdpc4w6iqxslkq", "id": "21ifzjxggdajdpc4w6iqxslkq", "type": "user", "uri": "spotify:user:21ifzjxggdajdpc4w6iqxslkq"}, "primary_color": null, "public": true, "snapshot_id": "AAAI+xrqF4NuNyBIi+SnvjhyUbccs6Yc", "tracks": {"href": "https://api.spotify.com/v1/playlists/3thUQNBZz9ZEqhaiN2UzBG/tracks", "total": 155}, "type": "playlist", "uri": "spotify:playlist:3thUQNBZz9ZEqhaiN2UzBG"}, null, null, {"collaborative": false, "description": "A sunny soundtrack for road trips, picnics, and carefree days under the open sky. Hit play and let the good times roll.", "external_urls": {"spotify": "https://open.spotify.com/playlist/7aqhvY83XAFGyfTQwvJ4Q4"}, "href": "https://api.spotify.com/v1/playlists/7aqhvY83XAFGyfTQwvJ4Q4", "id": "7aqhvY83XAFGyfTQwvJ4Q4", "images": [{"height": null, "url": "https://image-cdn-ak.spotifycdn.com/image/ab67706c0000da8432ee2334dc5df30bdfa31d8f", "width": null}], "name": "Happy Camper", "owner": {"display_name": "Piecework Puzzles", "external_urls": {"spotify": "https://open.spotify.com/user/zfbuze1vb4b5r4l34m83g70cy"}, "href": "https://api.spotify.com/v1/users/zfbuze1vb4b5r4l34m83g70cy", "id": "zfbuze1vb4b5r4l34m83g70cy", "type": "user", "uri": "spotify:user:zfbuze1vb4b5r4l34m83g70cy"}, "primary_color": null, "public": true, "snapshot_id": "AAAAWBbvG+40rpPZ7FCuJPv1o3HUhR6V", "tracks": {"href": "https://api.spotify.com/v1/playlists/7aqhvY83XAFGyfTQwvJ4Q4/tracks", "total": 36}, "type": "playlist", "uri": "spotify:playlist:7aqhvY83XAFGyfTQwvJ4Q4"}]}}