{"playlists": {"href": "https://api.spotify.com/v1/search?offset=0&limit=5&query=melancholy%20nostalgic&type=playlist", "limit": 5, "next": "https://api.spotify.com/v1/search?offset=5&limit=5&query=melancholy%20nostalgic&type=playlist", "offset": 0, "previous": null, "total": 900, "items": [{"collaborative": false, "description": "liminal. nostalgic. melancholy. hopeful. sad. sleepy. ambient.", "external_urls": {"spotify": "https://open.spotify.com/playlist/4jzKP5le46KX1z2JfEGhux"}, "href": "https://api.spotify.com/v1/playlists/4jzKP5le46KX1z2JfEGhux", "id": "4jzKP5le46KX1z2JfEGhux", "images": [{"height": null, "url": "https://image-cdn-ak.spotifycdn.com/image/ab67706c0000da848991de0627267d96b42c1949", "width": null}], "name": "Dream Signals", "owner": {"display_name": "Golden Leaf", "external_urls": {"spotify": "https://open.spotify.com/user/hsk8vjhbvq4crabafkk290240"}, "href": "https://api.spotify.com/v1/users/hsk8vjhbvq4crabafkk290240", "id": "hsk8vjhbvq4crabafkk290240", "type": "user", "uri": "spotify:user:hsk8vjhbvq4crabafkk290240"}, "primary_color": null, "public": true, "snapshot_id": "AAAAauRYtP3Ldwbt3wQ217mDJsE683iS", "tracks": {"href": "https://api.spotify.com/v1/playlists/4jzKP5le46KX1z2JfEGhux/tracks", "total": 53}, "type": "playlist", "uri": "spotify:playlist:4jzKP5le46KX1z2JfEGhux"}, null, {"collaborative": false, "description": "American folk music with celtic undertones. Serene happiness with a touch of  nostalgic melancholy.", "external_urls": {"spotify": "https://open.spotify.com/playlist/1h5l48mPj1QzHRsAAPxPGG"}, "href": "https://api.spotify.com/v1/playlists/1h5l48mPj1QzHRsAAPxPGG", "id": "1h5l48mPj1QzHRsAAPxPGG", "images": [{"height": null, "url": "https://image-cdn-ak.spotifycdn.com/image/ab67706c0000da84be486f540dae315870e8de67", "width": null}], "name": "American Folk Instrumental", "owner": {"display_name": "Sean", "external_urls": {"spotify": "https://open.spotify.com/user/jseanmcconnon"}, "href": "https://api.spotify.com/v1/users/jseanmcconnon", "id": "jseanmcconnon", "type": "user", "uri": "spotify:user:jseanmcconnon"}, "primary_color": null, "public": true, "snapshot_id": "AAABJaIB0hW0Afz4LDBKnw7fkuFr4TqT", "tracks": {"href": "https://api.spotify.com/v1/playlists/1h5l48mPj1QzHRsAAPxPGG/tracks", "total": 238}, "type": "playlist", "uri": "spotify:playlist:1h5l48mPj1QzHRsAAPxPGG"}, {"collaborative": false, "description": "the most beautiful, sad classical music || perfect for rainy nights &amp; studying", "external_urls": {"spotify": "https://open.spotify.com/playlist/1aLrekwC72iuF5d5nePJkv"}, "href": "https://api.spotify.com/v1/playlists/1aLrekwC72iuF5d5nePJkv", "id": "1aLrekwC72iuF5d5nePJkv", "images": [{"height": null, "url": "https://image-cdn-ak.spotifycdn.com/image/ab67706c0000da843d00ae822efc7ad1d4c0bb9a", "width": null}], "name": "melancholy classical masterpieces", "owner": {"display_name": "trinity", "external_urls": {"spotify": "https://open.spotify.com/user/trin0113"}, "href": "https://api.spotify.com/v1/users/trin0113", "id": "trin0113", "type": "user", "uri": "spotify:user:trin0113"}, "primary_color": null, "public": true, "snapshot_id": "AAACKId9r9KmNrUGH65JTdHedmZJ/YHK", "tracks": {"href": "https://api.spotify.com/v1/playlists/1aLrekwC72iuF5d5nePJkv/tracks", "total": 150}, "type": "playlist", "uri": "spotify:playlist:1aLrekwC72iuF5d5nePJkv"}, {"collaborative": false, "description": "bittersweet, ethereal, melancholy, nostalgia, nostalgic - road trips, drives, daydreaming, sunsets  - dream pop, shoegaze, indie rock", "external_urls": {"spotify": "https://open.spotify.com/playlist/50AOzPY35WMCL9hP05Cuzw"}, "href": "https://api.spotify.com/v1/playlists/50AOzPY35WMCL9hP05Cuzw", "id": "50AOzPY35WMCL9hP05Cuzw", "images": [{"height": null, "url": "https://image-cdn-ak.spotifycdn.com/image/ab67706c0000da84ccbf3443178b171d14de6268", "width": null}], "name": "dreamy summer vibes ", "owner": {"display_name": "becca \u2661", "external_urls": {"spotify": "https://open.spotify.com/user/beccaboodramaqueen"}, "href": "https://api.spotify.com/v1/users/beccaboodramaqueen", "id": "beccaboodramaqueen", "type": "user", "uri": "spotify:user:beccaboodramaqueen"}, "primary_color": null, "public": true, "snapshot_id": "AAABSPesLkf7IUfsQNB9+ldi1P+GAke/", "tracks": {"href": "https://api.spotify.com/v1/playlists/50AOzPY35WMCL9hP05Cuzw/tracks", "total": 123}, "type": "playlist", "uri": "spotify:playlist:50AOzPY35WMCL9hP05Cuzw"}]}}