{"playlists": {"href": "https://api.spotify.com/v1/search?offset=0&limit=5&query=late%20night%20rave&type=playlist", "limit": 5, "next": "https://api.spotify.com/v1/search?offset=5&limit=5&query=late%20night%20rave&type=playlist", "offset": 0, "previous": null, "total": 901, "items": [{"collaborative": false, "description": "", "external_urls": {"spotify": "https://open.spotify.com/playlist/3ewPBznAdG82hDCjlYwu9M"}, "href": "https://api.spotify.com/v1/playlists/3ewPBznAdG82hDCjlYwu9M", "id": "3ewPBznAdG82hDCjlYwu9M", "images": [{"height": 640, "url": "https://mosaic.scdn.co/640/ab67616d00001e02056b540ec537cf8f85a5f8dcab67616d00001e02436f41839c397f5b8a87ad3aab67616d00001e0254a01535b21aed50a7bcb8d4ab67616d00001e02572b234ab8459abc0188a0a9", "width": 640}, {"height": 300, "url": "https://mosaic.scdn.co/300/ab67616d00001e02056b540ec537cf8f85a5f8dcab67616d00001e02436f41839c397f5b8a87ad3aab67616d00001e0254a01535b21aed50a7bcb8d4ab67616d00001e02572b234ab8459abc0188a0a9", "width": 300}, {"height": 60, "url": "https://mosaic.scdn.co/60/ab67616d00001e02056b540ec537cf8f85a5f8dcab67616d00001e02436f41839c397f5b8a87ad3aab67616d00001e0254a01535b21aed50a7bcb8d4ab67616d00001e02572b234ab8459abc0188a0a9", "width": 60}], "name": "Late Night Rave", "owner": {"display_name": "anzodegiulio", "external_urls": {"spotify": "https://open.spotify.com/user/anzodegiulio"}, "href": "https://api.spotify.com/v1/users/anzodegiulio", "id": "anzodegiulio", "type": "user", "uri": "spotify:user:anzodegiulio"}, "primary_color": null, "public": true, "snapshot_id": "AAAAkUuigTRsIIpZp/uZ6WZjOWDvHAe6", "tracks": {"href": "https://api.spotify.com/v1/playlists/3ewPBznAdG82hDCjlYwu9M/tracks", "total": 125}, "type": "playlist", "uri": "spotify:playlist:3ewPBznAdG82hDCjlYwu9M"}, {"collaborative": false, "description": "", "external_urls": {"spotify": "https://open.spotify.com/playlist/4UV7SFSikObTiAnMFwS10f"}, "href": "https://api.spotify.com/v1/playlists/4UV7SFSikObTiAnMFwS10f", "id": "4UV7SFSikObTiAnMFwS10f", "images": [{"height": 640, "url": "https://mosaic.scdn.co/640/ab67616d00001e02057d046c6dfb348e0215567cab67616d00001e0215f3099c066ac4ff26dbdcbbab67616d00001e029381559182855f08996018eeab67616d00001e02b8362432f72c45d2b6bf08d8", "width": 640}, {"height": 300, "url": "https://mosaic.scdn.co/300/ab67616d00001e02057d046c6dfb348e0215567cab67616d00001e0215f3099c066ac4ff26dbdcbbab67616d00001e029381559182855f08996018eeab67616d00001e02b8362432f72c45d2b6bf08d8", "width": 300}, {"height": 60, "url": "https://mosaic.scdn.co/60/ab67616d00001e02057d046c6dfb348e0215567cab67616d00001e0215f3099c066ac4ff26dbdcbbab67616d00001e029381559182855f08996018eeab67616d00001e02b8362432f72c45d2b6bf08d8", "width": 60}], "name": "late night rave", "owner": {"display_name": "Jeff", "external_urls": {"spotify": "https://open.spotify.com/user/8s00f7jvac3d8eb584g6kywsf"}, "href": "https://api.spotify.com/v1/users/8s00f7jvac3d8eb584g6kywsf", "id": "8s00f7jvac3d8eb584g6kywsf", "type": "user", "uri": "spotify:user:8s00f7jvac3d8eb584g6kywsf"}, "primary_color": null, "public": true, "snapshot_id": "AAAADqrYpxHItCEuxthIRzxTJi4YSBfr", "tracks": {"href": "https://api.spotify.com/v1/playlists/4UV7SFSikObTiAnMFwS10f/tracks", "total": 11}, "type": "playlist", "uri": "spotify:playlist:4UV7SFSikObTiAnMFwS10f"}, null, {"collaborative": false, "description": "my daily music", "external_urls": {"spotify": "https://open.spotify.com/playlist/5Pb7VXV7U59fCBq4YfG1di"}, "href": "https://api.spotify.com/v1/playlists/5Pb7VXV7U59fCBq4YfG1di", "id": "5Pb7VXV7U59fCBq4YfG1di", "images": [{"height": null, "url": "https://image-cdn-ak.spotifycdn.com/image/ab67706c0000da8474639ac2af00fe852674c869", "width": null}], "name": "late nights in the ravenclaw tower", "owner": {"display_name": "sidra<3", "external_urls": {"spotify": "https://open.spotify.com/user/sidramazhar06"}, "href": "https://api.spotify.com/v1/users/sidramazhar06", "id": "sidramazhar06", "type": "user", "uri": "spotify:user:sidramazhar06"}, "primary_color": null, "public": true, "snapshot_id": "AAACZkYbyXW2HmgjIgQ478EYAsYdM5fM", "tracks": {"href": "https://api.spotify.com/v1/playlists/5Pb7VXV7U59fCBq4YfG1di/tracks", "total": 367}, "type": "playlist", "uri": "spotify:playlist:5Pb7VXV7U59fCBq4YfG1di"}, {"collaborative": false, "description": "Best RAVE MUSIC of 2025. Turn up the bass and get your party started! \ud83d\udd25Rave, Rave 2025, Rave Music, rave music 2025, Rave Party, Party Rave, Raving, Houseparty, Music for raves,  Raves, Hard rave, raving music, homerave, rave at home, house rave, new year rave, house rave 2025", "external_urls": {"spotify": "https://open.spotify.com/playlist/3ybZkcoA09pYekp0DIo1OP"}, "href": "https://api.spotify.com/v1/playlists/3ybZkcoA09pYekp0DIo1OP", "id": "3ybZkcoA09pYekp0DIo1OP", "images": [{"height": null, "url": "https://image-cdn-fa.spotifycdn.com/image/ab67706c0000d72c5dfcd2b9059922af9942f753", "width": null}], "name": "RAVE MUSIC \ud83d\udd25", "owner": {"display_name": "Bass House Music", "external_urls": {"spotify": "https://open.spotify.com/user/futurefinest"}, "href": "https://api.spotify.com/v1/users/futurefinest", "id": "futurefinest", "type": "user", "uri": "spotify:user:futurefinest"}, "primary_color": null, "public": true, "snapshot_id": "AAAFrnLCCtnO4lpSHPFmC/3lMdlWVweS", "tracks": {"href": "https://api.spotify.com/v1/playlists/3ybZkcoA09pYekp0DIo1OP/tracks", "total": 160}, "type": "playlist", "uri": "spotify:playlist:3ybZkcoA09pYekp0DIo1OP"}]}}