{"playlists": {"href": "https://api.spotify.com/v1/search?offset=0&limit=5&query=valentine&type=playlist", "limit": 5, "next": "https://api.spotify.com/v1/search?offset=5&limit=5&query=valentine&type=playlist", "offset": 0, "previous": null, "total": 902, "items": [null, null, {"collaborative": false, "description": "", "external_urls": {"spotify": "https://open.spotify.com/playlist/0wWPNcpZKqyGqJh9FfUcU8"}, "href": "https://api.spotify.com/v1/playlists/0wWPNcpZKqyGqJh9FfUcU8", "id": "0wWPNcpZKqyGqJh9FfUcU8", "images": [{"height": null, "url": "https://image-cdn-ak.spotifycdn.com/image/ab67706c0000da84f61510787a0d0dcefa60983f", "width": null}], "name": "valentine\u2019s day \ud83d\udc8c", "owner": {"display_name": "caelyn", "external_urls": {"spotify": "https://open.spotify.com/user/nyspvvmhaghq7kfjutaz2j64c"}, "href": "https://api.spotify.com/v1/users/nyspvvmhaghq7kfjutaz2j64c", "id": "nyspvvmhaghq7kfjutaz2j64c", "type": "user", "uri": "spotify:user:nyspvvmhaghq7kfjutaz2j64c"}, "primary_color": null, "public": true, "snapshot_id": "AAACi/rVDRaD58rEUp6+no4vwy2TRij6", "tracks": {"href": "https://api.spotify.com/v1/playlists/0wWPNcpZKqyGqJh9FfUcU8/tracks", "total": 301}, "type": "playlist", "uri": "spotify:playlist:0wWPNcpZKqyGqJh9FfUcU8"}, null, null]}}