{"playlists": {"href": "https://api.spotify.com/v1/search?offset=0&limit=5&query=wistful&type=playlist", "limit": 5, "next": "https://api.spotify.com/v1/search?offset=5&limit=5&query=wistful&type=playlist", "offset": 0, "previous": null, "total": 904, "items": [null, null, {"collaborative": false, "description": "", "external_urls": {"spotify": "https://open.spotify.com/playlist/28ceRbvhLGtHNFFtp1067x"}, "href": "https://api.spotify.com/v1/playlists/28ceRbvhLGtHNFFtp1067x", "id": "28ceRbvhLGtHNFFtp1067x", "images": [{"height": 640, "url": "https://mosaic.scdn.co/640/ab67616d00001e025613cb3b9af98d4b55d7b881ab67616d00001e026296d33fcb1757bc287867f1ab67616d00001e0295a158cfb5c145340c771bedab67616d00001e02b080961348b7c4402e0186e9", "width": 640}, {"height": 300, "url": "https://mosaic.scdn.co/300/ab67616d00001e025613cb3b9af98d4b55d7b881ab67616d00001e026296d33fcb1757bc287867f1ab67616d00001e0295a158cfb5c145340c771bedab67616d00001e02b080961348b7c4402e0186e9", "width": 300}, {"height": 60, "url": "https://mosaic.scdn.co/60/ab67616d00001e025613cb3b9af98d4b55d7b881ab67616d00001e026296d33fcb1757bc287867f1ab67616d00001e0295a158cfb5c145340c771bedab67616d00001e02b080961348b7c4402e0186e9", "width": 60}], "name": "wistful", "owner": {"display_name": "mollypolly", "external_urls": {"spotify": "https://open.spotify.com/user/0dggb7hfnu19j3kennppjkl9b"}, "href": "https://api.spotify.com/v1/users/0dggb7hfnu19j3kennppjkl9b", "id": "0dggb7hfnu19j3kennppjkl9b", "type": "user", "uri": "spotify:user:0dggb7hfnu19j3kennppjkl9b"}, "primary_color": null, "public": true, "snapshot_id": "AAADvIByos6lp2VSRtFC+euNkAwFSAoq", "tracks": {"href": "https://api.spotify.com/v1/playlists/28ceRbvhLGtHNFFtp1067x/tracks", "total": 1021}, "type": "playlist", "uri": "spotify:playlist:28ceRbvhLGtHNFFtp1067x"}, {"collaborative": false, "description": "", "external_urls": {"spotify": "https://open.spotify.com/playlist/4AVPa0yFJMLA0uWmYIiI55"}, "href": "https://api.spotify.com/v1/playlists/4AVPa0yFJMLA0uWmYIiI55", "id": "4AVPa0yFJMLA0uWmYIiI55", "images": [{"height": null, "url": "https://image-cdn-fa.spotifycdn.com/image/ab67706c0000da844aec2227de351234362c4ef4", "width": null}], "name": "wistfully lean out my window and watch the sun set on the lake", "owner": {"display_name": "Kendra", "external_urls": {"spotify": "https://open.spotify.com/user/pq7zzf5wceu7egwtk890zebct"}, "href": "https://api.spotify.com/v1/users/pq7zzf5wceu7egwtk890zebct", "id": "pq7zzf5wceu7egwtk890zebct", "type": "user", "uri": "spotify:user:pq7zzf5wceu7egwtk890zebct"}, "primary_color": null, "public": true, "snapshot_id": "AAACYbYFI/6ANzNeRcXg+m0g6GGPJWHT", "tracks": {"href": "https://api.spotify.com/v1/playlists/4AVPa0yFJMLA0uWmYIiI55/tracks", "total": 345}, "type": "playlist", "uri": "spotify:playlist:4AVPa0yFJMLA0uWmYIiI55"}, null]}}