{"playlists": {"href": "https://api.spotify.com/v1/search?offset=0&limit=5&query=tuesday%20vibes&type=playlist", "limit": 5, "next": "https://api.spotify.com/v1/search?offset=5&limit=5&query=tuesday%20vibes&type=playlist", "offset": 0, "previous": null, "total": 901, "items": [null, {"collaborative": false, "description": "Boost your Tuesday mood with this feelgood playlist of happy vibes &amp; upbeat songs.", "external_urls": {"spotify": "https://open.spotify.com/playlist/2IVV4YqNX4PzXj1Mm8GU4R"}, "href": "https://api.spotify.com/v1/playlists/2IVV4YqNX4PzXj1Mm8GU4R", "id": "2IVV4YqNX4PzXj1Mm8GU4R", "images": [{"height": null, "url": "https://image-cdn-ak.spotifycdn.com/image/ab67706c0000d72c47ff438e521b6d05f0e1e909", "width": null}], "name": "Happy Tuesday 2025", "owner": {"display_name": "Hear Hear", "external_urls": {"spotify": "https://open.spotify.com/user/j17i1i49aoi7gsfn23oemdie4"}, "href": "https://api.spotify.com/v1/users/j17i1i49aoi7gsfn23oemdie4", "id": "j17i1i49aoi7gsfn23oemdie4", "type": "user", "uri": "spotify:user:j17i1i49aoi7gsfn23oemdie4"}, "primary_color": null, "public": true, "snapshot_id": "AAAD7kd7ZsA5/gyXZXhPNQgRwGJw71GT", "tracks": {"href": "https://api.spotify.com/v1/playlists/2IVV4YqNX4PzXj1Mm8GU4R/tracks", "total": 71}, "type": "playlist", "uri": "spotify:playlist:2IVV4YqNX4PzXj1Mm8GU4R"}, {"collaborative": false, "description": "", "external_urls": {"spotify": "https://open.spotify.com/playlist/0iBY6dSINFSV3ZjDBVAL6x"}, "href": "https://api.spotify.com/v1/playlists/0iBY6dSINFSV3ZjDBVAL6x", "id": "0iBY6dSINFSV3ZjDBVAL6x", "images": [{"height": 640, "url": "https://mosaic.scdn.co/640/ab67616d00001e0205559264ebef3889709826cfab67616d00001e022d77f95111d80b599a76a223ab67616d00001e023dea4a2ccd58ad1f8e4dbb03ab67616d00001e0275d950842ab17159f0bb9479", "width": 640}, {"height": 300, "url": "https://mosaic.scdn.co/300/ab67616d00001e0205559264ebef3889709826cfab67616d00001e022d77f95111d80b599a76a223ab67616d00001e023dea4a2ccd58ad1f8e4dbb03ab67616d00001e0275d950842ab17159f0bb9479", "width": 300}, {"height": 60, "url": "https://mosaic.scdn.co/60/ab67616d00001e0205559264ebef3889709826cfab67616d00001e022d77f95111d80b599a76a223ab67616d00001e023dea4a2ccd58ad1f8e4dbb03ab67616d00001e0275d950842ab17159f0bb9479", "width": 60}], "name": "Tuesday mood/ chill vibes", "owner": {"display_name": "michelleacostaviolet", "external_urls": {"spotify": "https://open.spotify.com/user/michelleacostaviolet"}, "href": "https://api.spotify.com/v1/users/michelleacostaviolet", "id": "michelleacostaviolet", "type": "user", "uri": "spotify:user:michelleacostaviolet"}, "primary_color": null, "public": true, "snapshot_id": "AAAAHwJxwHK0La4Po32l6ESSm1/SSOWK", "tracks": {"href": "https://api.spotify.com/v1/playlists/0iBY6dSINFSV3ZjDBVAL6x/tracks", "total": 30}, "type": "playlist", "uri": "spotify:playlist:0iBY6dSINFSV3ZjDBVAL6x"}, {"collaborative": false, "description": "All hits. Chill, feel good uptempo, optimistic, sunny indie, folk pop songs! Positive vibes! Shiny happy people Harry Styles, Pharrell Williams (cover), Sia, HAIM, Jason Mraz, Lily Allen, Robbie Williams, U2, Nelly Furtado. Have a great day! Dinsdag ochtend domingo \u306b\u3061\u3088\u3046\u3073  \u65e5\u66dc\u65e5 80s 90s 00s 10s 20s \u571f\u66dc\u65e5", "external_urls": {"spotify": "https://open.spotify.com/playlist/5Ka3zhsTJsiYAe5kcn7dln"}, "href": "https://api.spotify.com/v1/playlists/5Ka3zhsTJsiYAe5kcn7dln", "id": "5Ka3zhsTJsiYAe5kcn7dln", "images": [{"height": null, "url": "https://image-cdn-ak.spotifycdn.com/image/ab67706c0000d72ca4772924d5c848fa9e7fc837", "width": null}], "name": "Happy Tuesday Morning", "owner": {"display_name": "your own kind of music", "external_urls": {"spotify": "https://open.spotify.com/user/marinuz"}, "href": "https://api.spotify.com/v1/users/marinuz", "id": "marinuz", "type": "user", "uri": "spotify:user:marinuz"}, "primary_color": null, "public": true, "snapshot_id": "AAADTa/mRBnxDG1KtkrSxdU0nHBuSH0o", "tracks": {"href": "https://api.spotify.com/v1/playlists/5Ka3zhsTJsiYAe5kcn7dln/tracks", "total": 167}, "type": "playlist", "uri": "spotify:playlist:5Ka3zhsTJsiYAe5kcn7dln"}, null]}}