{"playlists": {"href": "https://api.spotify.com/v1/search?offset=0&limit=5&query=boardwalk%20ice%20cream&type=playlist", "limit": 5, "next": "https://api.spotify.com/v1/search?offset=5&limit=5&query=boardwalk%20ice%20cream&type=playlist", "offset": 0, "previous": null, "total": 807, "items": [{"collaborative": false, "description": "summer on the east coast, belly conklin, bike rides on the boardwalk, strawberry ice cream", "external_urls": {"spotify": "https://open.spotify.com/playlist/1UC4aWXN2tMP2TWOQa5vbc"}, "href": "https://api.spotify.com/v1/playlists/1UC4aWXN2tMP2TWOQa5vbc", "id": "1UC4aWXN2tMP2TWOQa5vbc", "images": [{"height": null, "url": "https://image-cdn-ak.spotifycdn.com/image/ab67706c0000da841a582ab270701859dc938106", "width": null}], "name": "\ud80c\uddfc\ud83e\udd42 coastal granddaughter\ud83e\uded0\u2693\ufe0f ", "owner": {"display_name": "brooklyn cochrane", "external_urls": {"spotify": "https://open.spotify.com/user/31nd3gv5qxygqlm2yuhsrhmb5him"}, "href": "https://api.spotify.com/v1/users/31nd3gv5qxygqlm2yuhsrhmb5him", "id": "31nd3gv5qxygqlm2yuhsrhmb5him", "type": "user", "uri": "spotify:user:31nd3gv5qxygqlm2yuhsrhmb5him"}, "primary_color": null, "public": true, "snapshot_id": "AAAAcXHZk28yQlRJB6k8ZXxsFkR9WZYN", "tracks": {"href": "https://api.spotify.com/v1/playlists/1UC4aWXN2tMP2TWOQa5vbc/tracks", "total": 20}, "type": "playlist", "uri": "spotify:playlist:1UC4aWXN2tMP2TWOQa5vbc"}, null, {"collaborative": false, "description": "beach. tan. sleepovers. no school. rollercoasters. ice cream. vacation. sunsets . all-nighters. boardwalks. pool days. shopping sprees. sun-kissed . summer.", "external_urls": {"spotify": "https://open.spotify.com/playlist/4A7RdHUOvGD63fZBn8h8hA"}, "href": "https://api.spotify.com/v1/playlists/4A7RdHUOvGD63fZBn8h8hA", "id": "4A7RdHUOvGD63fZBn8h8hA", "images": [{"height": null, "url": "https://image-cdn-ak.spotifycdn.com/image/ab67706c0000da843f7088e91acada0b634debf2", "width": null}], "name": "summer playlist", "owner": {"display_name": "audrey cang", "external_urls": {"spotify": "https://open.spotify.com/user/szpj3js6v00828zdohvi4w61j"}, "href": "https://api.spotify.com/v1/users/szpj3js6v00828zdohvi4w61j", "id": "szpj3js6v00828zdohvi4w61j", "type": "user", "uri": "spotify:user:szpj3js6v00828zdohvi4w61j"}, "primary_color": null, "public": true, "snapshot_id": "AAAAciD6AQzhlsHvpKExm0VQqa/DiSg/", "tracks": {"href": "https://api.spotify.com/v1/playlists/4A7RdHUOvGD63fZBn8h8hA/tracks", "total": 40}, "type": "playlist", "uri": "spotify:playlist:4A7RdHUOvGD63fZBn8h8hA"}, {"collaborative": false, "description": "Tiki bar grooves and island classics.", "external_urls": {"spotify": "https://open.spotify.com/playlist/1qwbqrnuPTsQNcagyNut9H"}, "href": "https://api.spotify.com/v1/playlists/1qwbqrnuPTsQNcagyNut9H", "id": "1qwbqrnuPTsQNcagyNut9H", "images": [{"height": null, "url": "https://image-cdn-ak.spotifycdn.com/image/ab67706c0000d72ce11244161efb7f384d5b7eaf", "width": null}], "name": "Tiki Bar Island Music", "owner": {"display_name": "Joel Preston", "external_urls": {"spotify": "https://open.spotify.com/user/22j6kbw5b2ewx72fgb2yfdk2q"}, "href": "https://api.spotify.com/v1/users/22j6kbw5b2ewx72fgb2yfdk2q", "id": "22j6kbw5b2ewx72fgb2yfdk2q", "type": "user", "uri": "spotify:user:22j6kbw5b2ewx72fgb2yfdk2q"}, "primary_color": null, "public": true, "snapshot_id": "AAAAd0Km4h1pat2dpGjWOB2FZIMGq3wp", "tracks": {"href": "https://api.spotify.com/v1/playlists/1qwbqrnuPTsQNcagyNut9H/tracks", "total": 113}, "type": "playlist", "uri": "spotify:playlist:1qwbqrnuPTsQNcagyNut9H"}, {"collaborative": false, "description": "", "external_urls": {"spotify": "https://open.spotify.com/playlist/0a45Zt4dZ7iV5dPE5ecGKV"}, "href": "https://api.spotify.com/v1/playlists/0a45Zt4dZ7iV5dPE5ecGKV", "id": "0a45Zt4dZ7iV5dPE5ecGKV", "images": [{"height": null, "url": "https://image-cdn-fa.spotifycdn.com/image/ab67706c0000da840825f81426f6ce8362e4a896", "width": null}], "name": "Rollerskates and ice cream on the boardwalk Thursday afternoon", "owner": {"display_name": "Laurenkinne", "external_urls": {"spotify": "https://open.spotify.com/user/5rc0r8pwpxmmoo6hrnr91bovp"}, "href": "https://api.spotify.com/v1/users/5rc0r8pwpxmmoo6hrnr91bovp", "id": "5rc0r8pwpxmmoo6hrnr91bovp", "type": "user", "uri": "spotify:user:5rc0r8pwpxmmoo6hrnr91bovp"}, "primary_color": null, "public": true, "snapshot_id": "AAAABFJMxjGCznC137+d0EWnWgiKizTx", "tracks": {"href": "https://api.spotify.com/v1/playlists/0a45Zt4dZ7iV5dPE5ecGKV/tracks", "total": 51}, "type": "playlist", "uri": "spotify:playlist:0a45Zt4dZ7iV5dPE5ecGKV"}]}}