{"playlists": {"href": "https://api.spotify.com/v1/search?offset=0&limit=5&query=happy%20energetic&type=playlist", "limit": 5, "next": "https://api.spotify.com/v1/search?offset=5&limit=5&query=happy%20energetic&type=playlist", "offset": 0, "previous": null, "total": 902, "items": [null, {"collaborative": false, "description": "Positive, upbeat, very energetic music that inspires action. You can do it! (Best Year Ever Live Event: Music for Walking In and setting the stage)", "external_urls": {"spotify": "https://open.spotify.com/playlist/41Xbvx4P0iT5OwCMz0inaN"}, "href": "https://api.spotify.com/v1/playlists/41Xbvx4P0iT5OwCMz0inaN", "id": "41Xbvx4P0iT5OwCMz0inaN", "images": [{"height": 640, "url": "https://mosaic.scdn.co/640/ab67616d00001e0230904a5d6173e4ed632ad32aab67616d00001e023efbcee3f705c0942d5ebb39ab67616d00001e02a8440fea5eb100ae2a5d4458ab67616d00001e02bc160fb50f95b24424999bac", "width": 640}, {"height": 300, "url": "https://mosaic.scdn.co/300/ab67616d00001e0230904a5d6173e4ed632ad32aab67616d00001e023efbcee3f705c0942d5ebb39ab67616d00001e02a8440fea5eb100ae2a5d4458ab67616d00001e02bc160fb50f95b24424999bac", "width": 300}, {"height": 60, "url": "https://mosaic.scdn.co/60/ab67616d00001e0230904a5d6173e4ed632ad32aab67616d00001e023efbcee3f705c0942d5ebb39ab67616d00001e02a8440fea5eb100ae2a5d4458ab67616d00001e02bc160fb50f95b24424999bac", "width": 60}], "name": "High Energy, Positive, Upbeat Music. You Can Do It! Energy Boosts to Get You Moving.", "owner": {"display_name": "Gail Bruce Hyatt", "external_urls": {"spotify": "https://open.spotify.com/user/1265423958"}, "href": "https://api.spotify.com/v1/users/1265423958", "id": "1265423958", "type": "user", "uri": "spotify:user:1265423958"}, "primary_color": null, "public": true, "snapshot_id": "AAAAQVxCzE5Blcg2x4zxytvPusM/QPIS", "tracks": {"href": "https://api.spotify.com/v1/playlists/41Xbvx4P0iT5OwCMz0inaN/tracks", "total": 60}, "type": "playlist", "uri": "spotify:playlist:41Xbvx4P0iT5OwCMz0inaN"}, {"collaborative": false, "description": "Up beat energetic &amp; whimsical classical music to create a safe happy playtime environment for kids, while exposing your child to the sounds of a variety of instuments. ", "external_urls": {"spotify": "https://open.spotify.com/playlist/5CHP54qnnINu7QESSL351n"}, "href": "https://api.spotify.com/v1/playlists/5CHP54qnnINu7QESSL351n", "id": "5CHP54qnnINu7QESSL351n", "images": [{"height": null, "url": "https://image-cdn-ak.spotifycdn.com/image/ab67706c0000da840d765f0d1855d1a5c6a6102e", "width": null}], "name": "Happy Classical Music for Kids", "owner": {"display_name": "Bae Bee Music", "external_urls": {"spotify": "https://open.spotify.com/user/315rtixega4ao3gu3oypasccgcne"}, "href": "https://api.spotify.com/v1/users/315rtixega4ao3gu3oypasccgcne", "id": "315rtixega4ao3gu3oypasccgcne", "type": "user", "uri": "spotify:user:315rtixega4ao3gu3oypasccgcne"}, "primary_color": null, "public": true, "snapshot_id": "AAABsFCmO2FOvVa/ZTTgz/dSXqkN+nhZ", "tracks": {"href": "https://api.spotify.com/v1/playlists/5CHP54qnnINu7QESSL351n/tracks", "total": 119}, "type": "playlist", "uri": "spotify:playlist:5CHP54qnnINu7QESSL351n"}, null, null]}}