{"playlists": {"href": "https://api.spotify.com/v1/search?offset=0&limit=5&query=taylor%20swift&type=playlist", "limit": 5, "next": "https://api.spotify.com/v1/search?offset=5&limit=5&query=taylor%20swift&type=playlist", "offset": 0, "previous": null, "total": 900, "items": [{"collaborative": false, "description": "*Not offical playlist or album* greatest songs of Taylor\u2019s version &amp; original songs", "external_urls": {"spotify": "https://open.spotify.com/playlist/0Y44bc2Fd2IfbhqSPnNlTC"}, "href": "https://api.spotify.com/v1/playlists/0Y44bc2Fd2IfbhqSPnNlTC", "id": "0Y44bc2Fd2IfbhqSPnNlTC", "images": [{"height": 640, "url": "https://mosaic.scdn.co/640/ab67616d00001e025076e4160d018e378f488c33ab67616d00001e02b7e976d2b35c767f9012cb72ab67616d00001e02bb54dde68cd23e2a268ae0f5ab67616d00001e02e787cffec20aa2a396a61647", "width": 640}, {"height": 300, "url": "https://mosaic.scdn.co/300/ab67616d00001e025076e4160d018e378f488c33ab67616d00001e02b7e976d2b35c767f9012cb72ab67616d00001e02bb54dde68cd23e2a268ae0f5ab67616d00001e02e787cffec20aa2a396a61647", "width": 300}, {"height": 60, "url": "https://mosaic.scdn.co/60/ab67616d00001e025076e4160d018e378f488c33ab67616d00001e02b7e976d2b35c767f9012cb72ab67616d00001e02bb54dde68cd23e2a268ae0f5ab67616d00001e02e787cffec20aa2a396a61647", "width": 60}], "name": "Taylor Swift: Hits and Best of", "owner": {"display_name": "Chris Brough", "external_urls": {"spotify": "https://open.spotify.com/user/christopher_j_brough"}, "href": "https://api.spotify.com/v1/users/christopher_j_brough", "id": "christopher_j_brough", "type": "user", "uri": "spotify:user:christopher_j_brough"}, "primary_color": null, "public": true, "snapshot_id": "AAADbp9gbktObuwXrR7GFFsI9pDGuDQO", "tracks": {"href": "https://api.spotify.com/v1/playlists/0Y44bc2Fd2IfbhqSPnNlTC/tracks", "total": 51}, "type": "playlist", "uri": "spotify:playlist:0Y44bc2Fd2IfbhqSPnNlTC"}, null, null, {"collaborative": false, "description": "ALL TAYLOR SWIFT SONGS in order plus a few extras. All taylors versions included. \ud83e\udd0d", "external_urls": {"spotify": "https://open.spotify.com/playlist/1mwIluT6YC7UOrVfMNoowr"}, "href": "https://api.spotify.com/v1/playlists/1mwIluT6YC7UOrVfMNoowr", "id": "1mwIluT6YC7UOrVfMNoowr", "images": [{"height": null, "url": "https://image-cdn-ak.spotifycdn.com/image/ab67706c0000da8453f3492a6dab96c1110ca10b", "width": null}], "name": "All Taylor Swift Songs", "owner": {"display_name": "Giselle \u2e06\u2e09", "external_urls": {"spotify": "https://open.spotify.com/user/uh17kyk0xlt8ydukqp2i18sbc"}, "href": "https://api.spotify.com/v1/users/uh17kyk0xlt8ydukqp2i18sbc", "id": "uh17kyk0xlt8ydukqp2i18sbc", "type": "user", "uri": "spotify:user:uh17kyk0xlt8ydukqp2i18sbc"}, "primary_color": null, "public": true, "snapshot_id": "AAAA/X+hEiXcXnMuckDWsYw5Czhie7TU", "tracks": {"href": "https://api.spotify.com/v1/playlists/1mwIluT6YC7UOrVfMNoowr/tracks", "total": 260}, "type": "playlist", "uri": "spotify:playlist:1mwIluT6YC7UOrVfMNoowr"}, null]}}