{"playlists": {"href": "https://api.spotify.com/v1/search?offset=0&limit=5&query=beach%20day%20vibes&type=playlist", "limit": 5, "next": "https://api.spotify.com/v1/search?offset=5&limit=5&query=beach%20day%20vibes&type=playlist", "offset": 0, "previous": null, "total": 901, "items": [{"collaborative": false, "description": "beach vibes - beachy songs - beachy playlist - beachy music - beach songs - beach playlist - holiday trip music - holiday songs - sunny music - sunny songs", "external_urls": {"spotify": "https://open.spotify.com/playlist/6D3DlItMlUuqkEHe00JvCL"}, "href": "https://api.spotify.com/v1/playlists/6D3DlItMlUuqkEHe00JvCL", "id": "6D3DlItMlUuqkEHe00JvCL", "images": [{"height": null, "url": "https://image-cdn-ak.spotifycdn.com/image/ab67706c0000d72cfc65fcf90662748401034e0a", "width": null}], "name": "Beachy Vibes 2025 \ud83c\udf34 Summer Vibes", "owner": {"display_name": "Soave", "external_urls": {"spotify": "https://open.spotify.com/user/21ifzjxggdajdpc4w6iqxslkq"}, "href": "https://api.spotify.com/v1/users/21ifzjxggdajdpc4w6iqxslkq", "id": "21ifzjxggdajdpc4w6iqxslkq", "type": "user", "uri": "spotify:user:21ifzjxggdajdpc4w6iqxslkq"}, "primary_color": null, "public": true, "snapshot_id": "AAAItPoDzo1gGR8Wed7TtN+1wggxAu07", "tracks": {"href": "https://api.spotify.com/v1/playlists/6D3DlItMlUuqkEHe00JvCL/tracks", "total": 150}, "type": "playlist", "uri": "spotify:playlist:6D3DlItMlUuqkEHe00JvCL"}, null, null, null, {"collaborative": false, "description": "vibes for a full day at the beach", "external_urls": {"spotify": "https://open.spotify.com/playlist/5rK9XiQtP0hheX1PH0kROK"}, "href": "https://api.spotify.com/v1/playlists/5rK9XiQtP0hheX1PH0kROK", "id": "5rK9XiQtP0hheX1PH0kROK", "images": [{"height": null, "url": "https://image-cdn-ak.spotifycdn.com/image/ab67706c0000d72cdeadae89732733e3afeb4155", "width": null}], "name": "All day beach playlist\ud83c\udfdd", "owner": {"display_name": "katehornik", "external_urls": {"spotify": "https://open.spotify.com/user/kahhornik"}, "href": "https://api.spotify.com/v1/users/kahhornik", "id": "kahhornik", "type": "user", "uri": "spotify:user:kahhornik"}, "primary_color": null, "public": true, "snapshot_id": "AAAAs6u8u+IgFVK1tIBZnmV2TJHRAFbi", "tracks": {"href": "https://api.spotify.com/v1/playlists/5rK9XiQtP0hheX1PH0kROK/tracks", "total": 136}, "type": "playlist", "uri": "spotify:playlist:5rK9XiQtP0hheX1PH0kROK"}]}}