{"playlists": {"href": "https://api.spotify.com/v1/search?offset=0&limit=5&query=indian%20pop&type=playlist", "limit": 5, "next": "https://api.spotify.com/v1/search?offset=5&limit=5&query=indian%20pop&type=playlist", "offset": 0, "previous": null, "total": 900, "items": [{"collaborative": false, "description": "", "external_urls": {"spotify": "https://open.spotify.com/playlist/2hBKJPwmU90BZeo38tKGXo"}, "href": "https://api.spotify.com/v1/playlists/2hBKJPwmU90BZeo38tKGXo", "id": "2hBKJPwmU90BZeo38tKGXo", "images": [{"height": null, "url": "https://image-cdn-ak.spotifycdn.com/image/ab67706c0000da84ac892bc2cdb55eaea3e34e99", "width": null}], "name": "INDIAN PARTY HITS", "owner": {"display_name": "Aliyah \ud83e\udd8b", "external_urls": {"spotify": "https://open.spotify.com/user/1178695297"}, "href": "https://api.spotify.com/v1/users/1178695297", "id": "1178695297", "type": "user", "uri": "spotify:user:1178695297"}, "primary_color": null, "public": true, "snapshot_id": "AAAAUTxv2SdSq2GEot7DDkOcWaLAZTns", "tracks": {"href": "https://api.spotify.com/v1/playlists/2hBKJPwmU90BZeo38tKGXo/tracks", "total": 74}, "type": "playlist", "uri": "spotify:playlist:2hBKJPwmU90BZeo38tKGXo"}, null, null, null, null]}}