{"playlists": {"href": "https://api.spotify.com/v1/search?offset=0&limit=5&query=rave%20trap&type=playlist", "limit": 5, "next": "https://api.spotify.com/v1/search?offset=5&limit=5&query=rave%20trap&type=playlist", "offset": 0, "previous": null, "total": 900, "items": [null, null, {"collaborative": false, "description": "Best RAVE MUSIC of 2025. Turn up the bass and get your party started! \ud83d\udd25Rave, Rave 2025, Rave Music, rave music 2025, Rave Party, Party Rave, Raving, Houseparty, Music for raves,  Raves, Hard rave, raving music, homerave, rave at home, house rave, new year rave, house rave 2025", "external_urls": {"spotify": "https://open.spotify.com/playlist/3ybZkcoA09pYekp0DIo1OP"}, "href": "https://api.spotify.com/v1/playlists/3ybZkcoA09pYekp0DIo1OP", "id": "3ybZkcoA09pYekp0DIo1OP", "images": [{"height": null, "url": "https://image-cdn-ak.spotifycdn.com/image/ab67706c0000d72c5dfcd2b9059922af9942f753", "width": null}], "name": "RAVE MUSIC \ud83d\udd25", "owner": {"display_name": "Bass House Music", "external_urls": {"spotify": "https://open.spotify.com/user/futurefinest"}, "href": "https://api.spotify.com/v1/users/futurefinest", "id": "futurefinest", "type": "user", "uri": "spotify:user:futurefinest"}, "primary_color": null, "public": true, "snapshot_id": "AAAFrnLCCtnO4lpSHPFmC/3lMdlWVweS", "tracks": {"href": "https://api.spotify.com/v1/playlists/3ybZkcoA09pYekp0DIo1OP/tracks", "total": 160}, "type": "playlist", "uri": "spotify:playlist:3ybZkcoA09pYekp0DIo1OP"}, {"collaborative": false, "description": "Peace \u270c\ud83c\udffc Love  \ud83e\udef6\ud83c\udffb  Unity  \ud83d\ude4f\ud83c\udffc  Respect \ud83e\udef1\ud83c\udffc\u200d\ud83e\udef2\ud83c\udffe", "external_urls": {"spotify": "https://open.spotify.com/playlist/7nmj4AmeXxo46rPXJnOUZ3"}, "href": "https://api.spotify.com/v1/playlists/7nmj4AmeXxo46rPXJnOUZ3", "id": "7nmj4AmeXxo46rPXJnOUZ3", "images": [{"height": null, "url": "https://image-cdn-ak.spotifycdn.com/image/ab67706c0000da84175caf82f294c1bbfe59e579", "width": null}], "name": "EDM Trap RAVE", "owner": {"display_name": "Chelsea Harvey", "external_urls": {"spotify": "https://open.spotify.com/user/chelsseaharvey"}, "href": "https://api.spotify.com/v1/users/chelsseaharvey", "id": "chelsseaharvey", "type": "user", "uri": "spotify:user:chelsseaharvey"}, "primary_color": null, "public": true, "snapshot_id": "AAAG4VyZw4a34fp6/VAGJuZszIdFWevX", "tracks": {"href": "https://api.spotify.com/v1/playlists/7nmj4AmeXxo46rPXJnOUZ3/tracks", "total": 795}, "type": "playlist", "uri": "spotify:playlist:7nmj4AmeXxo46rPXJnOUZ3"}, {"collaborative": false, "description": "House, Electro, and Trap tunes for your next Halloween costume rager! Rave &#x2F; party vibes, but nothing too heavy", "external_urls": {"spotify": "https://open.spotify.com/playlist/5hLuBehoZTa5VA8Sr464OG"}, "href": "https://api.spotify.com/v1/playlists/5hLuBehoZTa5VA8Sr464OG", "id": "5hLuBehoZTa5VA8Sr464OG", "images": [{"height": null, "url": "https://image-cdn-ak.spotifycdn.com/image/ab67706c0000da84d0f85ad1e2a54929ddea18c6", "width": null}], "name": "Halloween EDM Rave Party", "owner": {"display_name": "Brian Schatzel", "external_urls": {"spotify": "https://open.spotify.com/user/126276102"}, "href": "https://api.spotify.com/v1/users/126276102", "id": "126276102", "type": "user", "uri": "spotify:user:126276102"}, "primary_color": null, "public": true, "snapshot_id": "AAAB3FLeFiD96O1KTf6ccoL209ySq72C", "tracks": {"href": "https://api.spotify.com/v1/playlists/5hLuBehoZTa5VA8Sr464OG/tracks", "total": 159}, "type": "playlist", "uri": "spotify:playlist:5hLuBehoZTa5VA8Sr464OG"}]}}