{"playlists": {"href": "https://api.spotify.com/v1/search?offset=0&limit=5&query=lullaby&type=playlist", "limit": 5, "next": "https://api.spotify.com/v1/search?offset=5&limit=5&query=lullaby&type=playlist", "offset": 0, "previous": null, "total": 902, "items": [{"collaborative": false, "description": "The Top 100 Soothing Lullaby Melodies - Calm and gentle lullabies to help rock your baby to sleep. (Little Rainbow Playlists 2025)", "external_urls": {"spotify": "https://open.spotify.com/playlist/6XMhvUe2OfARE6iEjhx96k"}, "href": "https://api.spotify.com/v1/playlists/6XMhvUe2OfARE6iEjhx96k", "id": "6XMhvUe2OfARE6iEjhx96k", "images": [{"height": null, "url": "https://image-cdn-ak.spotifycdn.com/image/ab67706c0000da8418078def5ecd6c633a55b2f1", "width": null}], "name": "Lullabies for Baby Sleep 2025 \ud83d\udca4 \ud83e\uddf8\ud83d\ude34", "owner": {"display_name": "Little Rainbow", "external_urls": {"spotify": "https://open.spotify.com/user/kgnndhi5ad56st5rp5undloei"}, "href": "https://api.spotify.com/v1/users/kgnndhi5ad56st5rp5undloei", "id": "kgnndhi5ad56st5rp5undloei", "type": "user", "uri": "spotify:user:kgnndhi5ad56st5rp5undloei"}, "primary_color": null, "public": true, "snapshot_id": "AAAFPhH/n5uPZy8A0AEBwwzQy3YfQ5up", "tracks": {"href": "https://api.spotify.com/v1/playlists/6XMhvUe2OfARE6iEjhx96k/tracks", "total": 100}, "type": "playlist", "uri": "spotify:playlist:6XMhvUe2OfARE6iEjhx96k"}, {"collaborative": false, "description": "", "external_urls": {"spotify": "https://open.spotify.com/playlist/5xPiWjoksLTCs0uzUbiJ1g"}, "href": "https://api.spotify.com/v1/playlists/5xPiWjoksLTCs0uzUbiJ1g", "id": "5xPiWjoksLTCs0uzUbiJ1g", "images": [{"height": 640, "url": "https://mosaic.scdn.co/640/ab67616d00001e0200a77e010b6c0fd6618e8581ab67616d00001e020c9ef77b37c210ab8ba448aeab67616d00001e024c0b1cf03e4b22753c5ee803ab67616d00001e02699a84e1df5c74636dea7634", "width": 640}, {"height": 300, "url": "https://mosaic.scdn.co/300/ab67616d00001e0200a77e010b6c0fd6618e8581ab67616d00001e020c9ef77b37c210ab8ba448aeab67616d00001e024c0b1cf03e4b22753c5ee803ab67616d00001e02699a84e1df5c74636dea7634", "width": 300}, {"height": 60, "url": "https://mosaic.scdn.co/60/ab67616d00001e0200a77e010b6c0fd6618e8581ab67616d00001e020c9ef77b37c210ab8ba448aeab67616d00001e024c0b1cf03e4b22753c5ee803ab67616d00001e02699a84e1df5c74636dea7634", "width": 60}], "name": "BEST LULLABIES", "owner": {"display_name": "MISTER LASCOT", "external_urls": {"spotify": "https://open.spotify.com/user/81yo53h8e5hulyuwd8n4ftlg9"}, "href": "https://api.spotify.com/v1/users/81yo53h8e5hulyuwd8n4ftlg9", "id": "81yo53h8e5hulyuwd8n4ftlg9", "type": "user", "uri": "spotify:user:81yo53h8e5hulyuwd8n4ftlg9"}, "primary_color": null, "public": true, "snapshot_id": "AAAADzn0dznYlaRb5HyFmEkXMfu+QZwP", "tracks": {"href": "https://api.spotify.com/v1/playlists/5xPiWjoksLTCs0uzUbiJ1g/tracks", "total": 14}, "type": "playlist", "uri": "spotify:playlist:5xPiWjoksLTCs0uzUbiJ1g"}, null, null, null]}}