{"playlists": {"href": "https://api.spotify.com/v1/search?offset=0&limit=5&query=melancholy&type=playlist", "limit": 5, "next": "https://api.spotify.com/v1/search?offset=5&limit=5&query=melancholy&type=playlist", "offset": 0, "previous": null, "total": 901, "items": [null, null, null, null, {"collaborative": false, "description": "the most beautiful, sad classical music || perfect for rainy nights &amp; studying", "external_urls": {"spotify": "https://open.spotify.com/playlist/1aLrekwC72iuF5d5nePJkv"}, "href": "https://api.spotify.com/v1/playlists/1aLrekwC72iuF5d5nePJkv", "id": "1aLrekwC72iuF5d5nePJkv", "images": [{"height": null, "url": "https://image-cdn-ak.spotifycdn.com/image/ab67706c0000da843d00ae822efc7ad1d4c0bb9a", "width": null}], "name": "melancholy classical masterpieces", "owner": {"display_name": "trinity", "external_urls": {"spotify": "https://open.spotify.com/user/trin0113"}, "href": "https://api.spotify.com/v1/users/trin0113", "id": "trin0113", "type": "user", "uri": "spotify:user:trin0113"}, "primary_color": null, "public": true, "snapshot_id": "AAACKId9r9KmNrUGH65JTdHedmZJ/YHK", "tracks": {"href": "https://api.spotify.com/v1/playlists/1aLrekwC72iuF5d5nePJkv/tracks", "total": 150}, "type": "playlist", "uri": "spotify:playlist:1aLrekwC72iuF5d5nePJkv"}]}}