{"playlists": {"href": "https://api.spotify.com/v1/search?offset=0&limit=5&query=jazzy%20c&type=playlist", "limit": 5, "next": "https://api.spotify.com/v1/search?offset=5&limit=5&query=jazzy%20c&type=playlist", "offset": 0, "previous": null, "total": 901, "items": [{"collaborative": false, "description": "Soft instrumental Jazz for all your activities.", "external_urls": {"spotify": "https://open.spotify.com/playlist/5vVSfOsF8YRueAI1dOI0Lh"}, "href": "https://api.spotify.com/v1/playlists/5vVSfOsF8YRueAI1dOI0Lh", "id": "5vVSfOsF8YRueAI1dOI0Lh", "images": [{"height": null, "url": "https://image-cdn-fa.spotifycdn.com/image/ab67706c0000d72cc089d11c70e4089ba3e6ac56", "width": null}], "name": "Cozy Coffee Shop \u2615 Jazz in the Background", "owner": {"display_name": "Cozy Coffee Shop", "external_urls": {"spotify": "https://open.spotify.com/user/m1q7ydr6pvuxm9q0uogevoahw"}, "href": "https://api.spotify.com/v1/users/m1q7ydr6pvuxm9q0uogevoahw", "id": "m1q7ydr6pvuxm9q0uogevoahw", "type": "user", "uri": "spotify:user:m1q7ydr6pvuxm9q0uogevoahw"}, "primary_color": null, "public": true, "snapshot_id": "AAAAZkSvdEiUHWVsq6OSwDZDN6Cb2hBm", "tracks": {"href": "https://api.spotify.com/v1/playlists/5vVSfOsF8YRueAI1dOI0Lh/tracks", "total": 156}, "type": "playlist", "uri": "spotify:playlist:5vVSfOsF8YRueAI1dOI0Lh"}, {"collaborative": false, "description": "Jazzy lo-fi hip hop dinner lounge music bar instrumental covers low-fi study adhd focus chillhop new Jazzhop 2025 lowfi chilled spring nights sleep  \ud83d\udca4", "external_urls": {"spotify": "https://open.spotify.com/playlist/2Al9G2jrWkwDlRFMZaw1GX"}, "href": "https://api.spotify.com/v1/playlists/2Al9G2jrWkwDlRFMZaw1GX", "id": "2Al9G2jrWkwDlRFMZaw1GX", "images": [{"height": null, "url": "https://image-cdn-ak.spotifycdn.com/image/ab67706c0000da84ba237b11ebbe59a425db3033", "width": null}], "name": "lofi Jazz Cafe \ud83c\udfb7Study Beats & Chill Vibes", "owner": {"display_name": "Chill Select", "external_urls": {"spotify": "https://open.spotify.com/user/dor7cmlu5cn1dki1iqagc2ba6"}, "href": "https://api.spotify.com/v1/users/dor7cmlu5cn1dki1iqagc2ba6", "id": "dor7cmlu5cn1dki1iqagc2ba6", "type": "user", "uri": "spotify:user:dor7cmlu5cn1dki1iqagc2ba6"}, "primary_color": null, "public": true, "snapshot_id": "AABtQQ4yS4v565Uw+NX4UJXSJbRQKgbg", "tracks": {"href": "https://api.spotify.com/v1/playlists/2Al9G2jrWkwDlRFMZaw1GX/tracks", "total": 387}, "type": "playlist", "uri": "spotify:playlist:2Al9G2jrWkwDlRFMZaw1GX"}, null, null, null]}}