{"playlists": {"href": "https://api.spotify.com/v1/search?offset=0&limit=5&query=happy%20tamil&type=playlist", "limit": 5, "next": "https://api.spotify.com/v1/search?offset=5&limit=5&query=happy%20tamil&type=playlist", "offset": 0, "previous": null, "total": 1000, "items": [null, {"collaborative": false, "description": "Music that make our family smile", "external_urls": {"spotify": "https://open.spotify.com/playlist/1CZeETVCHJUtTis0exenHK"}, "href": "https://api.spotify.com/v1/playlists/1CZeETVCHJUtTis0exenHK", "id": "1CZeETVCHJUtTis0exenHK", "images": [{"height": 640, "url": "https://mosaic.scdn.co/640/ab67616d00001e021c518948dd61ffd8141bf471ab67616d00001e0238266f9d67ff7283d886918bab67616d00001e028cffb7c6c40759eaf8a5a142ab67616d00001e02eafaf556eda644a745d0144d", "width": 640}, {"height": 300, "url": "https://mosaic.scdn.co/300/ab67616d00001e021c518948dd61ffd8141bf471ab67616d00001e0238266f9d67ff7283d886918bab67616d00001e028cffb7c6c40759eaf8a5a142ab67616d00001e02eafaf556eda644a745d0144d", "width": 300}, {"height": 60, "url": "https://mosaic.scdn.co/60/ab67616d00001e021c518948dd61ffd8141bf471ab67616d00001e0238266f9d67ff7283d886918bab67616d00001e028cffb7c6c40759eaf8a5a142ab67616d00001e02eafaf556eda644a745d0144d", "width": 60}], "name": "Happy Family Music", "owner": {"display_name": "Scott Salisbury", "external_urls": {"spotify": "https://open.spotify.com/user/shsalisbury"}, "href": "https://api.spotify.com/v1/users/shsalisbury", "id": "shsalisbury", "type": "user", "uri": "spotify:user:shsalisbury"}, "primary_color": null, "public": true, "snapshot_id": "AAACbxOeq18WuRRGAT1OWVkBHsXQE+bU", "tracks": {"href": "https://api.spotify.com/v1/playlists/1CZeETVCHJUtTis0exenHK/tracks", "total": 112}, "type": "playlist", "uri": "spotify:playlist:1CZeETVCHJUtTis0exenHK"}, null, null, {"collaborative": false, "description": "", "external_urls": {"spotify": "https://open.spotify.com/playlist/14iO0n19NQKgEI0ibuofeV"}, "href": "https://api.spotify.com/v1/playlists/14iO0n19NQKgEI0ibuofeV", "id": "14iO0n19NQKgEI0ibuofeV", "images": [{"height": 640, "url": "https://mosaic.scdn.co/640/ab67616d00001e0234256f1346674f33792a80fbab67616d00001e0282acf0ca3014cfb8745efb97ab67616d00001e02d32dc726921eec2a91f0efa1ab67616d00001e02df5452056f1097c05632ed22", "width": 640}, {"height": 300, "url": "https://mosaic.scdn.co/300/ab67616d00001e0234256f1346674f33792a80fbab67616d00001e0282acf0ca3014cfb8745efb97ab67616d00001e02d32dc726921eec2a91f0efa1ab67616d00001e02df5452056f1097c05632ed22", "width": 300}, {"height": 60, "url": "https://mosaic.scdn.co/60/ab67616d00001e0234256f1346674f33792a80fbab67616d00001e0282acf0ca3014cfb8745efb97ab67616d00001e02d32dc726921eec2a91f0efa1ab67616d00001e02df5452056f1097c05632ed22", "width": 60}], "name": "Happy \u263a\ufe0f - Tamil happy & jolly mood songs", "owner": {"display_name": "DHIVIS \ud83d\udcab", "external_urls": {"spotify": "https://open.spotify.com/user/31gkk4ipuxvmb5ebmjougvw4phfu"}, "href": "https://api.spotify.com/v1/users/31gkk4ipuxvmb5ebmjougvw4phfu", "id": "31gkk4ipuxvmb5ebmjougvw4phfu", "type": "user", "uri": "spotify:user:31gkk4ipuxvmb5ebmjougvw4phfu"}, "primary_color": null, "public": true, "snapshot_id": "AAAAO6ZXS7iUxXnuZJyc9RPTaHAW7QF6", "tracks": {"href": "https://api.spotify.com/v1/playlists/14iO0n19NQKgEI0ibuofeV/tracks", "total": 46}, "type": "playlist", "uri": "spotify:playlist:14iO0n19NQKgEI0ibuofeV"}]}}