{"playlists": {"href": "https://api.spotify.com/v1/search?offset=0&limit=5&query=first%20snowfall&type=playlist", "limit": 5, "next": "https://api.spotify.com/v1/search?offset=5&limit=5&query=first%20snowfall&type=playlist", "offset": 0, "previous": null, "total": 862, "items": [{"collaborative": false, "description": "&quot;I Will Come As The Rain. I Will Come As The First Snowfall. I Will Beg The Divinity To Let Me Do Just That. Meeting You Was The Reward Of My Life.&quot; - Kim Shin #GuardianTheLonelyAndGreatGod #Goblin #\uc4f8\uc4f8\ud558\uace0\ucc2c\ub780\ud558\uc2e0\ub3c4\uae68\ube44 #\ub3c4\uae68\ube44", "external_urls": {"spotify": "https://open.spotify.com/playlist/6MRS7HTKaMgpyyVpKaoJFv"}, "href": "https://api.spotify.com/v1/playlists/6MRS7HTKaMgpyyVpKaoJFv", "id": "6MRS7HTKaMgpyyVpKaoJFv", "images": [{"height": null, "url": "https://image-cdn-ak.spotifycdn.com/image/ab67706c0000d72c069e9a4e33e4fa4892cc0393", "width": null}], "name": "Guardian \u2013 The Lonely And Great God (Goblin) OST", "owner": {"display_name": "Asp JJie", "external_urls": {"spotify": "https://open.spotify.com/user/aspchew"}, "href": "https://api.spotify.com/v1/users/aspchew", "id": "aspchew", "type": "user", "uri": "spotify:user:aspchew"}, "primary_color": null, "public": true, "snapshot_id": "AAAAaWICmQfAPQPCMXT1gbjukAdQHQ7g", "tracks": {"href": "https://api.spotify.com/v1/playlists/6MRS7HTKaMgpyyVpKaoJFv/tracks", "total": 18}, "type": "playlist", "uri": "spotify:playlist:6MRS7HTKaMgpyyVpKaoJFv"}, {"collaborative": false, "description": "this playlist is full of songs with the similar vibe as \u00absnowfall\u00bb by \u00f8neheart &amp; reidenshi \u2661", "external_urls": {"spotify": "https://open.spotify.com/playlist/3XRXhXZlI1AUI72Fn4Fy4x"}, "href": "https://api.spotify.com/v1/playlists/3XRXhXZlI1AUI72Fn4Fy4x", "id": "3XRXhXZlI1AUI72Fn4Fy4x", "images": [{"height": null, "url": "https://image-cdn-ak.spotifycdn.com/image/ab67706c0000d72c0fd0ba9f820f480d5c636bc7", "width": null}], "name": "snowfall type songs", "owner": {"display_name": "//", "external_urls": {"spotify": "https://open.spotify.com/user/o7ii85slo1j88fryj36bymqxg"}, "href": "https://api.spotify.com/v1/users/o7ii85slo1j88fryj36bymqxg", "id": "o7ii85slo1j88fryj36bymqxg", "type": "user", "uri": "spotify:user:o7ii85slo1j88fryj36bymqxg"}, "primary_color": null, "public": true, "snapshot_id": "AAAPpwhA/DYql6AExU9/7YrnFrYJ2ftz", "tracks": {"href": "https://api.spotify.com/v1/playlists/3XRXhXZlI1AUI72Fn4Fy4x/tracks", "total": 102}, "type": "playlist", "uri": "spotify:playlist:3XRXhXZlI1AUI72Fn4Fy4x"}, {"collaborative": false, "description": "", "external_urls": {"spotify": "https://open.spotify.com/playlist/34t2n37lEMHNcX7gFcYcBh"}, "href": "https://api.spotify.com/v1/playlists/34t2n37lEMHNcX7gFcYcBh", "id": "34t2n37lEMHNcX7gFcYcBh", "images": [{"height": null, "url": "https://image-cdn-fa.spotifycdn.com/image/ab67706c0000da843d006040a3beb9ddf6a83776", "width": null}], "name": "The first snowfall ", "owner": {"display_name": "Glitch!", "external_urls": {"spotify": "https://open.spotify.com/user/sawojk02ecqbxm4akerollx27"}, "href": "https://api.spotify.com/v1/users/sawojk02ecqbxm4akerollx27", "id": "sawojk02ecqbxm4akerollx27", "type": "user", "uri": "spotify:user:sawojk02ecqbxm4akerollx27"}, "primary_color": null, "public": true, "snapshot_id": "AAAA5Blp5PibZKoeYqJ5GdhKcI3kxRKr", "tracks": {"href": "https://api.spotify.com/v1/playlists/34t2n37lEMHNcX7gFcYcBh/tracks", "total": 1057}, "type": "playlist", "uri": "spotify:playlist:34t2n37lEMHNcX7gFcYcBh"}, {"collaborative": false, "description": "\u96be\u54c4 (Original Soundtrack) [Completed] .\ud81a\udd54 \u0741 \u02d6\u22c6 \u02da\u2746 \u22c6\u207a\u208a\u2745\u3002", "external_urls": {"spotify": "https://open.spotify.com/playlist/4bLARTGzWCf8nvcpv23VVg"}, "href": "https://api.spotify.com/v1/playlists/4bLARTGzWCf8nvcpv23VVg", "id": "4bLARTGzWCf8nvcpv23VVg", "images": [{"height": null, "url": "https://image-cdn-ak.spotifycdn.com/image/ab67706c0000da841dadbca1125b76b8c107e169", "width": null}], "name": "The First Frost OST \u96be\u54c4 \u2744\ufe0e", "owner": {"display_name": "derderderder", "external_urls": {"spotify": "https://open.spotify.com/user/31rbf5tk3mscx7z36h7lmqgz27vq"}, "href": "https://api.spotify.com/v1/users/31rbf5tk3mscx7z36h7lmqgz27vq", "id": "31rbf5tk3mscx7z36h7lmqgz27vq", "type": "user", "uri": "spotify:user:31rbf5tk3mscx7z36h7lmqgz27vq"}, "primary_color": null, "public": true, "snapshot_id": "AAAAxcJlTt+fwjnx5pdMUqu//i6Qi2tx", "tracks": {"href": "https://api.spotify.com/v1/playlists/4bLARTGzWCf8nvcpv23VVg/tracks", "total": 28}, "type": "playlist", "uri": "spotify:playlist:4bLARTGzWCf8nvcpv23VVg"}, {"collaborative": false, "description": "", "external_urls": {"spotify": "https://open.spotify.com/playlist/2E1xFsqUbmdiYdNUW0S4a3"}, "href": "https://api.spotify.com/v1/playlists/2E1xFsqUbmdiYdNUW0S4a3", "id": "2E1xFsqUbmdiYdNUW0S4a3", "images": [{"height": 640, "url": "https://mosaic.scdn.co/640/ab67616d00001e0217d131d429c783666c929d6bab67616d00001e0233ffa5c45ccea4103c917964ab67616d00001e0240ff1e3f8157513a2b0564faab67616d00001e0245663fe53c2551117230b678", "width": 640}, {"height": 300, "url": "https://mosaic.scdn.co/300/ab67616d00001e0217d131d429c783666c929d6bab67616d00001e0233ffa5c45ccea4103c917964ab67616d00001e0240ff1e3f8157513a2b0564faab67616d00001e0245663fe53c2551117230b678", "width": 300}, {"height": 60, "url": "https://mosaic.scdn.co/60/ab67616d00001e0217d131d429c783666c929d6bab67616d00001e0233ffa5c45ccea4103c917964ab67616d00001e0240ff1e3f8157513a2b0564faab67616d00001e0245663fe53c2551117230b678", "width": 60}], "name": "First Snowfall (=", "owner": {"display_name": "Hannah Jean Pouliot", "external_urls": {"spotify": "https://open.spotify.com/user/22cqvopllnp2jt5pv76s3hfki"}, "href": "https://api.spotify.com/v1/users/22cqvopllnp2jt5pv76s3hfki", "id": "22cqvopllnp2jt5pv76s3hfki", "type": "user", "uri": "spotify:user:22cqvopllnp2jt5pv76s3hfki"}, "primary_color": null, "public": true, "snapshot_id": "AAAAQ7oz2ToP7EG9HLKWoGwmzA6Zt/jy", "tracks": {"href": "https://api.spotify.com/v1/playlists/2E1xFsqUbmdiYdNUW0S4a3/tracks", "total": 64}, "type": "playlist", "uri": "spotify:playlist:2E1xFsqUbmdiYdNUW0S4a3"}]}}