{"playlists": {"href": "https://api.spotify.com/v1/search?offset=0&limit=5&query=late%20night%20drive&type=playlist", "limit": 5, "next": "https://api.spotify.com/v1/search?offset=5&limit=5&query=late%20night%20drive&type=playlist", "offset": 0, "previous": null, "total": 904, "items": [{"collaborative": false, "description": "Songs for late night vibes | RnB for drives | rainy drives | late night driving | midnight road trips | chill driving music | summer nights | relaxing rap music | sad rap for drives", "external_urls": {"spotify": "https://open.spotify.com/playlist/0C4E0G59TOVsRAqXQbt33N"}, "href": "https://api.spotify.com/v1/playlists/0C4E0G59TOVsRAqXQbt33N", "id": "0C4E0G59TOVsRAqXQbt33N", "images": [{"height": null, "url": "https://image-cdn-ak.spotifycdn.com/image/ab67706c0000d72ceaad5835609f911ceab98284", "width": null}], "name": "LATE NIGHT DRIVES \ud83d\udda4", "owner": {"display_name": "AZ", "external_urls": {"spotify": "https://open.spotify.com/user/azarrella9"}, "href": "https://api.spotify.com/v1/users/azarrella9", "id": "azarrella9", "type": "user", "uri": "spotify:user:azarrella9"}, "primary_color": null, "public": true, "snapshot_id": "AAAHE0XSHL5JVQVvdrc2+bRxHPgRYD0g", "tracks": {"href": "https://api.spotify.com/v1/playlists/0C4E0G59TOVsRAqXQbt33N/tracks", "total": 228}, "type": "playlist", "uri": "spotify:playlist:0C4E0G59TOVsRAqXQbt33N"}, null, {"collaborative": false, "description": "", "external_urls": {"spotify": "https://open.spotify.com/playlist/6NVrnCE4Er73Jc718Ak0q4"}, "href": "https://api.spotify.com/v1/playlists/6NVrnCE4Er73Jc718Ak0q4", "id": "6NVrnCE4Er73Jc718Ak0q4", "images": [{"height": null, "url": "https://image-cdn-ak.spotifycdn.com/image/ab67706c0000d72ccb98693aee2e3916c6f30898", "width": null}], "name": "late night drive hype", "owner": {"display_name": "Sydney Bell", "external_urls": {"spotify": "https://open.spotify.com/user/lisajdouglas"}, "href": "https://api.spotify.com/v1/users/lisajdouglas", "id": "lisajdouglas", "type": "user", "uri": "spotify:user:lisajdouglas"}, "primary_color": null, "public": true, "snapshot_id": "AAABDcLygJuZXSUMvwph7Nv9VKrsX37G", "tracks": {"href": "https://api.spotify.com/v1/playlists/6NVrnCE4Er73Jc718Ak0q4/tracks", "total": 236}, "type": "playlist", "uri": "spotify:playlist:6NVrnCE4Er73Jc718Ak0q4"}, null, null]}}