{"playlists": {"href": "https://api.spotify.com/v1/search?offset=0&limit=5&query=chill%20vibes&type=playlist", "limit": 5, "next": "https://api.spotify.com/v1/search?offset=5&limit=5&query=chill%20vibes&type=playlist", "offset": 0, "previous": null, "total": 903, "items": [{"collaborative": false, "description": "Just chill &amp; relax... (Follow us on <a href=\"https://www.instagram.com/electropose/\">Instagram @electropose</a>)", "external_urls": {"spotify": "https://open.spotify.com/playlist/6IKQrtMc4c00YzONcUt7QH"}, "href": "https://api.spotify.com/v1/playlists/6IKQrtMc4c00YzONcUt7QH", "id": "6IKQrtMc4c00YzONcUt7QH", "images": [{"height": null, "url": "https://image-cdn-ak.spotifycdn.com/image/ab67706c0000d72c2128d1e7b21f4f57fa1d0174", "width": null}], "name": "Chill  Vibes 2025 \ud83c\udf19", "owner": {"display_name": "Electro Pos\u00e9", "external_urls": {"spotify": "https://open.spotify.com/user/electropos\u00e9"}, "href": "https://api.spotify.com/v1/users/electropos\u00e9", "id": "electropos\u00e9", "type": "user", "uri": "spotify:user:electropos%C3%A9"}, "primary_color": null, "public": true, "snapshot_id": "AAAR2z9v8Dj3AMGjmH6HdZlLP2i2s/L9", "tracks": {"href": "https://api.spotify.com/v1/playlists/6IKQrtMc4c00YzONcUt7QH/tracks", "total": 216}, "type": "playlist", "uri": "spotify:playlist:6IKQrtMc4c00YzONcUt7QH"}, null, {"collaborative": false, "description": "", "external_urls": {"spotify": "https://open.spotify.com/playlist/3orcllxQnhCM4lGjrg0Blq"}, "href": "https://api.spotify.com/v1/playlists/3orcllxQnhCM4lGjrg0Blq", "id": "3orcllxQnhCM4lGjrg0Blq", "images": [{"height": 640, "url": "https://mosaic.scdn.co/640/ab67616d00001e022d94d0f04e9a58d1654b760bab67616d00001e02988ede5e1276e758b5f9e577ab67616d00001e02db2c3be1223a23225da54953ab67616d00001e02e71dd15fc5bdefd5bff70452", "width": 640}, {"height": 300, "url": "https://mosaic.scdn.co/300/ab67616d00001e022d94d0f04e9a58d1654b760bab67616d00001e02988ede5e1276e758b5f9e577ab67616d00001e02db2c3be1223a23225da54953ab67616d00001e02e71dd15fc5bdefd5bff70452", "width": 300}, {"height": 60, "url": "https://mosaic.scdn.co/60/ab67616d00001e022d94d0f04e9a58d1654b760bab67616d00001e02988ede5e1276e758b5f9e577ab67616d00001e02db2c3be1223a23225da54953ab67616d00001e02e71dd15fc5bdefd5bff70452", "width": 60}], "name": "chill vibes & late night drives", "owner": {"display_name": "sanskarshrestha", "external_urls": {"spotify": "https://open.spotify.com/user/i78d6am1iksvb2cj0te4jdqvq"}, "href": "https://api.spotify.com/v1/users/i78d6am1iksvb2cj0te4jdqvq", "id": "i78d6am1iksvb2cj0te4jdqvq", "type": "user", "uri": "spotify:user:i78d6am1iksvb2cj0te4jdqvq"}, "primary_color": null, "public": true, "snapshot_id": "AAAFQaGq9kgj3Ab+23JWvDSHiNJu78xg", "tracks": {"href": "https://api.spotify.com/v1/playlists/3orcllxQnhCM4lGjrg0Blq/tracks", "total": 968}, "type": "playlist", "uri": "spotify:playlist:3orcllxQnhCM4lGjrg0Blq"}, null, null]}}