{"playlists": {"href": "https://api.spotify.com/v1/search?offset=0&limit=5&query=hood%20rats&type=playlist", "limit": 5, "next": "https://api.spotify.com/v1/search?offset=5&limit=5&query=hood%20rats&type=playlist", "offset": 0, "previous": null, "total": 902, "items": [{"collaborative": false, "description": "", "external_urls": {"spotify": "https://open.spotify.com/playlist/2kGLM4zdu04nIdJUWzynVj"}, "href": "https://api.spotify.com/v1/playlists/2kGLM4zdu04nIdJUWzynVj", "id": "2kGLM4zdu04nIdJUWzynVj", "images": [{"height": null, "url": "https://i.scdn.co/image/ab67616d00001e02bf84c17542cd10cf51f2b2d2", "width": null}], "name": "Hood Rats (with Sukihana)", "owner": {"display_name": "luvvv<3", "external_urls": {"spotify": "https://open.spotify.com/user/31ote47wsdryj5lgbc6dzvpzv5py"}, "href": "https://api.spotify.com/v1/users/31ote47wsdryj5lgbc6dzvpzv5py", "id": "31ote47wsdryj5lgbc6dzvpzv5py", "type": "user", "uri": "spotify:user:31ote47wsdryj5lgbc6dzvpzv5py"}, "primary_color": null, "public": true, "snapshot_id": "AAAAA2RVENTsSnesSUbAljZgNNxs193L", "tracks": {"href": "https://api.spotify.com/v1/playlists/2kGLM4zdu04nIdJUWzynVj/tracks", "total": 2}, "type": "playlist", "uri": "spotify:playlist:2kGLM4zdu04nIdJUWzynVj"}, null, {"collaborative": false, "description": "", "external_urls": {"spotify": "https://open.spotify.com/playlist/40ln1qwFjIepbreXIfqVRb"}, "href": "https://api.spotify.com/v1/playlists/40ln1qwFjIepbreXIfqVRb", "id": "40ln1qwFjIepbreXIfqVRb", "images": [{"height": null, "url": "https://image-cdn-fa.spotifycdn.com/image/ab67706c0000da84c722a45d013b3e621a326d19", "width": null}], "name": "hood rats", "owner": {"display_name": "evan amerio", "external_urls": {"spotify": "https://open.spotify.com/user/3s3exj8ppnz3wxffcczsrtb59"}, "href": "https://api.spotify.com/v1/users/3s3exj8ppnz3wxffcczsrtb59", "id": "3s3exj8ppnz3wxffcczsrtb59", "type": "user", "uri": "spotify:user:3s3exj8ppnz3wxffcczsrtb59"}, "primary_color": null, "public": true, "snapshot_id": "AAAB/WCFWMtjfsHHHxI0Ug99Lcgj/RhC", "tracks": {"href": "https://api.spotify.com/v1/playlists/40ln1qwFjIepbreXIfqVRb/tracks", "total": 266}, "type": "playlist", "uri": "spotify:playlist:40ln1qwFjIepbreXIfqVRb"}, {"collaborative": false, "description": "", "external_urls": {"spotify": "https://open.spotify.com/playlist/0Y1UHzDgwVS0kiSkJZtBzP"}, "href": "https://api.spotify.com/v1/playlists/0Y1UHzDgwVS0kiSkJZtBzP", "id": "0Y1UHzDgwVS0kiSkJZtBzP", "images": [{"height": null, "url": "https://image-cdn-fa.spotifycdn.com/image/ab67706c0000d72cf75da7580e1a55e7f0035834", "width": null}], "name": "ghetto girls in da car", "owner": {"display_name": "raegan norton", "external_urls": {"spotify": "https://open.spotify.com/user/rnorton6789"}, "href": "https://api.spotify.com/v1/users/rnorton6789", "id": "rnorton6789", "type": "user", "uri": "spotify:user:rnorton6789"}, "primary_color": null, "public": true, "snapshot_id": "AAAAqp6+kO/f6dKFzpnINzk4Zf0Vg9xV", "tracks": {"href": "https://api.spotify.com/v1/playlists/0Y1UHzDgwVS0kiSkJZtBzP/tracks", "total": 114}, "type": "playlist", "uri": "spotify:playlist:0Y1UHzDgwVS0kiSkJZtBzP"}, {"collaborative": false, "description": "hood rap | hood bangers | rap bangers", "external_urls": {"spotify": "https://open.spotify.com/playlist/4sYDTZTTk3nO4nSsBUWzRD"}, "href": "https://api.spotify.com/v1/playlists/4sYDTZTTk3nO4nSsBUWzRD", "id": "4sYDTZTTk3nO4nSsBUWzRD", "images": [{"height": null, "url": "https://image-cdn-ak.spotifycdn.com/image/ab67706c0000d72c230dc77154f5695b2a770afb", "width": null}], "name": "HOOD RAP BANGERS\ud83d\ude24", "owner": {"display_name": "taylor624", "external_urls": {"spotify": "https://open.spotify.com/user/31w2pji2w7ulxwl3z5dz43wjhllu"}, "href": "https://api.spotify.com/v1/users/31w2pji2w7ulxwl3z5dz43wjhllu", "id": "31w2pji2w7ulxwl3z5dz43wjhllu", "type": "user", "uri": "spotify:user:31w2pji2w7ulxwl3z5dz43wjhllu"}, "primary_color": null, "public": true, "snapshot_id": "AAAA+fUVoKrP6JFWo4uITHJtsvw7dXcb", "tracks": {"href": "https://api.spotify.com/v1/playlists/4sYDTZTTk3nO4nSsBUWzRD/tracks", "total": 166}, "type": "playlist", "uri": "spotify:playlist:4sYDTZTTk3nO4nSsBUWzRD"}]}}