{"playlists": {"href": "https://api.spotify.com/v1/search?offset=0&limit=5&query=airport%20jams&type=playlist", "limit": 5, "next": "https://api.spotify.com/v1/search?offset=5&limit=5&query=airport%20jams&type=playlist", "offset": 0, "previous": null, "total": 889, "items": [{"collaborative": false, "description": "", "external_urls": {"spotify": "https://open.spotify.com/playlist/2xq9wE4lvqI5vRUSQmmDH0"}, "href": "https://api.spotify.com/v1/playlists/2xq9wE4lvqI5vRUSQmmDH0", "id": "2xq9wE4lvqI5vRUSQmmDH0", "images": [{"height": 640, "url": "https://mosaic.scdn.co/640/ab67616d00001e02142e5c0e611841b87c2dc533ab67616d00001e025d0a8e54aba5181c79593b94ab67616d00001e0263fa4751355b66f236943275ab67616d00001e02d514470784e3d02ee0bcdb80", "width": 640}, {"height": 300, "url": "https://mosaic.scdn.co/300/ab67616d00001e02142e5c0e611841b87c2dc533ab67616d00001e025d0a8e54aba5181c79593b94ab67616d00001e0263fa4751355b66f236943275ab67616d00001e02d514470784e3d02ee0bcdb80", "width": 300}, {"height": 60, "url": "https://mosaic.scdn.co/60/ab67616d00001e02142e5c0e611841b87c2dc533ab67616d00001e025d0a8e54aba5181c79593b94ab67616d00001e0263fa4751355b66f236943275ab67616d00001e02d514470784e3d02ee0bcdb80", "width": 60}], "name": "Airport Jams \ud83e\udec0", "owner": {"display_name": "kelsie_burmeister", "external_urls": {"spotify": "https://open.spotify.com/user/kelsie_burmeister"}, "href": "https://api.spotify.com/v1/users/kelsie_burmeister", "id": "kelsie_burmeister", "type": "user", "uri": "spotify:user:kelsie_burmeister"}, "primary_color": null, "public": true, "snapshot_id": "AAAARKKUfE/pyVnIH84DB1Mqj42q+K2t", "tracks": {"href": "https://api.spotify.com/v1/playlists/2xq9wE4lvqI5vRUSQmmDH0/tracks", "total": 67}, "type": "playlist", "uri": "spotify:playlist:2xq9wE4lvqI5vRUSQmmDH0"}, {"collaborative": false, "description": "", "external_urls": {"spotify": "https://open.spotify.com/playlist/0s61tOe9FJjHrxqYGJkyYq"}, "href": "https://api.spotify.com/v1/playlists/0s61tOe9FJjHrxqYGJkyYq", "id": "0s61tOe9FJjHrxqYGJkyYq", "images": [{"height": null, "url": "https://image-cdn-ak.spotifycdn.com/image/ab67706c0000da846300b29a979fb8a952d01b3a", "width": null}], "name": "Chill Airport Vibes\u2708\ufe0f\ud83c\udf3a\ud83c\udf34\ud83d\uddfa\ufe0f", "owner": {"display_name": "autumn", "external_urls": {"spotify": "https://open.spotify.com/user/ki2ic0wt67b9yx9m0gs6b9q2h"}, "href": "https://api.spotify.com/v1/users/ki2ic0wt67b9yx9m0gs6b9q2h", "id": "ki2ic0wt67b9yx9m0gs6b9q2h", "type": "user", "uri": "spotify:user:ki2ic0wt67b9yx9m0gs6b9q2h"}, "primary_color": null, "public": true, "snapshot_id": "AAAAZ5bHhPpmjRTp4J/fRGGD8uzW8HBL", "tracks": {"href": "https://api.spotify.com/v1/playlists/0s61tOe9FJjHrxqYGJkyYq/tracks", "total": 59}, "type": "playlist", "uri": "spotify:playlist:0s61tOe9FJjHrxqYGJkyYq"}, {"collaborative": false, "description": "", "external_urls": {"spotify": "https://open.spotify.com/playlist/5nc4QhNFKbUaLcJwvCBrcJ"}, "href": "https://api.spotify.com/v1/playlists/5nc4QhNFKbUaLcJwvCBrcJ", "id": "5nc4QhNFKbUaLcJwvCBrcJ", "images": [{"height": 640, "url": "https://mosaic.scdn.co/640/ab67616d00001e0205c7aec05eabf142cc33b936ab67616d00001e02bd24a030cbb9f020ead67baaab67616d00001e02d30875ac192d2465bb1a4c15ab67616d00001e02e17e15e3be2a15f9f4d56c7c", "width": 640}, {"height": 300, "url": "https://mosaic.scdn.co/300/ab67616d00001e0205c7aec05eabf142cc33b936ab67616d00001e02bd24a030cbb9f020ead67baaab67616d00001e02d30875ac192d2465bb1a4c15ab67616d00001e02e17e15e3be2a15f9f4d56c7c", "width": 300}, {"height": 60, "url": "https://mosaic.scdn.co/60/ab67616d00001e0205c7aec05eabf142cc33b936ab67616d00001e02bd24a030cbb9f020ead67baaab67616d00001e02d30875ac192d2465bb1a4c15ab67616d00001e02e17e15e3be2a15f9f4d56c7c", "width": 60}], "name": "Airport Jams", "owner": {"display_name": "Moe", "external_urls": {"spotify": "https://open.spotify.com/user/1241979679"}, "href": "https://api.spotify.com/v1/users/1241979679", "id": "1241979679", "type": "user", "uri": "spotify:user:1241979679"}, "primary_color": null, "public": true, "snapshot_id": "AAAAUY0qxDUMq+YaN4pO68OyTqCwHpTT", "tracks": {"href": "https://api.spotify.com/v1/playlists/5nc4QhNFKbUaLcJwvCBrcJ/tracks", "total": 79}, "type": "playlist", "uri": "spotify:playlist:5nc4QhNFKbUaLcJwvCBrcJ"}, {"collaborative": false, "description": "", "external_urls": {"spotify": "https://open.spotify.com/playlist/035FxegSPOe5UrDCKUHtCI"}, "href": "https://api.spotify.com/v1/playlists/035FxegSPOe5UrDCKUHtCI", "id": "035FxegSPOe5UrDCKUHtCI", "images": [{"height": null, "url": "https://image-cdn-ak.spotifycdn.com/image/ab67706c0000da8450280d88dd694ce2ae5e0be5", "width": null}], "name": "early morning airport trip", "owner": {"display_name": "Sophie Kirsten", "external_urls": {"spotify": "https://open.spotify.com/user/sophiehowarth_"}, "href": "https://api.spotify.com/v1/users/sophiehowarth_", "id": "sophiehowarth_", "type": "user", "uri": "spotify:user:sophiehowarth_"}, "primary_color": null, "public": true, "snapshot_id": "AAABKBUZj7wwWO4pu1p49K1YQZdUUv9s", "tracks": {"href": "https://api.spotify.com/v1/playlists/035FxegSPOe5UrDCKUHtCI/tracks", "total": 190}, "type": "playlist", "uri": "spotify:playlist:035FxegSPOe5UrDCKUHtCI"}, {"collaborative": false, "description": "", "external_urls": {"spotify": "https://open.spotify.com/playlist/4MP6XrxyrrC2pbOpCs6Yqv"}, "href": "https://api.spotify.com/v1/playlists/4MP6XrxyrrC2pbOpCs6Yqv", "id": "4MP6XrxyrrC2pbOpCs6Yqv", "images": [{"height": 640, "url": "https://mosaic.scdn.co/640/ab67616d00001e0258f4ef37dc0cdb68f858808dab67616d00001e0262d0614b5dffca14a302b427ab67616d00001e026a21b97de47168df4f0c1993ab67616d00001e02b9fc7f7e0db93d4809d2ec37", "width": 640}, {"height": 300, "url": "https://mosaic.scdn.co/300/ab67616d00001e0258f4ef37dc0cdb68f858808dab67616d00001e0262d0614b5dffca14a302b427ab67616d00001e026a21b97de47168df4f0c1993ab67616d00001e02b9fc7f7e0db93d4809d2ec37", "width": 300}, {"height": 60, "url": "https://mosaic.scdn.co/60/ab67616d00001e0258f4ef37dc0cdb68f858808dab67616d00001e0262d0614b5dffca14a302b427ab67616d00001e026a21b97de47168df4f0c1993ab67616d00001e02b9fc7f7e0db93d4809d2ec37", "width": 60}], "name": "Airport Jams", "owner": {"display_name": "meiish130", "external_urls": {"spotify": "https://open.spotify.com/user/meiish130"}, "href": "https://api.spotify.com/v1/users/meiish130", "id": "meiish130", "type": "user", "uri": "spotify:user:meiish130"}, "primary_color": null, "public": true, "snapshot_id": "AAAB1DTGntre27AU5zkqzReS4QHbx6d4", "tracks": {"href": "https://api.spotify.com/v1/playlists/4MP6XrxyrrC2pbOpCs6Yqv/tracks", "total": 451}, "type": "playlist", "uri": "spotify:playlist:4MP6XrxyrrC2pbOpCs6Yqv"}]}}