{"playlists": {"href": "https://api.spotify.com/v1/search?offset=0&limit=5&query=energetic%20bubblegum%20pop&type=playlist", "limit": 5, "next": "https://api.spotify.com/v1/search?offset=5&limit=5&query=energetic%20bubblegum%20pop&type=playlist", "offset": 0, "previous": null, "total": 805, "items": [{"collaborative": false, "description": "R&amp;B-like and bubblegum pop songs! (some of them sound so cutesy lol)", "external_urls": {"spotify": "https://open.spotify.com/playlist/5Vw291bu52uELvFyJnONB8"}, "href": "https://api.spotify.com/v1/playlists/5Vw291bu52uELvFyJnONB8", "id": "5Vw291bu52uELvFyJnONB8", "images": [{"height": null, "url": "https://image-cdn-fa.spotifycdn.com/image/ab67706c0000da8477ebeefd71a8c66aaa704dd6", "width": null}], "name": "Energetic songs I cannot get over <3", "owner": {"display_name": "\u25d5\u23d1\u25d5", "external_urls": {"spotify": "https://open.spotify.com/user/l5u64sw86wnlmawo7jpti3x4t"}, "href": "https://api.spotify.com/v1/users/l5u64sw86wnlmawo7jpti3x4t", "id": "l5u64sw86wnlmawo7jpti3x4t", "type": "user", "uri": "spotify:user:l5u64sw86wnlmawo7jpti3x4t"}, "primary_color": null, "public": true, "snapshot_id": "AAAAnaDe70LZYRbNssufGWe8AqwtxgTw", "tracks": {"href": "https://api.spotify.com/v1/playlists/5Vw291bu52uELvFyJnONB8/tracks", "total": 38}, "type": "playlist", "uri": "spotify:playlist:5Vw291bu52uELvFyJnONB8"}, null, null, null, {"collaborative": false, "description": "Energetic, Indie-pop, Bandy, Bubblegum pop", "external_urls": {"spotify": "https://open.spotify.com/playlist/0n5D5a0WSBhe4hrE6cUSnO"}, "href": "https://api.spotify.com/v1/playlists/0n5D5a0WSBhe4hrE6cUSnO", "id": "0n5D5a0WSBhe4hrE6cUSnO", "images": [{"height": null, "url": "https://image-cdn-ak.spotifycdn.com/image/ab67706c0000da849c703b9bfaea352e51fc2894", "width": null}], "name": "good vibes only.", "owner": {"display_name": "Brianna", "external_urls": {"spotify": "https://open.spotify.com/user/31l7g3u3clef66wjpj535orhbt6e"}, "href": "https://api.spotify.com/v1/users/31l7g3u3clef66wjpj535orhbt6e", "id": "31l7g3u3clef66wjpj535orhbt6e", "type": "user", "uri": "spotify:user:31l7g3u3clef66wjpj535orhbt6e"}, "primary_color": null, "public": true, "snapshot_id": "AAAARJjF+4fJGkdMWf3mcNJsjfjTabJG", "tracks": {"href": "https://api.spotify.com/v1/playlists/0n5D5a0WSBhe4hrE6cUSnO/tracks", "total": 50}, "type": "playlist", "uri": "spotify:playlist:0n5D5a0WSBhe4hrE6cUSnO"}]}}