{"playlists": {"href": "https://api.spotify.com/v1/search?offset=0&limit=5&query=ibiza%20rave&type=playlist", "limit": 5, "next": "https://api.spotify.com/v1/search?offset=5&limit=5&query=ibiza%20rave&type=playlist", "offset": 0, "previous": null, "total": 1000, "items": [null, {"collaborative": false, "description": "A playlist that makes even a rainy day feel good. Calm and relaxing mix of Deep House &#x2F; Chill Wave &#x2F; Progressive &#x2F; Chill EDM tunes perfectly suited to have in the background for any occasion. Enjoy!", "external_urls": {"spotify": "https://open.spotify.com/playlist/66sLIznFGdk7jEs4mjZLtU"}, "href": "https://api.spotify.com/v1/playlists/66sLIznFGdk7jEs4mjZLtU", "id": "66sLIznFGdk7jEs4mjZLtU", "images": [{"height": null, "url": "https://image-cdn-ak.spotifycdn.com/image/ab67706c0000da84d7a69e9abe175d8590810da1", "width": null}], "name": "Ibiza Lounge : Chill & Focus | Chill / EDM / Lounge vibes | 2023", "owner": {"display_name": "Worn Out", "external_urls": {"spotify": "https://open.spotify.com/user/4d9m8kvp76k32x74i38avsu27"}, "href": "https://api.spotify.com/v1/users/4d9m8kvp76k32x74i38avsu27", "id": "4d9m8kvp76k32x74i38avsu27", "type": "user", "uri": "spotify:user:4d9m8kvp76k32x74i38avsu27"}, "primary_color": null, "public": true, "snapshot_id": "AAACvLSUvxOfS6E++Q4/s5nPUhg+Bexw", "tracks": {"href": "https://api.spotify.com/v1/playlists/66sLIznFGdk7jEs4mjZLtU/tracks", "total": 133}, "type": "playlist", "uri": "spotify:playlist:66sLIznFGdk7jEs4mjZLtU"}, {"collaborative": false, "description": "Mellow Vocal House, Deep House, Tech House perfect for day drinking, a day rave, or an afternoon by the pool. New music added all the time.", "external_urls": {"spotify": "https://open.spotify.com/playlist/6dw626LmEuT0fAm0Zzv01N"}, "href": "https://api.spotify.com/v1/playlists/6dw626LmEuT0fAm0Zzv01N", "id": "6dw626LmEuT0fAm0Zzv01N", "images": [{"height": null, "url": "https://image-cdn-ak.spotifycdn.com/image/ab67706c0000d72cb928a137d1217f687e1d34af", "width": null}], "name": "Ibiza Poolside House Music", "owner": {"display_name": "Melvin Death", "external_urls": {"spotify": "https://open.spotify.com/user/dogtown_raider"}, "href": "https://api.spotify.com/v1/users/dogtown_raider", "id": "dogtown_raider", "type": "user", "uri": "spotify:user:dogtown_raider"}, "primary_color": null, "public": true, "snapshot_id": "AAADjGUuCoQwgfX4nsS1aMmh++dFNUM9", "tracks": {"href": "https://api.spotify.com/v1/playlists/6dw626LmEuT0fAm0Zzv01N/tracks", "total": 635}, "type": "playlist", "uri": "spotify:playlist:6dw626LmEuT0fAm0Zzv01N"}, null, {"collaborative": false, "description": "This is a Chill Step &#x2F; Chill Out - Chill Wave -  Lounge Playlist - Space Sunshine Mix -Spotify Ibiza - Berlin -Vienna - Paris -Madrid - Dubai- Malorca Good Vibes !!!", "external_urls": {"spotify": "https://open.spotify.com/playlist/5GejQr8rBuhXwIIXY04ZyI"}, "href": "https://api.spotify.com/v1/playlists/5GejQr8rBuhXwIIXY04ZyI", "id": "5GejQr8rBuhXwIIXY04ZyI", "images": [{"height": null, "url": "https://image-cdn-ak.spotifycdn.com/image/ab67706c0000da84b903de1e07ef2d6d5ca43999", "width": null}], "name": "CHILL STEP / WAVE - CHILL OUT AND SOFT LOUNGE AMBIENT SLOW DUP STEP RADIO VERSION", "owner": {"display_name": "MAGIC EYE", "external_urls": {"spotify": "https://open.spotify.com/user/11101463605"}, "href": "https://api.spotify.com/v1/users/11101463605", "id": "11101463605", "type": "user", "uri": "spotify:user:11101463605"}, "primary_color": null, "public": true, "snapshot_id": "AAABPGBgnaBLD9tKAIiZ+KzM/SAq4VPu", "tracks": {"href": "https://api.spotify.com/v1/playlists/5GejQr8rBuhXwIIXY04ZyI/tracks", "total": 2529}, "type": "playlist", "uri": "spotify:playlist:5GejQr8rBuhXwIIXY04ZyI"}]}}