{"playlists": {"href": "https://api.spotify.com/v1/search?offset=0&limit=5&query=bright%20sunny&type=playlist", "limit": 5, "next": "https://api.spotify.com/v1/search?offset=5&limit=5&query=bright%20sunny&type=playlist", "offset": 0, "previous": null, "total": 902, "items": [null, null, {"collaborative": false, "description": "", "external_urls": {"spotify": "https://open.spotify.com/playlist/1DqVDPeX11xbP4LHZwzvlo"}, "href": "https://api.spotify.com/v1/playlists/1DqVDPeX11xbP4LHZwzvlo", "id": "1DqVDPeX11xbP4LHZwzvlo", "images": [{"height": null, "url": "https://image-cdn-ak.spotifycdn.com/image/ab67706c0000da84eb0ebe4ab89789e5327c1c53", "width": null}], "name": "BRIGHT SUNSHINY DAY", "owner": {"display_name": "Francesco Papaleo", "external_urls": {"spotify": "https://open.spotify.com/user/1169505513"}, "href": "https://api.spotify.com/v1/users/1169505513", "id": "1169505513", "type": "user", "uri": "spotify:user:1169505513"}, "primary_color": null, "public": true, "snapshot_id": "AAAAcnlrjuSwUnN4Cg2sMpFWHERN1nzc", "tracks": {"href": "https://api.spotify.com/v1/playlists/1DqVDPeX11xbP4LHZwzvlo/tracks", "total": 70}, "type": "playlist", "uri": "spotify:playlist:1DqVDPeX11xbP4LHZwzvlo"}, {"collaborative": false, "description": "Breeze through your day with jazz that lifts your mood \u2014 sunny swing, smooth sax, and joyful rhythm.Feel Good, Jazz, Uplifting, Swing, Vibes, Easygoing, Sax, Grooves, Happy, Lounge, Bright, Instrumentals, Chill, Lighthearted, Joyful, Caf\u00e9 Jazz, Mellow, Background, Smooth, Cool Jazz, Soft Beats, Jazz", "external_urls": {"spotify": "https://open.spotify.com/playlist/3ELDA4q5HYv9eR8ot4JQBC"}, "href": "https://api.spotify.com/v1/playlists/3ELDA4q5HYv9eR8ot4JQBC", "id": "3ELDA4q5HYv9eR8ot4JQBC", "images": [{"height": null, "url": "https://image-cdn-ak.spotifycdn.com/image/ab67706c0000d72c46e220494b42ba9213e30c3f", "width": null}], "name": "\ud83c\udfb7 Feel Good Jazz \u2600\ufe0f Uplifting Swing Vibes \ud83c\udf79 Easygoing Sax Grooves \ud83c\udfb6 Happy Lounge \ud83e\udd41 Bright Instrumenta", "owner": {"display_name": "Jazzy Vibes", "external_urls": {"spotify": "https://open.spotify.com/user/31v5hpulmwxcsbvjsnnnppqzdtpu"}, "href": "https://api.spotify.com/v1/users/31v5hpulmwxcsbvjsnnnppqzdtpu", "id": "31v5hpulmwxcsbvjsnnnppqzdtpu", "type": "user", "uri": "spotify:user:31v5hpulmwxcsbvjsnnnppqzdtpu"}, "primary_color": null, "public": true, "snapshot_id": "AAAADAvRVP95DqB7B1vCAtgRQnixcbfi", "tracks": {"href": "https://api.spotify.com/v1/playlists/3ELDA4q5HYv9eR8ot4JQBC/tracks", "total": 100}, "type": "playlist", "uri": "spotify:playlist:3ELDA4q5HYv9eR8ot4JQBC"}, {"collaborative": false, "description": "for those long drives with no destination in sight ", "external_urls": {"spotify": "https://open.spotify.com/playlist/5DJ1rP5evelj6wYSxqnjzX"}, "href": "https://api.spotify.com/v1/playlists/5DJ1rP5evelj6wYSxqnjzX", "id": "5DJ1rP5evelj6wYSxqnjzX", "images": [{"height": null, "url": "https://image-cdn-ak.spotifycdn.com/image/ab67706c0000d72c01489ca2656b244323682f2c", "width": null}], "name": "driving on a sunny summer day", "owner": {"display_name": "olivia.", "external_urls": {"spotify": "https://open.spotify.com/user/olivia_hazza"}, "href": "https://api.spotify.com/v1/users/olivia_hazza", "id": "olivia_hazza", "type": "user", "uri": "spotify:user:olivia_hazza"}, "primary_color": null, "public": true, "snapshot_id": "AAAA0WFb5uYMOEOCToO+B9K2mMqRNI1N", "tracks": {"href": "https://api.spotify.com/v1/playlists/5DJ1rP5evelj6wYSxqnjzX/tracks", "total": 188}, "type": "playlist", "uri": "spotify:playlist:5DJ1rP5evelj6wYSxqnjzX"}]}}