{"playlists": {"href": "https://api.spotify.com/v1/search?offset=0&limit=5&query=white%20girl%20pop&type=playlist", "limit": 5, "next": "https://api.spotify.com/v1/search?offset=5&limit=5&query=white%20girl%20pop&type=playlist", "offset": 0, "previous": null, "total": 899, "items": [{"collaborative": false, "description": "2000s White Girl Songs. The best basic white girl music, <a href=\"https://open.spotify.com/playlist/1H6a4k190LTRRVuVOMZXe8?si=821812cbaf984275\">throwbacks</a> only. Songs that get white girls hyped and energized. White gurl music. Girly music for women. Best white girl pop songs from the 2000s. ", "external_urls": {"spotify": "https://open.spotify.com/playlist/6Uh4GiPtBIQnTzAWKz3u8n"}, "href": "https://api.spotify.com/v1/playlists/6Uh4GiPtBIQnTzAWKz3u8n", "id": "6Uh4GiPtBIQnTzAWKz3u8n", "images": [{"height": null, "url": "https://image-cdn-ak.spotifycdn.com/image/ab67706c0000da8425b227db9bce3cb95c299a29", "width": null}], "name": "2000s White Girl Pop Songs", "owner": {"display_name": "ispytunes", "external_urls": {"spotify": "https://open.spotify.com/user/cb8pyebbxihiv6jtq58t1du3b"}, "href": "https://api.spotify.com/v1/users/cb8pyebbxihiv6jtq58t1du3b", "id": "cb8pyebbxihiv6jtq58t1du3b", "type": "user", "uri": "spotify:user:cb8pyebbxihiv6jtq58t1du3b"}, "primary_color": null, "public": true, "snapshot_id": "AAABtxAHIRpfxXujEOSAJ7rvtRR6y9uf", "tracks": {"href": "https://api.spotify.com/v1/playlists/6Uh4GiPtBIQnTzAWKz3u8n/tracks", "total": 305}, "type": "playlist", "uri": "spotify:playlist:6Uh4GiPtBIQnTzAWKz3u8n"}, {"collaborative": false, "description": "white girl music?", "external_urls": {"spotify": "https://open.spotify.com/playlist/6j4w1woXd7xzGCNQoKrpY9"}, "href": "https://api.spotify.com/v1/playlists/6j4w1woXd7xzGCNQoKrpY9", "id": "6j4w1woXd7xzGCNQoKrpY9", "images": [{"height": 640, "url": "https://mosaic.scdn.co/640/ab67616d00001e02382514f0114ba8f4a16d5db4ab67616d00001e027b25c072237f29ee50025fdcab67616d00001e02d20c38f295039520d688a888ab67616d00001e02de09e02aa7febf30b7c02d82", "width": 640}, {"height": 300, "url": "https://mosaic.scdn.co/300/ab67616d00001e02382514f0114ba8f4a16d5db4ab67616d00001e027b25c072237f29ee50025fdcab67616d00001e02d20c38f295039520d688a888ab67616d00001e02de09e02aa7febf30b7c02d82", "width": 300}, {"height": 60, "url": "https://mosaic.scdn.co/60/ab67616d00001e02382514f0114ba8f4a16d5db4ab67616d00001e027b25c072237f29ee50025fdcab67616d00001e02d20c38f295039520d688a888ab67616d00001e02de09e02aa7febf30b7c02d82", "width": 60}], "name": "2000s Pop Hit Throwback ", "owner": {"display_name": "Jackhlee", "external_urls": {"spotify": "https://open.spotify.com/user/jackhlee"}, "href": "https://api.spotify.com/v1/users/jackhlee", "id": "jackhlee", "type": "user", "uri": "spotify:user:jackhlee"}, "primary_color": null, "public": true, "snapshot_id": "AAAH06+9HfF6mYAcgb7fJ7psCS/VVA7g", "tracks": {"href": "https://api.spotify.com/v1/playlists/6j4w1woXd7xzGCNQoKrpY9/tracks", "total": 422}, "type": "playlist", "uri": "spotify:playlist:6j4w1woXd7xzGCNQoKrpY9"}, {"collaborative": false, "description": "Livin", "external_urls": {"spotify": "https://open.spotify.com/playlist/2VdPwVMqEGb6dwQVRlC88L"}, "href": "https://api.spotify.com/v1/playlists/2VdPwVMqEGb6dwQVRlC88L", "id": "2VdPwVMqEGb6dwQVRlC88L", "images": [{"height": 640, "url": "https://mosaic.scdn.co/640/ab67616d00001e02142e5c0e611841b87c2dc533ab67616d00001e029de71450693537cf348151f0ab67616d00001e02d20c38f295039520d688a888ab67616d00001e02f2486b438645e97b523e4f90", "width": 640}, {"height": 300, "url": "https://mosaic.scdn.co/300/ab67616d00001e02142e5c0e611841b87c2dc533ab67616d00001e029de71450693537cf348151f0ab67616d00001e02d20c38f295039520d688a888ab67616d00001e02f2486b438645e97b523e4f90", "width": 300}, {"height": 60, "url": "https://mosaic.scdn.co/60/ab67616d00001e02142e5c0e611841b87c2dc533ab67616d00001e029de71450693537cf348151f0ab67616d00001e02d20c38f295039520d688a888ab67616d00001e02f2486b438645e97b523e4f90", "width": 60}], "name": "White girl bangers \ud83d\udc83\ud83d\udc85\ud83d\udd7a\ud83d\udca6\ud83e\udea9\ud83d\udc84", "owner": {"display_name": "Fake Lenny", "external_urls": {"spotify": "https://open.spotify.com/user/a82mb2vilkl9gdit0djha60qd"}, "href": "https://api.spotify.com/v1/users/a82mb2vilkl9gdit0djha60qd", "id": "a82mb2vilkl9gdit0djha60qd", "type": "user", "uri": "spotify:user:a82mb2vilkl9gdit0djha60qd"}, "primary_color": null, "public": true, "snapshot_id": "AAABn/xi8KZzRUUaWhaQpQ8w/VZDHJ2D", "tracks": {"href": "https://api.spotify.com/v1/playlists/2VdPwVMqEGb6dwQVRlC88L/tracks", "total": 127}, "type": "playlist", "uri": "spotify:playlist:2VdPwVMqEGb6dwQVRlC88L"}, {"collaborative": false, "description": "miss this", "external_urls": {"spotify": "https://open.spotify.com/playlist/1LItuWoWJm22qUGJgQdn5d"}, "href": "https://api.spotify.com/v1/playlists/1LItuWoWJm22qUGJgQdn5d", "id": "1LItuWoWJm22qUGJgQdn5d", "images": [{"height": 640, "url": "https://mosaic.scdn.co/640/ab67616d00001e0272c666e8feebbb65253e4fbaab67616d00001e028d2cfad007b9431f48aef135ab67616d00001e02941dd3b3343d9cb9329d37bfab67616d00001e02d9aa52355e062f5de060adbf", "width": 640}, {"height": 300, "url": "https://mosaic.scdn.co/300/ab67616d00001e0272c666e8feebbb65253e4fbaab67616d00001e028d2cfad007b9431f48aef135ab67616d00001e02941dd3b3343d9cb9329d37bfab67616d00001e02d9aa52355e062f5de060adbf", "width": 300}, {"height": 60, "url": "https://mosaic.scdn.co/60/ab67616d00001e0272c666e8feebbb65253e4fbaab67616d00001e028d2cfad007b9431f48aef135ab67616d00001e02941dd3b3343d9cb9329d37bfab67616d00001e02d9aa52355e062f5de060adbf", "width": 60}], "name": "2016 white girl summer pop", "owner": {"display_name": "malia", "external_urls": {"spotify": "https://open.spotify.com/user/j19386f3woo877hykwdw817pd"}, "href": "https://api.spotify.com/v1/users/j19386f3woo877hykwdw817pd", "id": "j19386f3woo877hykwdw817pd", "type": "user", "uri": "spotify:user:j19386f3woo877hykwdw817pd"}, "primary_color": null, "public": true, "snapshot_id": "AAAAgMBfHDItKfd5q9pLVMQMW/KFPlxb", "tracks": {"href": "https://api.spotify.com/v1/playlists/1LItuWoWJm22qUGJgQdn5d/tracks", "total": 88}, "type": "playlist", "uri": "spotify:playlist:1LItuWoWJm22qUGJgQdn5d"}, {"collaborative": false, "description": "", "external_urls": {"spotify": "https://open.spotify.com/playlist/60LCaGVRasT3oZ9slfyoDG"}, "href": "https://api.spotify.com/v1/playlists/60LCaGVRasT3oZ9slfyoDG", "id": "60LCaGVRasT3oZ9slfyoDG", "images": [{"height": null, "url": "https://image-cdn-ak.spotifycdn.com/image/ab67706c0000d72c753a9827ae1d3dff23aaa5c5", "width": null}], "name": "White girl bangers\ud83e\udd2d", "owner": {"display_name": "brianne.409", "external_urls": {"spotify": "https://open.spotify.com/user/brianne409"}, "href": "https://api.spotify.com/v1/users/brianne409", "id": "brianne409", "type": "user", "uri": "spotify:user:brianne409"}, "primary_color": null, "public": true, "snapshot_id": "AAACXAFOeLqXjZTi67jVcvMhq5Zrv+MH", "tracks": {"href": "https://api.spotify.com/v1/playlists/60LCaGVRasT3oZ9slfyoDG/tracks", "total": 279}, "type": "playlist", "uri": "spotify:playlist:60LCaGVRasT3oZ9slfyoDG"}]}}