{"playlists": {"href": "https://api.spotify.com/v1/search?offset=0&limit=5&query=germanic%20tribes&type=playlist", "limit": 5, "next": "https://api.spotify.com/v1/search?offset=5&limit=5&query=germanic%20tribes&type=playlist", "offset": 0, "previous": null, "total": 802, "items": [{"collaborative": false, "description": "A vast collection of ancestral volk music based around the great and glorious Germanic tribes", "external_urls": {"spotify": "https://open.spotify.com/playlist/1dPuZ1a09cRDuNyLLG0uaU"}, "href": "https://api.spotify.com/v1/playlists/1dPuZ1a09cRDuNyLLG0uaU", "id": "1dPuZ1a09cRDuNyLLG0uaU", "images": [{"height": 640, "url": "https://mosaic.scdn.co/640/ab67616d00001e02324b433a86c399018f2d3f6fab67616d00001e02a83250638aa61de4fd8e4091ab67616d00001e02dde341895dd6a68fe81478e7ab67616d00001e02e622b57afcf855846f1c4d26", "width": 640}, {"height": 300, "url": "https://mosaic.scdn.co/300/ab67616d00001e02324b433a86c399018f2d3f6fab67616d00001e02a83250638aa61de4fd8e4091ab67616d00001e02dde341895dd6a68fe81478e7ab67616d00001e02e622b57afcf855846f1c4d26", "width": 300}, {"height": 60, "url": "https://mosaic.scdn.co/60/ab67616d00001e02324b433a86c399018f2d3f6fab67616d00001e02a83250638aa61de4fd8e4091ab67616d00001e02dde341895dd6a68fe81478e7ab67616d00001e02e622b57afcf855846f1c4d26", "width": 60}], "name": "Anglo-Saxon/Germanic Tribal", "owner": {"display_name": "Q", "external_urls": {"spotify": "https://open.spotify.com/user/31owtuc3hpslsrf35l6yjxghokqq"}, "href": "https://api.spotify.com/v1/users/31owtuc3hpslsrf35l6yjxghokqq", "id": "31owtuc3hpslsrf35l6yjxghokqq", "type": "user", "uri": "spotify:user:31owtuc3hpslsrf35l6yjxghokqq"}, "primary_color": null, "public": true, "snapshot_id": "AAAAG4i/+U4gfH6OYsBIbUHUaP5QXmQm", "tracks": {"href": "https://api.spotify.com/v1/playlists/1dPuZ1a09cRDuNyLLG0uaU/tracks", "total": 41}, "type": "playlist", "uri": "spotify:playlist:1dPuZ1a09cRDuNyLLG0uaU"}, {"collaborative": false, "description": "", "external_urls": {"spotify": "https://open.spotify.com/playlist/7Fm9KsalWNk4rjyiRcGlU2"}, "href": "https://api.spotify.com/v1/playlists/7Fm9KsalWNk4rjyiRcGlU2", "id": "7Fm9KsalWNk4rjyiRcGlU2", "images": [{"height": 640, "url": "https://mosaic.scdn.co/640/ab67616d00001e022d77113f9295cc214a18a007ab67616d00001e02562abb9f2828763543cc6477ab67616d00001e02770f54082afa607576a39455ab67616d00001e02c5b6e1fbdf75cf1383302aa6", "width": 640}, {"height": 300, "url": "https://mosaic.scdn.co/300/ab67616d00001e022d77113f9295cc214a18a007ab67616d00001e02562abb9f2828763543cc6477ab67616d00001e02770f54082afa607576a39455ab67616d00001e02c5b6e1fbdf75cf1383302aa6", "width": 300}, {"height": 60, "url": "https://mosaic.scdn.co/60/ab67616d00001e022d77113f9295cc214a18a007ab67616d00001e02562abb9f2828763543cc6477ab67616d00001e02770f54082afa607576a39455ab67616d00001e02c5b6e1fbdf75cf1383302aa6", "width": 60}], "name": "Germanic Tribal Music", "owner": {"display_name": "Mud&Gravel", "external_urls": {"spotify": "https://open.spotify.com/user/m1s5i0bzbo8srm6y4xc7u8r29"}, "href": "https://api.spotify.com/v1/users/m1s5i0bzbo8srm6y4xc7u8r29", "id": "m1s5i0bzbo8srm6y4xc7u8r29", "type": "user", "uri": "spotify:user:m1s5i0bzbo8srm6y4xc7u8r29"}, "primary_color": null, "public": true, "snapshot_id": "AAAAJai062yGTr+CAzEkrMl7jBCnQ225", "tracks": {"href": "https://api.spotify.com/v1/playlists/7Fm9KsalWNk4rjyiRcGlU2/tracks", "total": 33}, "type": "playlist", "uri": "spotify:playlist:7Fm9KsalWNk4rjyiRcGlU2"}, {"collaborative": false, "description": "Songs from the 1st 2nd and 3rd Reich , Teutonic Order,  Hospitaller,  Holy Roman Empire and Germanic tribes", "external_urls": {"spotify": "https://open.spotify.com/playlist/27gP24VL9QNcOvW1iOTS4e"}, "href": "https://api.spotify.com/v1/playlists/27gP24VL9QNcOvW1iOTS4e", "id": "27gP24VL9QNcOvW1iOTS4e", "images": [{"height": 640, "url": "https://mosaic.scdn.co/640/ab67616d00001e0203f82ac3e47d01abbd0f1f2bab67616d00001e028d0273151b2fda8219f239a1ab67616d00001e02d53dd44a088705e4c5f3859fab67616d00001e02e2be002be10458d93b3143f8", "width": 640}, {"height": 300, "url": "https://mosaic.scdn.co/300/ab67616d00001e0203f82ac3e47d01abbd0f1f2bab67616d00001e028d0273151b2fda8219f239a1ab67616d00001e02d53dd44a088705e4c5f3859fab67616d00001e02e2be002be10458d93b3143f8", "width": 300}, {"height": 60, "url": "https://mosaic.scdn.co/60/ab67616d00001e0203f82ac3e47d01abbd0f1f2bab67616d00001e028d0273151b2fda8219f239a1ab67616d00001e02d53dd44a088705e4c5f3859fab67616d00001e02e2be002be10458d93b3143f8", "width": 60}], "name": "Old German songs", "owner": {"display_name": "\u2626\ufe0f Viking \u271d\ufe0f", "external_urls": {"spotify": "https://open.spotify.com/user/316py65zua4rug46ihjvo6zaf5ea"}, "href": "https://api.spotify.com/v1/users/316py65zua4rug46ihjvo6zaf5ea", "id": "316py65zua4rug46ihjvo6zaf5ea", "type": "user", "uri": "spotify:user:316py65zua4rug46ihjvo6zaf5ea"}, "primary_color": null, "public": true, "snapshot_id": "AAAAsbJdi/1GXDPzLAw9onBlfwqqCXlk", "tracks": {"href": "https://api.spotify.com/v1/playlists/27gP24VL9QNcOvW1iOTS4e/tracks", "total": 162}, "type": "playlist", "uri": "spotify:playlist:27gP24VL9QNcOvW1iOTS4e"}, {"collaborative": false, "description": "Nordic Ambient &amp; Atmosphere: A mix of Vocals, Folk Instrumentals, Tribal Ensemble and peaceful flute.", "external_urls": {"spotify": "https://open.spotify.com/playlist/7h72L5AAreohKUqhPJVL0F"}, "href": "https://api.spotify.com/v1/playlists/7h72L5AAreohKUqhPJVL0F", "id": "7h72L5AAreohKUqhPJVL0F", "images": [{"height": null, "url": "https://image-cdn-fa.spotifycdn.com/image/ab67706c0000d72c513f2c0c3de877342cdf6fda", "width": null}], "name": "Nordic Ambiance", "owner": {"display_name": "Slumbering Records", "external_urls": {"spotify": "https://open.spotify.com/user/lunngfern"}, "href": "https://api.spotify.com/v1/users/lunngfern", "id": "lunngfern", "type": "user", "uri": "spotify:user:lunngfern"}, "primary_color": null, "public": true, "snapshot_id": "AAACWD7H6MSe3wnAZmZ/fou5WUI9GTQD", "tracks": {"href": "https://api.spotify.com/v1/playlists/7h72L5AAreohKUqhPJVL0F/tracks", "total": 803}, "type": "playlist", "uri": "spotify:playlist:7h72L5AAreohKUqhPJVL0F"}, {"collaborative": false, "description": "Spotify support being unhelpful with takedown notification, I built a bot to restore my metadata. Fighting &quot;fake reporting&quot; bots with my own bot... The symbol on the picture represents a &quot;Vegv\u00edsir&quot; (runic compass). If this sign is carried, one will never lose ones way in storms or bad weather.", "external_urls": {"spotify": "https://open.spotify.com/playlist/4r2twUYtviwpCpFnrfkkgM"}, "href": "https://api.spotify.com/v1/playlists/4r2twUYtviwpCpFnrfkkgM", "id": "4r2twUYtviwpCpFnrfkkgM", "images": [{"height": null, "url": "https://image-cdn-ak.spotifycdn.com/image/ab67706c0000da84a8f9928c1af4f45f05a392dd", "width": null}], "name": "Nordic & Viking Music", "owner": {"display_name": "RobNO", "external_urls": {"spotify": "https://open.spotify.com/user/robno97"}, "href": "https://api.spotify.com/v1/users/robno97", "id": "robno97", "type": "user", "uri": "spotify:user:robno97"}, "primary_color": null, "public": true, "snapshot_id": "AABFotESITvrzzjhU+U9XuqLEh5IRsPI", "tracks": {"href": "https://api.spotify.com/v1/playlists/4r2twUYtviwpCpFnrfkkgM/tracks", "total": 104}, "type": "playlist", "uri": "spotify:playlist:4r2twUYtviwpCpFnrfkkgM"}]}}