{"playlists": {"href": "https://api.spotify.com/v1/search?offset=0&limit=5&query=frat%20dj&type=playlist", "limit": 5, "next": "https://api.spotify.com/v1/search?offset=5&limit=5&query=frat%20dj&type=playlist", "offset": 0, "previous": null, "total": 902, "items": [{"collaborative": false, "description": "", "external_urls": {"spotify": "https://open.spotify.com/playlist/3vZED8AXjKgg0XXWDb4pI6"}, "href": "https://api.spotify.com/v1/playlists/3vZED8AXjKgg0XXWDb4pI6", "id": "3vZED8AXjKgg0XXWDb4pI6", "images": [{"height": null, "url": "https://image-cdn-ak.spotifycdn.com/image/ab67706c0000da8458d22e714783c2d0bf9b3354", "width": null}], "name": "if i was frat dj", "owner": {"display_name": "maggie george", "external_urls": {"spotify": "https://open.spotify.com/user/phsfeeup8kafrtwuid9qye2q4"}, "href": "https://api.spotify.com/v1/users/phsfeeup8kafrtwuid9qye2q4", "id": "phsfeeup8kafrtwuid9qye2q4", "type": "user", "uri": "spotify:user:phsfeeup8kafrtwuid9qye2q4"}, "primary_color": null, "public": true, "snapshot_id": "AAAAqZY8B7gg7wF6A8hpEARhWVUBnErH", "tracks": {"href": "https://api.spotify.com/v1/playlists/3vZED8AXjKgg0XXWDb4pI6/tracks", "total": 151}, "type": "playlist", "uri": "spotify:playlist:3vZED8AXjKgg0XXWDb4pI6"}, null, {"collaborative": false, "description": "", "external_urls": {"spotify": "https://open.spotify.com/playlist/1cEzLWIiuJBiwcKV9fx7RC"}, "href": "https://api.spotify.com/v1/playlists/1cEzLWIiuJBiwcKV9fx7RC", "id": "1cEzLWIiuJBiwcKV9fx7RC", "images": [{"height": null, "url": "https://image-cdn-ak.spotifycdn.com/image/ab67706c0000da84651ce93ceae8d8c8ad7a9bb8", "width": null}], "name": "Frat House EDM", "owner": {"display_name": "Christopher Haak", "external_urls": {"spotify": "https://open.spotify.com/user/22i5axrxwwbogdm54y4vq7vdq"}, "href": "https://api.spotify.com/v1/users/22i5axrxwwbogdm54y4vq7vdq", "id": "22i5axrxwwbogdm54y4vq7vdq", "type": "user", "uri": "spotify:user:22i5axrxwwbogdm54y4vq7vdq"}, "primary_color": null, "public": true, "snapshot_id": "AAABYB0yDaiZ9pevFjl33m9l0cG21iuy", "tracks": {"href": "https://api.spotify.com/v1/playlists/1cEzLWIiuJBiwcKV9fx7RC/tracks", "total": 300}, "type": "playlist", "uri": "spotify:playlist:1cEzLWIiuJBiwcKV9fx7RC"}, {"collaborative": false, "description": "", "external_urls": {"spotify": "https://open.spotify.com/playlist/3EsnNq8Bn1b3q2TjonLpyB"}, "href": "https://api.spotify.com/v1/playlists/3EsnNq8Bn1b3q2TjonLpyB", "id": "3EsnNq8Bn1b3q2TjonLpyB", "images": [{"height": null, "url": "https://image-cdn-ak.spotifycdn.com/image/ab67706c0000da8483dd6f72dcba6d73e9b601bf", "width": null}], "name": "best frat party bangers", "owner": {"display_name": "moonageparadise", "external_urls": {"spotify": "https://open.spotify.com/user/the_red_queen13"}, "href": "https://api.spotify.com/v1/users/the_red_queen13", "id": "the_red_queen13", "type": "user", "uri": "spotify:user:the_red_queen13"}, "primary_color": null, "public": true, "snapshot_id": "AAAA4jtgQol7htCrS1iujPb7K4X1pImy", "tracks": {"href": "https://api.spotify.com/v1/playlists/3EsnNq8Bn1b3q2TjonLpyB/tracks", "total": 224}, "type": "playlist", "uri": "spotify:playlist:3EsnNq8Bn1b3q2TjonLpyB"}, {"collaborative": false, "description": "4loko and disco", "external_urls": {"spotify": "https://open.spotify.com/playlist/5Vvix6IfYJBxetWZ3TMHW6"}, "href": "https://api.spotify.com/v1/playlists/5Vvix6IfYJBxetWZ3TMHW6", "id": "5Vvix6IfYJBxetWZ3TMHW6", "images": [{"height": null, "url": "https://image-cdn-ak.spotifycdn.com/image/ab67706c0000da84bb1cd9d4aeba4d296ce8df16", "width": null}], "name": "frat house/mixes", "owner": {"display_name": "dannyoloughlin", "external_urls": {"spotify": "https://open.spotify.com/user/doloughlin14"}, "href": "https://api.spotify.com/v1/users/doloughlin14", "id": "doloughlin14", "type": "user", "uri": "spotify:user:doloughlin14"}, "primary_color": null, "public": true, "snapshot_id": "AAABQH+xlZJYBZz1cmzBQDgZ4nBAVW8o", "tracks": {"href": "https://api.spotify.com/v1/playlists/5Vvix6IfYJBxetWZ3TMHW6/tracks", "total": 249}, "type": "playlist", "uri": "spotify:playlist:5Vvix6IfYJBxetWZ3TMHW6"}]}}