{"playlists": {"href": "https://api.spotify.com/v1/search?offset=0&limit=5&query=psychedelic%20rock%20trip&type=playlist", "limit": 5, "next": "https://api.spotify.com/v1/search?offset=5&limit=5&query=psychedelic%20rock%20trip&type=playlist", "offset": 0, "previous": null, "total": 901, "items": [null, {"collaborative": false, "description": "Neo-Psychedelia, Psychedelic Pop, Psychedelic Rock, Synth and Shoegaze, with undertones of Funk and Jazz. Contact: PsychSoundsOfficial@gmail.com", "external_urls": {"spotify": "https://open.spotify.com/playlist/7hKB7ggXpymJTbT5eshTIi"}, "href": "https://api.spotify.com/v1/playlists/7hKB7ggXpymJTbT5eshTIi", "id": "7hKB7ggXpymJTbT5eshTIi", "images": [{"height": null, "url": "https://image-cdn-ak.spotifycdn.com/image/ab67706c0000da84ba3521b3c927555c3b737992", "width": null}], "name": "Trippy / Psychedelic Playlist (Good Vibes)", "owner": {"display_name": "Danny Kirk", "external_urls": {"spotify": "https://open.spotify.com/user/11172901996"}, "href": "https://api.spotify.com/v1/users/11172901996", "id": "11172901996", "type": "user", "uri": "spotify:user:11172901996"}, "primary_color": null, "public": true, "snapshot_id": "AAAP7DTg3eJS6Pgsm0r4SRJ9Gx4OL8Ae", "tracks": {"href": "https://api.spotify.com/v1/playlists/7hKB7ggXpymJTbT5eshTIi/tracks", "total": 107}, "type": "playlist", "uri": "spotify:playlist:7hKB7ggXpymJTbT5eshTIi"}, null, {"collaborative": false, "description": "Just some bluesy, psychedelic and fuzzy stuff... Let&#x27;s get stoned, let&#x27;s road trippin&#x27; \ud83c\udf35\ud83d\udc80\ud83c\udf19", "external_urls": {"spotify": "https://open.spotify.com/playlist/1WdPrfbMqIINxuEONc1iqZ"}, "href": "https://api.spotify.com/v1/playlists/1WdPrfbMqIINxuEONc1iqZ", "id": "1WdPrfbMqIINxuEONc1iqZ", "images": [{"height": null, "url": "https://image-cdn-fa.spotifycdn.com/image/ab67706c0000d72caed53a398d604c436a786d35", "width": null}], "name": "Desert Rock", "owner": {"display_name": "Jeggi Recordz", "external_urls": {"spotify": "https://open.spotify.com/user/7tt6lhvcea66g44jt5utet32g"}, "href": "https://api.spotify.com/v1/users/7tt6lhvcea66g44jt5utet32g", "id": "7tt6lhvcea66g44jt5utet32g", "type": "user", "uri": "spotify:user:7tt6lhvcea66g44jt5utet32g"}, "primary_color": null, "public": true, "snapshot_id": "AAACtKkP1A6jRfEbA7cSGG0gz0Q5rwe8", "tracks": {"href": "https://api.spotify.com/v1/playlists/1WdPrfbMqIINxuEONc1iqZ/tracks", "total": 143}, "type": "playlist", "uri": "spotify:playlist:1WdPrfbMqIINxuEONc1iqZ"}, null]}}