{"playlists": {"href": "https://api.spotify.com/v1/search?offset=0&limit=5&query=trashy%20rap&type=playlist", "limit": 5, "next": "https://api.spotify.com/v1/search?offset=5&limit=5&query=trashy%20rap&type=playlist", "offset": 0, "previous": null, "total": 904, "items": [{"collaborative": false, "description": "", "external_urls": {"spotify": "https://open.spotify.com/playlist/3mlXvviMpoZrFxq4TvwgQu"}, "href": "https://api.spotify.com/v1/playlists/3mlXvviMpoZrFxq4TvwgQu", "id": "3mlXvviMpoZrFxq4TvwgQu", "images": [{"height": null, "url": "https://image-cdn-fa.spotifycdn.com/image/ab67706c0000da847dda89145ae3a433ce5d0b1a", "width": null}], "name": "trashy rap\ud83d\ude0b", "owner": {"display_name": "aubrey layne", "external_urls": {"spotify": "https://open.spotify.com/user/pj7uf6ud4s2cv7zk0hqfjh86l"}, "href": "https://api.spotify.com/v1/users/pj7uf6ud4s2cv7zk0hqfjh86l", "id": "pj7uf6ud4s2cv7zk0hqfjh86l", "type": "user", "uri": "spotify:user:pj7uf6ud4s2cv7zk0hqfjh86l"}, "primary_color": null, "public": true, "snapshot_id": "AAAAPKIGu5LF/QHMY2FTMRo4zLlWuYzr", "tracks": {"href": "https://api.spotify.com/v1/playlists/3mlXvviMpoZrFxq4TvwgQu/tracks", "total": 57}, "type": "playlist", "uri": "spotify:playlist:3mlXvviMpoZrFxq4TvwgQu"}, {"collaborative": false, "description": "&quot;clean girl aesthetic&quot; ...", "external_urls": {"spotify": "https://open.spotify.com/playlist/2o7FWqYSDXdwrA9MfaLjoB"}, "href": "https://api.spotify.com/v1/playlists/2o7FWqYSDXdwrA9MfaLjoB", "id": "2o7FWqYSDXdwrA9MfaLjoB", "images": [{"height": null, "url": "https://image-cdn-ak.spotifycdn.com/image/ab67706c0000da84be2f418b8e636601f9e3dfc7", "width": null}], "name": "trashy wh!te girl rap", "owner": {"display_name": "Lucy Boettcher", "external_urls": {"spotify": "https://open.spotify.com/user/ferritferritferrit"}, "href": "https://api.spotify.com/v1/users/ferritferritferrit", "id": "ferritferritferrit", "type": "user", "uri": "spotify:user:ferritferritferrit"}, "primary_color": null, "public": true, "snapshot_id": "AAABUiQqeYfYxiAXmfC+Mb4yjvN8BDpu", "tracks": {"href": "https://api.spotify.com/v1/playlists/2o7FWqYSDXdwrA9MfaLjoB/tracks", "total": 286}, "type": "playlist", "uri": "spotify:playlist:2o7FWqYSDXdwrA9MfaLjoB"}, null, {"collaborative": false, "description": "", "external_urls": {"spotify": "https://open.spotify.com/playlist/1Va32ooh6IpEm1P0OvZOni"}, "href": "https://api.spotify.com/v1/playlists/1Va32ooh6IpEm1P0OvZOni", "id": "1Va32ooh6IpEm1P0OvZOni", "images": [{"height": null, "url": "https://image-cdn-ak.spotifycdn.com/image/ab67706c0000da84014e4ad33d0a7d5099d84807", "width": null}], "name": "trashy rap \u200e ", "owner": {"display_name": "Le Li", "external_urls": {"spotify": "https://open.spotify.com/user/jqhy5kzsmbv13k71cudma8s0a"}, "href": "https://api.spotify.com/v1/users/jqhy5kzsmbv13k71cudma8s0a", "id": "jqhy5kzsmbv13k71cudma8s0a", "type": "user", "uri": "spotify:user:jqhy5kzsmbv13k71cudma8s0a"}, "primary_color": null, "public": true, "snapshot_id": "AAABQDK2EsJrUR7DRID6+Q8fmPnMzze7", "tracks": {"href": "https://api.spotify.com/v1/playlists/1Va32ooh6IpEm1P0OvZOni/tracks", "total": 69}, "type": "playlist", "uri": "spotify:playlist:1Va32ooh6IpEm1P0OvZOni"}, {"collaborative": false, "description": "", "external_urls": {"spotify": "https://open.spotify.com/playlist/5iBlPTLyECAAPSL7Ga9sSz"}, "href": "https://api.spotify.com/v1/playlists/5iBlPTLyECAAPSL7Ga9sSz", "id": "5iBlPTLyECAAPSL7Ga9sSz", "images": [{"height": null, "url": "https://image-cdn-ak.spotifycdn.com/image/ab67706c0000da84090b959ff67d149dec0e3676", "width": null}], "name": "trashy y2k glitter kesha core ", "owner": {"display_name": "dxwn.io", "external_urls": {"spotify": "https://open.spotify.com/user/sanslover101"}, "href": "https://api.spotify.com/v1/users/sanslover101", "id": "sanslover101", "type": "user", "uri": "spotify:user:sanslover101"}, "primary_color": null, "public": true, "snapshot_id": "AAAAbEmP2ajzx+fekogZ+vK4MFuU5zSk", "tracks": {"href": "https://api.spotify.com/v1/playlists/5iBlPTLyECAAPSL7Ga9sSz/tracks", "total": 98}, "type": "playlist", "uri": "spotify:playlist:5iBlPTLyECAAPSL7Ga9sSz"}]}}