{"playlists": {"href": "https://api.spotify.com/v1/search?offset=0&limit=5&query=ethereal%20church&type=playlist", "limit": 5, "next": "https://api.spotify.com/v1/search?offset=5&limit=5&query=ethereal%20church&type=playlist", "offset": 0, "previous": null, "total": 806, "items": [null, {"collaborative": false, "description": "Gorgeous songs to play on the way to church but these aren&#x27;t songs to be sung in church as worship hymns.", "external_urls": {"spotify": "https://open.spotify.com/playlist/3spWsKOAKl6TkcLCrFsDoH"}, "href": "https://api.spotify.com/v1/playlists/3spWsKOAKl6TkcLCrFsDoH", "id": "3spWsKOAKl6TkcLCrFsDoH", "images": [{"height": null, "url": "https://image-cdn-ak.spotifycdn.com/image/ab67706c0000da846b1d278ed2394650c186f014", "width": null}], "name": "Ethereal Worship that Harkens the Second Coming", "owner": {"display_name": "slow_swimmer", "external_urls": {"spotify": "https://open.spotify.com/user/big-mac-attack"}, "href": "https://api.spotify.com/v1/users/big-mac-attack", "id": "big-mac-attack", "type": "user", "uri": "spotify:user:big-mac-attack"}, "primary_color": null, "public": true, "snapshot_id": "AAAAKiYKSqQZq3enfVk1qrsxrQUKNUDc", "tracks": {"href": "https://api.spotify.com/v1/playlists/3spWsKOAKl6TkcLCrFsDoH/tracks", "total": 33}, "type": "playlist", "uri": "spotify:playlist:3spWsKOAKl6TkcLCrFsDoH"}, null, {"collaborative": false, "description": "ukrainian (and other) church choir to heal the soul ", "external_urls": {"spotify": "https://open.spotify.com/playlist/6z8oadfJ4wbLWD8w0TgpLE"}, "href": "https://api.spotify.com/v1/playlists/6z8oadfJ4wbLWD8w0TgpLE", "id": "6z8oadfJ4wbLWD8w0TgpLE", "images": [{"height": 640, "url": "https://mosaic.scdn.co/640/ab67616d00001e022d25c2efcb1694e1409c2261ab67616d00001e0256868e8055a7a769fc870933ab67616d00001e02786ba65070429fbb60616ef5ab67616d00001e02fe2fff19d1a37836450da4d6", "width": 640}, {"height": 300, "url": "https://mosaic.scdn.co/300/ab67616d00001e022d25c2efcb1694e1409c2261ab67616d00001e0256868e8055a7a769fc870933ab67616d00001e02786ba65070429fbb60616ef5ab67616d00001e02fe2fff19d1a37836450da4d6", "width": 300}, {"height": 60, "url": "https://mosaic.scdn.co/60/ab67616d00001e022d25c2efcb1694e1409c2261ab67616d00001e0256868e8055a7a769fc870933ab67616d00001e02786ba65070429fbb60616ef5ab67616d00001e02fe2fff19d1a37836450da4d6", "width": 60}], "name": "ethereal choir", "owner": {"display_name": "Tunafish", "external_urls": {"spotify": "https://open.spotify.com/user/31yj5qph3ixmumo2h4mkklge42jy"}, "href": "https://api.spotify.com/v1/users/31yj5qph3ixmumo2h4mkklge42jy", "id": "31yj5qph3ixmumo2h4mkklge42jy", "type": "user", "uri": "spotify:user:31yj5qph3ixmumo2h4mkklge42jy"}, "primary_color": null, "public": true, "snapshot_id": "AAAAky0Jd732DVYTpvdCpT/jnOSlc4aO", "tracks": {"href": "https://api.spotify.com/v1/playlists/6z8oadfJ4wbLWD8w0TgpLE/tracks", "total": 65}, "type": "playlist", "uri": "spotify:playlist:6z8oadfJ4wbLWD8w0TgpLE"}]}}