{"playlists": {"href": "https://api.spotify.com/v1/search?offset=0&limit=5&query=sunset%20drive&type=playlist", "limit": 5, "next": "https://api.spotify.com/v1/search?offset=5&limit=5&query=sunset%20drive&type=playlist", "offset": 0, "previous": null, "total": 900, "items": [{"collaborative": false, "description": "When you just want to vibe.", "external_urls": {"spotify": "https://open.spotify.com/playlist/6jOzpK4hCH1kVFhHuBXCG1"}, "href": "https://api.spotify.com/v1/playlists/6jOzpK4hCH1kVFhHuBXCG1", "id": "6jOzpK4hCH1kVFhHuBXCG1", "images": [{"height": null, "url": "https://image-cdn-ak.spotifycdn.com/image/ab67706c0000da8441fbe03dfd35655ee4f87be2", "width": null}], "name": "for those sunset drives \ud83e\udd18\ud83c\udf05", "owner": {"display_name": "B R Y C E", "external_urls": {"spotify": "https://open.spotify.com/user/stiffarmking17"}, "href": "https://api.spotify.com/v1/users/stiffarmking17", "id": "stiffarmking17", "type": "user", "uri": "spotify:user:stiffarmking17"}, "primary_color": null, "public": true, "snapshot_id": "AAAGy554Z1GqaW/rEiysmSLw8sKKh+Rd", "tracks": {"href": "https://api.spotify.com/v1/playlists/6jOzpK4hCH1kVFhHuBXCG1/tracks", "total": 1182}, "type": "playlist", "uri": "spotify:playlist:6jOzpK4hCH1kVFhHuBXCG1"}, {"collaborative": false, "description": "Take a leisurely drive as the sun sets with this eclectic blend of Country, Pop, Rock, Hip-Hop, and Reggae. From feel-good anthems to chill reggae grooves, this playlist is perfect for winding down or embarking on a road trip with the perfect soundtrack.", "external_urls": {"spotify": "https://open.spotify.com/playlist/6iJ2mTfQdHAT6AWT0csnk7"}, "href": "https://api.spotify.com/v1/playlists/6iJ2mTfQdHAT6AWT0csnk7", "id": "6iJ2mTfQdHAT6AWT0csnk7", "images": [{"height": null, "url": "https://image-cdn-ak.spotifycdn.com/image/ab67706c0000d72cdc65722708cc5a96014a6344", "width": null}], "name": "Sunset Drive", "owner": {"display_name": "Jonathan Buckley", "external_urls": {"spotify": "https://open.spotify.com/user/x1n96qg7kr8myppjr7y75s2cu"}, "href": "https://api.spotify.com/v1/users/x1n96qg7kr8myppjr7y75s2cu", "id": "x1n96qg7kr8myppjr7y75s2cu", "type": "user", "uri": "spotify:user:x1n96qg7kr8myppjr7y75s2cu"}, "primary_color": null, "public": true, "snapshot_id": "AAAAT0wOhfrR62avr1EquunzpE+IOze6", "tracks": {"href": "https://api.spotify.com/v1/playlists/6iJ2mTfQdHAT6AWT0csnk7/tracks", "total": 26}, "type": "playlist", "uri": "spotify:playlist:6iJ2mTfQdHAT6AWT0csnk7"}, null, {"collaborative": false, "description": "A laid-back summer playlist featuring all songs by America - perfect for drives, sunsets, and easygoing days.", "external_urls": {"spotify": "https://open.spotify.com/playlist/54DJ2vl0ymzBVwZPyoesXg"}, "href": "https://api.spotify.com/v1/playlists/54DJ2vl0ymzBVwZPyoesXg", "id": "54DJ2vl0ymzBVwZPyoesXg", "images": [{"height": null, "url": "https://image-cdn-ak.spotifycdn.com/image/ab67706c0000da84a164f6dfd53b60dd308b3b8d", "width": null}], "name": "America Summer", "owner": {"display_name": "America (The Band)", "external_urls": {"spotify": "https://open.spotify.com/user/31anyogjsgtasob66fqkwuysynvq"}, "href": "https://api.spotify.com/v1/users/31anyogjsgtasob66fqkwuysynvq", "id": "31anyogjsgtasob66fqkwuysynvq", "type": "user", "uri": "spotify:user:31anyogjsgtasob66fqkwuysynvq"}, "primary_color": null, "public": true, "snapshot_id": "AAAABWVk0rIqjGTApSqPsOxO46iFvYSx", "tracks": {"href": "https://api.spotify.com/v1/playlists/54DJ2vl0ymzBVwZPyoesXg/tracks", "total": 40}, "type": "playlist", "uri": "spotify:playlist:54DJ2vl0ymzBVwZPyoesXg"}, null]}}