{"playlists": {"href": "https://api.spotify.com/v1/search?offset=0&limit=5&query=moody%20late%20night%20club&type=playlist", "limit": 5, "next": "https://api.spotify.com/v1/search?offset=5&limit=5&query=moody%20late%20night%20club&type=playlist", "offset": 0, "previous": null, "total": 803, "items": [{"collaborative": false, "description": "A dark, high-energy instrumental cluster. Think pulsing, moody club tracks or deep techno vibes\u2014perfect for zoning out or a late-night set.", "external_urls": {"spotify": "https://open.spotify.com/playlist/692KLYj8YBfL7TF7BUKYLo"}, "href": "https://api.spotify.com/v1/playlists/692KLYj8YBfL7TF7BUKYLo", "id": "692KLYj8YBfL7TF7BUKYLo", "images": [{"height": null, "url": "https://image-cdn-ak.spotifycdn.com/image/ab67706c0000da84c8c863e210105d9386cb5ae9", "width": null}], "name": "shadow pulse.", "owner": {"display_name": "Tanik", "external_urls": {"spotify": "https://open.spotify.com/user/syh2bgm0i3l4ifrqy0nzyrbti"}, "href": "https://api.spotify.com/v1/users/syh2bgm0i3l4ifrqy0nzyrbti", "id": "syh2bgm0i3l4ifrqy0nzyrbti", "type": "user", "uri": "spotify:user:syh2bgm0i3l4ifrqy0nzyrbti"}, "primary_color": null, "public": true, "snapshot_id": "AAAABbcW+jWqdnguNbg3RGaA6zFDQZ/J", "tracks": {"href": "https://api.spotify.com/v1/playlists/692KLYj8YBfL7TF7BUKYLo/tracks", "total": 106}, "type": "playlist", "uri": "spotify:playlist:692KLYj8YBfL7TF7BUKYLo"}, null, {"collaborative": false, "description": "Vulnerable, moody, club-worthy. | Simultaneous Windows \u2014 Robert Delaunay", "external_urls": {"spotify": "https://open.spotify.com/playlist/6lTyqrvntJsL5wx7EE6HSy"}, "href": "https://api.spotify.com/v1/playlists/6lTyqrvntJsL5wx7EE6HSy", "id": "6lTyqrvntJsL5wx7EE6HSy", "images": [{"height": null, "url": "https://image-cdn-ak.spotifycdn.com/image/ab67706c0000da840e0d1a2a76e4833a15a11d21", "width": null}], "name": "Late Night Emotional Trance \ud83d\udd38", "owner": {"display_name": "Bill Moody", "external_urls": {"spotify": "https://open.spotify.com/user/1222997956"}, "href": "https://api.spotify.com/v1/users/1222997956", "id": "1222997956", "type": "user", "uri": "spotify:user:1222997956"}, "primary_color": null, "public": true, "snapshot_id": "AAABZ3nyfVbQvz5Q7gKuOLOz1B2zVjNC", "tracks": {"href": "https://api.spotify.com/v1/playlists/6lTyqrvntJsL5wx7EE6HSy/tracks", "total": 133}, "type": "playlist", "uri": "spotify:playlist:6lTyqrvntJsL5wx7EE6HSy"}, null, {"collaborative": false, "description": "Deep, dark, and moody melodic techno tracks perfect for afterhours sessions. Ideal for clubs, chill-outs, or introspective late-night listening.", "external_urls": {"spotify": "https://open.spotify.com/playlist/4kDJa4nl1k0xmdXpXuyjCK"}, "href": "https://api.spotify.com/v1/playlists/4kDJa4nl1k0xmdXpXuyjCK", "id": "4kDJa4nl1k0xmdXpXuyjCK", "images": [{"height": null, "url": "https://image-cdn-ak.spotifycdn.com/image/ab67706c0000da845839bd0fc372a1c2e98714db", "width": null}], "name": "\ud83c\udf03 Afterhours Melodic Techno | Deep, Dark & Moody Mix", "owner": {"display_name": "Halide Records", "external_urls": {"spotify": "https://open.spotify.com/user/31durqaypq43l2xqk6d4xc7jq5z4"}, "href": "https://api.spotify.com/v1/users/31durqaypq43l2xqk6d4xc7jq5z4", "id": "31durqaypq43l2xqk6d4xc7jq5z4", "type": "user", "uri": "spotify:user:31durqaypq43l2xqk6d4xc7jq5z4"}, "primary_color": null, "public": true, "snapshot_id": "AAAAHLjLptgiz9dH5+D4kZWMzB4FNzkB", "tracks": {"href": "https://api.spotify.com/v1/playlists/4kDJa4nl1k0xmdXpXuyjCK/tracks", "total": 20}, "type": "playlist", "uri": "spotify:playlist:4kDJa4nl1k0xmdXpXuyjCK"}]}}