{"playlists": {"href": "https://api.spotify.com/v1/search?offset=0&limit=5&query=European%20night%20club&type=playlist", "limit": 5, "next": "https://api.spotify.com/v1/search?offset=5&limit=5&query=European%20night%20club&type=playlist", "offset": 0, "previous": null, "total": 837, "items": [{"collaborative": false, "description": "pov: its 2010 in amsterdam and Akon has been calling you a sexy bitch all night", "external_urls": {"spotify": "https://open.spotify.com/playlist/48zLMPmiJBA8gdmcaezcP1"}, "href": "https://api.spotify.com/v1/playlists/48zLMPmiJBA8gdmcaezcP1", "id": "48zLMPmiJBA8gdmcaezcP1", "images": [{"height": null, "url": "https://image-cdn-fa.spotifycdn.com/image/ab67706c0000da84502d4a932507a5cec3d6a651", "width": null}], "name": "2010 european club hits", "owner": {"display_name": "miri", "external_urls": {"spotify": "https://open.spotify.com/user/jullianep54"}, "href": "https://api.spotify.com/v1/users/jullianep54", "id": "jullianep54", "type": "user", "uri": "spotify:user:jullianep54"}, "primary_color": null, "public": true, "snapshot_id": "AAAAj6tCeCO5/SbHEiyBOrW/r/EgCszl", "tracks": {"href": "https://api.spotify.com/v1/playlists/48zLMPmiJBA8gdmcaezcP1/tracks", "total": 87}, "type": "playlist", "uri": "spotify:playlist:48zLMPmiJBA8gdmcaezcP1"}, {"collaborative": false, "description": "that stereo love, 2010 euro sleaze vibe", "external_urls": {"spotify": "https://open.spotify.com/playlist/39IsEdq13kMIv0iOaC6bkp"}, "href": "https://api.spotify.com/v1/playlists/39IsEdq13kMIv0iOaC6bkp", "id": "39IsEdq13kMIv0iOaC6bkp", "images": [{"height": null, "url": "https://image-cdn-fa.spotifycdn.com/image/ab67706c0000da8458fa4745db2a78474e839f8e", "width": null}], "name": "european club fantasy", "owner": {"display_name": "maui salita", "external_urls": {"spotify": "https://open.spotify.com/user/ssalitaa"}, "href": "https://api.spotify.com/v1/users/ssalitaa", "id": "ssalitaa", "type": "user", "uri": "spotify:user:ssalitaa"}, "primary_color": null, "public": true, "snapshot_id": "AAAAzZUxbKs2tDJJa1i/AzvukMtm9NRn", "tracks": {"href": "https://api.spotify.com/v1/playlists/39IsEdq13kMIv0iOaC6bkp/tracks", "total": 113}, "type": "playlist", "uri": "spotify:playlist:39IsEdq13kMIv0iOaC6bkp"}, {"collaborative": false, "description": "european club fantasy &#x2F;&#x2F; that stereo love &#x2F;&#x2F; euro summer &#x2F;&#x2F; nightclub &#x2F;&#x2F; european holiday vacation &#x2F;&#x2F; european party songs ", "external_urls": {"spotify": "https://open.spotify.com/playlist/0yEsyVxQDJana2QsC8pW1t"}, "href": "https://api.spotify.com/v1/playlists/0yEsyVxQDJana2QsC8pW1t", "id": "0yEsyVxQDJana2QsC8pW1t", "images": [{"height": null, "url": "https://image-cdn-ak.spotifycdn.com/image/ab67706c0000da8420a71c5aadc499ae0da5e2d3", "width": null}], "name": "3am in an european nightclub", "owner": {"display_name": "caitlinvst", "external_urls": {"spotify": "https://open.spotify.com/user/11145526627"}, "href": "https://api.spotify.com/v1/users/11145526627", "id": "11145526627", "type": "user", "uri": "spotify:user:11145526627"}, "primary_color": null, "public": true, "snapshot_id": "AAACR05JjlgcYY7E+DhhsrWG0rC6DaBM", "tracks": {"href": "https://api.spotify.com/v1/playlists/0yEsyVxQDJana2QsC8pW1t/tracks", "total": 458}, "type": "playlist", "uri": "spotify:playlist:0yEsyVxQDJana2QsC8pW1t"}, {"collaborative": false, "description": "", "external_urls": {"spotify": "https://open.spotify.com/playlist/3IzDm51YsMaiymbiArFbot"}, "href": "https://api.spotify.com/v1/playlists/3IzDm51YsMaiymbiArFbot", "id": "3IzDm51YsMaiymbiArFbot", "images": [{"height": null, "url": "https://image-cdn-ak.spotifycdn.com/image/ab67706c0000da84acd495aa27b2ccc4b04c422e", "width": null}], "name": "best of european club music", "owner": {"display_name": "crontobonto", "external_urls": {"spotify": "https://open.spotify.com/user/gcsoccer221"}, "href": "https://api.spotify.com/v1/users/gcsoccer221", "id": "gcsoccer221", "type": "user", "uri": "spotify:user:gcsoccer221"}, "primary_color": null, "public": true, "snapshot_id": "AAAAaVa84llSMZUXoQL/ukz8TTl+aGmk", "tracks": {"href": "https://api.spotify.com/v1/playlists/3IzDm51YsMaiymbiArFbot/tracks", "total": 73}, "type": "playlist", "uri": "spotify:playlist:3IzDm51YsMaiymbiArFbot"}, {"collaborative": false, "description": "", "external_urls": {"spotify": "https://open.spotify.com/playlist/44S70Ss83cRWiEobLFuQSv"}, "href": "https://api.spotify.com/v1/playlists/44S70Ss83cRWiEobLFuQSv", "id": "44S70Ss83cRWiEobLFuQSv", "images": [{"height": 640, "url": "https://mosaic.scdn.co/640/ab67616d00001e02374b2c19503563c165d23708ab67616d00001e02408fe694dd7c4c89dd9fc15cab67616d00001e0292056b7591a227aeb2d03f9fab67616d00001e029d34332a06c20dd507399e1d", "width": 640}, {"height": 300, "url": "https://mosaic.scdn.co/300/ab67616d00001e02374b2c19503563c165d23708ab67616d00001e02408fe694dd7c4c89dd9fc15cab67616d00001e0292056b7591a227aeb2d03f9fab67616d00001e029d34332a06c20dd507399e1d", "width": 300}, {"height": 60, "url": "https://mosaic.scdn.co/60/ab67616d00001e02374b2c19503563c165d23708ab67616d00001e02408fe694dd7c4c89dd9fc15cab67616d00001e0292056b7591a227aeb2d03f9fab67616d00001e029d34332a06c20dd507399e1d", "width": 60}], "name": "Tripping Balls in A European Night Club", "owner": {"display_name": "Natedowg", "external_urls": {"spotify": "https://open.spotify.com/user/31in2g2cjcwoexg53v53vdoazbau"}, "href": "https://api.spotify.com/v1/users/31in2g2cjcwoexg53v53vdoazbau", "id": "31in2g2cjcwoexg53v53vdoazbau", "type": "user", "uri": "spotify:user:31in2g2cjcwoexg53v53vdoazbau"}, "primary_color": null, "public": true, "snapshot_id": "AAAA7nZ198WeYiY7nHDtQRB2byXP+HXr", "tracks": {"href": "https://api.spotify.com/v1/playlists/44S70Ss83cRWiEobLFuQSv/tracks", "total": 87}, "type": "playlist", "uri": "spotify:playlist:44S70Ss83cRWiEobLFuQSv"}]}}