{"playlists": {"href": "https://api.spotify.com/v1/search?offset=0&limit=5&query=sad&type=playlist", "limit": 5, "next": "https://api.spotify.com/v1/search?offset=5&limit=5&query=sad&type=playlist", "offset": 0, "previous": null, "total": 103, "items": [null, null, null, {"collaborative": false, "description": "songs to cry out to, sad music", "external_urls": {"spotify": "https://open.spotify.com/playlist/5DVUEqRL1EV8I9n65eBaAw"}, "href": "https://api.spotify.com/v1/playlists/5DVUEqRL1EV8I9n65eBaAw", "id": "5DVUEqRL1EV8I9n65eBaAw", "images": [{"height": null, "url": "https://image-cdn-ak.spotifycdn.com/image/ab67706c0000d72c507f3c6ef9d8acdedcac8ec7", "width": null}], "name": "sad songs to cry out to \ud83d\ude2d", "owner": {"display_name": "vicky's world <3", "external_urls": {"spotify": "https://open.spotify.com/user/vvk188m7ueif0ygf6p9nv7bh0"}, "href": "https://api.spotify.com/v1/users/vvk188m7ueif0ygf6p9nv7bh0", "id": "vvk188m7ueif0ygf6p9nv7bh0", "type": "user", "uri": "spotify:user:vvk188m7ueif0ygf6p9nv7bh0"}, "primary_color": null, "public": true, "snapshot_id": "AAAEO2CRoCWyT9wT6iDpFJy6QhSxL8Ce", "tracks": {"href": "https://api.spotify.com/v1/playlists/5DVUEqRL1EV8I9n65eBaAw/tracks", "total": 136}, "type": "playlist", "uri": "spotify:playlist:5DVUEqRL1EV8I9n65eBaAw"}, null]}}