{"artists": {"href": "https://api.spotify.com/v1/search?offset=0&limit=20&query=genre%3A%22rock%22&type=artist", "limit": 20, "next": "https://api.spotify.com/v1/search?offset=20&limit=20&query=genre%3A%22rock%22&type=artist", "offset": 0, "previous": null, "total": 100, "items": [{"external_urls": {"spotify": "https://open.spotify.com/artist/2BTv9lh3eK1jzB1vc3tW6x"}, "followers": {"href": null, "total": 16677}, "genres": ["j-dance", "j-pop"], "href": "https://api.spotify.com/v1/artists/2BTv9lh3eK1jzB1vc3tW6x", "id": "2BTv9lh3eK1jzB1vc3tW6x", "images": [{"url": "https://i.scdn.co/image/ab6761610000e5ebab823bdd0ee416d0fd95e2ae", "height": 640, "width": 640}, {"url": "https://i.scdn.co/image/ab67616100005174ab823bdd0ee416d0fd95e2ae", "height": 320, "width": 320}, {"url": "https://i.scdn.co/image/ab6761610000f178ab823bdd0ee416d0fd95e2ae", "height": 160, "width": 160}], "name": "Genki Rockets", "popularity": 23, "type": "artist", "uri": "spotify:artist:2BTv9lh3eK1jzB1vc3tW6x"}, {"external_urls": {"spotify": "https://open.spotify.com/artist/10JZkvi2NuyvCIuRDppggx"}, "followers": {"href": null, "total": 12139}, "genres": [], "href": "https://api.spotify.com/v1/artists/10JZkvi2NuyvCIuRDppggx", "id": "10JZkvi2NuyvCIuRDppggx", "images": [{"url": "https://i.scdn.co/image/ab67616d0000b273d6b1abafc5724e017bdef5c0", "height": 640, "width": 640}, {"url": "https://i.scdn.co/image/ab67616d00001e02d6b1abafc5724e017bdef5c0", "height": 300, "width": 300}, {"url": "https://i.scdn.co/image/ab67616d00004851d6b1abafc5724e017bdef5c0", "height": 64, "width": 64}], "name": "Gene Rockwell", "popularity": 27, "type": "artist", "uri": "spotify:artist:10JZkvi2NuyvCIuRDppggx"}, {"external_urls": {"spotify": "https://open.spotify.com/artist/6XyY86QOPPrYVGvF9ch6wz"}, "followers": {"href": null, "total": 30956324}, "genres": ["nu metal", "rap metal", "rock", "alternative metal"], "href": "https://api.spotify.com/v1/artists/6XyY86QOPPrYVGvF9ch6wz", "id": "6XyY86QOPPrYVGvF9ch6wz", "images": [{"url": "https://i.scdn.co/image/ab6761610000e5eb527d95dabbe8b8b527e8136f", "height": 640, "width": 640}, {"url": "https://i.scdn.co/image/ab67616100005174527d95dabbe8b8b527e8136f", "height": 320, "width": 320}, {"url": "https://i.scdn.co/image/ab6761610000f178527d95dabbe8b8b527e8136f", "height": 160, "width": 160}], "name": "Linkin Park", "popularity": 92, "type": "artist", "uri": "spotify:artist:6XyY86QOPPrYVGvF9ch6wz"}, {"external_urls": {"spotify": "https://open.spotify.com/artist/7GlBOeep6PqTfFi59PTUUN"}, "followers": {"href": null, "total": 6835170}, "genres": [], "href": "https://api.spotify.com/v1/artists/7GlBOeep6PqTfFi59PTUUN", "id": "7GlBOeep6PqTfFi59PTUUN", "images": [{"url": "https://i.scdn.co/image/ab6761610000e5ebd258ecb0d66244e6300bcf64", "height": 640, "width": 640}, {"url": "https://i.scdn.co/image/ab67616100005174d258ecb0d66244e6300bcf64", "height": 320, "width": 320}, {"url": "https://i.scdn.co/image/ab6761610000f178d258ecb0d66244e6300bcf64", "height": 160, "width": 160}], "name": "Chappell Roan", "popularity": 88, "type": "artist", "uri": "spotify:artist:7GlBOeep6PqTfFi59PTUUN"}, {"external_urls": {"spotify": "https://open.spotify.com/artist/08GQAI4eElDnROBrJRGE0X"}, "followers": {"href": null, "total": 13596109}, "genres": ["classic rock", "yacht rock", "soft rock"], "href": "https://api.spotify.com/v1/artists/08GQAI4eElDnROBrJRGE0X", "id": "08GQAI4eElDnROBrJRGE0X", "images": [{"url": "https://i.scdn.co/image/ab6761610000e5ebc8752dd511cda8c31e9daee8", "height": 640, "width": 640}, {"url": "https://i.scdn.co/image/ab67616100005174c8752dd511cda8c31e9daee8", "height": 320, "width": 320}, {"url": "https://i.scdn.co/image/ab6761610000f178c8752dd511cda8c31e9daee8", "height": 160, "width": 160}], "name": "Fleetwood Mac", "popularity": 87, "type": "artist", "uri": "spotify:artist:08GQAI4eElDnROBrJRGE0X"}, {"external_urls": {"spotify": "https://open.spotify.com/artist/4Z8W4fKeB5YxbusRsdQVPb"}, "followers": {"href": null, "total": 13075158}, "genres": ["art rock", "alternative rock"], "href": "https://api.spotify.com/v1/artists/4Z8W4fKeB5YxbusRsdQVPb", "id": "4Z8W4fKeB5YxbusRsdQVPb", "images": [{"url": "https://i.scdn.co/image/ab6761610000e5ebc8824aec0936958401589b65", "height": 640, "width": 640}, {"url": "https://i.scdn.co/image/ab67616100005174c8824aec0936958401589b65", "height": 320, "width": 320}, {"url": "https://i.scdn.co/image/ab6761610000f178c8824aec0936958401589b65", "height": 160, "width": 160}], "name": "Radiohead", "popularity": 89, "type": "artist", "uri": "spotify:artist:4Z8W4fKeB5YxbusRsdQVPb"}, {"external_urls": {"spotify": "https://open.spotify.com/artist/04gDigrS5kc9YWfZHwBETP"}, "followers": {"href": null, "total": 45336816}, "genres": ["pop"], "href": "https://api.spotify.com/v1/artists/04gDigrS5kc9YWfZHwBETP", "id": "04gDigrS5kc9YWfZHwBETP", "images": [{"url": "https://i.scdn.co/image/ab6761610000e5ebf8349dfb619a7f842242de77", "height": 640, "width": 640}, {"url": "https://i.scdn.co/image/ab67616100005174f8349dfb619a7f842242de77", "height": 320, "width": 320}, {"url": "https://i.scdn.co/image/ab6761610000f178f8349dfb619a7f842242de77", "height": 160, "width": 160}], "name": "Maroon 5", "popularity": 89, "type": "artist", "uri": "spotify:artist:04gDigrS5kc9YWfZHwBETP"}, {"external_urls": {"spotify": "https://open.spotify.com/artist/7Ln80lUS6He07XvHI8qqHH"}, "followers": {"href": null, "total": 31277881}, "genres": ["indie", "garage rock"], "href": "https://api.spotify.com/v1/artists/7Ln80lUS6He07XvHI8qqHH", "id": "7Ln80lUS6He07XvHI8qqHH", "images": [{"url": "https://i.scdn.co/image/ab6761610000e5eb7da39dea0a72f581535fb11f", "height": 640, "width": 640}, {"url": "https://i.scdn.co/image/ab676161000051747da39dea0a72f581535fb11f", "height": 320, "width": 320}, {"url": "https://i.scdn.co/image/ab6761610000f1787da39dea0a72f581535fb11f", "height": 160, "width": 160}], "name": "Arctic Monkeys", "popularity": 88, "type": "artist", "uri": "spotify:artist:7Ln80lUS6He07XvHI8qqHH"}, {"external_urls": {"spotify": "https://open.spotify.com/artist/0L8ExT028jH3ddEcZwqJJ5"}, "followers": {"href": null, "total": 22882623}, "genres": ["funk rock", "alternative rock", "rock"], "href": "https://api.spotify.com/v1/artists/0L8ExT028jH3ddEcZwqJJ5", "id": "0L8ExT028jH3ddEcZwqJJ5", "images": [{"url": "https://i.scdn.co/image/ab6761610000e5ebc33cc15260b767ddec982ce8", "height": 640, "width": 640}, {"url": "https://i.scdn.co/image/ab67616100005174c33cc15260b767ddec982ce8", "height": 320, "width": 320}, {"url": "https://i.scdn.co/image/ab6761610000f178c33cc15260b767ddec982ce8", "height": 160, "width": 160}], "name": "Red Hot Chili Peppers", "popularity": 87, "type": "artist", "uri": "spotify:artist:0L8ExT028jH3ddEcZwqJJ5"}, {"external_urls": {"spotify": "https://open.spotify.com/artist/3WrFJ7ztbogyGnTHbHJFl2"}, "followers": {"href": null, "total": 30353978}, "genres": ["classic rock", "psychedelic rock"], "href": "https://api.spotify.com/v1/artists/3WrFJ7ztbogyGnTHbHJFl2", "id": "3WrFJ7ztbogyGnTHbHJFl2", "images": [{"url": "https://i.scdn.co/image/ab6761610000e5ebe9348cc01ff5d55971b22433", "height": 640, "width": 640}, {"url": "https://i.scdn.co/image/ab67616100005174e9348cc01ff5d55971b22433", "height": 320, "width": 320}, {"url": "https://i.scdn.co/image/ab6761610000f178e9348cc01ff5d55971b22433", "height": 160, "width": 160}], "name": "The Beatles", "popularity": 86, "type": "artist", "uri": "spotify:artist:3WrFJ7ztbogyGnTHbHJFl2"}, {"external_urls": {"spotify": "https://open.spotify.com/artist/53XhwfbYqKCa1cC15pYq2q"}, "followers": {"href": null, "total": 57893720}, "genres": [], "href": "https://api.spotify.com/v1/artists/53XhwfbYqKCa1cC15pYq2q", "id": "53XhwfbYqKCa1cC15pYq2q", "images": [{"url": "https://i.scdn.co/image/ab6761610000e5ebab47d8dae2b24f5afe7f9d38", "height": 640, "width": 640}, {"url": "https://i.scdn.co/image/ab67616100005174ab47d8dae2b24f5afe7f9d38", "height": 320, "width": 320}, {"url": "https://i.scdn.co/image/ab6761610000f178ab47d8dae2b24f5afe7f9d38", "height": 160, "width": 160}], "name": "Imagine Dragons", "popularity": 90, "type": "artist", "uri": "spotify:artist:53XhwfbYqKCa1cC15pYq2q"}, {"external_urls": {"spotify": "https://open.spotify.com/artist/2ye2Wgw4gimLv2eAKyk1NB"}, "followers": {"href": null, "total": 31498500}, "genres": ["metal", "thrash metal", "rock", "heavy metal", "hard rock"], "href": "https://api.spotify.com/v1/artists/2ye2Wgw4gimLv2eAKyk1NB", "id": "2ye2Wgw4gimLv2eAKyk1NB", "images": [{"url": "https://i.scdn.co/image/ab6761610000e5eb69ca98dd3083f1082d740e44", "height": 640, "width": 640}, {"url": "https://i.scdn.co/image/ab6761610000517469ca98dd3083f1082d740e44", "height": 320, "width": 320}, {"url": "https://i.scdn.co/image/ab6761610000f17869ca98dd3083f1082d740e44", "height": 160, "width": 160}], "name": "Metallica", "popularity": 86, "type": "artist", "uri": "spotify:artist:2ye2Wgw4gimLv2eAKyk1NB"}, {"external_urls": {"spotify": "https://open.spotify.com/artist/6olE6TJLqED3rqDCT0FyPh"}, "followers": {"href": null, "total": 22818105}, "genres": ["grunge", "rock"], "href": "https://api.spotify.com/v1/artists/6olE6TJLqED3rqDCT0FyPh", "id": "6olE6TJLqED3rqDCT0FyPh", "images": [{"url": "https://i.scdn.co/image/84282c28d851a700132356381fcfbadc67ff498b", "height": 1057, "width": 1000}, {"url": "https://i.scdn.co/image/a4e10b79a642e9891383448cbf37d7266a6883d6", "height": 677, "width": 640}, {"url": "https://i.scdn.co/image/42ae0f180f16e2f21c1f2212717fc436f5b95451", "height": 211, "width": 200}, {"url": "https://i.scdn.co/image/e797ad36d56c3fc8fa06c6fe91263a15bf8391b8", "height": 68, "width": 64}], "name": "Nirvana", "popularity": 85, "type": "artist", "uri": "spotify:artist:6olE6TJLqED3rqDCT0FyPh"}, {"external_urls": {"spotify": "https://open.spotify.com/artist/6zFYqv1mOsgBRQbae3JJ9e"}, "followers": {"href": null, "total": 7195888}, "genres": ["soft rock"], "href": "https://api.spotify.com/v1/artists/6zFYqv1mOsgBRQbae3JJ9e", "id": "6zFYqv1mOsgBRQbae3JJ9e", "images": [{"url": "https://i.scdn.co/image/ab6761610000e5ebb34057d59275011032ef8bc8", "height": 640, "width": 640}, {"url": "https://i.scdn.co/image/ab67616100005174b34057d59275011032ef8bc8", "height": 320, "width": 320}, {"url": "https://i.scdn.co/image/ab6761610000f178b34057d59275011032ef8bc8", "height": 160, "width": 160}], "name": "Billy Joel", "popularity": 83, "type": "artist", "uri": "spotify:artist:6zFYqv1mOsgBRQbae3JJ9e"}, {"external_urls": {"spotify": "https://open.spotify.com/artist/3YQKmKGau1PzlVlkL1iodx"}, "followers": {"href": null, "total": 25573972}, "genres": [], "href": "https://api.spotify.com/v1/artists/3YQKmKGau1PzlVlkL1iodx", "id": "3YQKmKGau1PzlVlkL1iodx", "images": [{"url": "https://i.scdn.co/image/ab6761610000e5eb61a7ea26d33ded218cd1e59d", "height": 640, "width": 640}, {"url": "https://i.scdn.co/image/ab6761610000517461a7ea26d33ded218cd1e59d", "height": 320, "width": 320}, {"url": "https://i.scdn.co/image/ab6761610000f17861a7ea26d33ded218cd1e59d", "height": 160, "width": 160}], "name": "Twenty One Pilots", "popularity": 85, "type": "artist", "uri": "spotify:artist:3YQKmKGau1PzlVlkL1iodx"}, {"external_urls": {"spotify": "https://open.spotify.com/artist/5INjqkS1o8h1imAzPqGZBb"}, "followers": {"href": null, "total": 9115324}, "genres": ["neo-psychedelic", "indie"], "href": "https://api.spotify.com/v1/artists/5INjqkS1o8h1imAzPqGZBb", "id": "5INjqkS1o8h1imAzPqGZBb", "images": [{"url": "https://i.scdn.co/image/ab6761610000e5ebe412a782245eb20d9626c601", "height": 640, "width": 640}, {"url": "https://i.scdn.co/image/ab67616100005174e412a782245eb20d9626c601", "height": 320, "width": 320}, {"url": "https://i.scdn.co/image/ab6761610000f178e412a782245eb20d9626c601", "height": 160, "width": 160}], "name": "Tame Impala", "popularity": 84, "type": "artist", "uri": "spotify:artist:5INjqkS1o8h1imAzPqGZBb"}, {"external_urls": {"spotify": "https://open.spotify.com/artist/7oPftvlwr6VrsViSDV7fJY"}, "followers": {"href": null, "total": 16999677}, "genres": ["punk", "pop punk"], "href": "https://api.spotify.com/v1/artists/7oPftvlwr6VrsViSDV7fJY", "id": "7oPftvlwr6VrsViSDV7fJY", "images": [{"url": "https://i.scdn.co/image/ab6761610000e5eb6ff0cd5ef2ecf733804984bb", "height": 640, "width": 640}, {"url": "https://i.scdn.co/image/ab676161000051746ff0cd5ef2ecf733804984bb", "height": 320, "width": 320}, {"url": "https://i.scdn.co/image/ab6761610000f1786ff0cd5ef2ecf733804984bb", "height": 160, "width": 160}], "name": "Green Day", "popularity": 84, "type": "artist", "uri": "spotify:artist:7oPftvlwr6VrsViSDV7fJY"}, {"external_urls": {"spotify": "https://open.spotify.com/artist/5M52tdBnJaKSvOpJGz8mfZ"}, "followers": {"href": null, "total": 9501426}, "genres": ["metal", "heavy metal", "rock", "stoner rock", "doom metal", "hard rock"], "href": "https://api.spotify.com/v1/artists/5M52tdBnJaKSvOpJGz8mfZ", "id": "5M52tdBnJaKSvOpJGz8mfZ", "images": [{"url": "https://i.scdn.co/image/ab6761610000e5eb4870cd833ebe1092601820c3", "height": 640, "width": 640}, {"url": "https://i.scdn.co/image/ab676161000051744870cd833ebe1092601820c3", "height": 320, "width": 320}, {"url": "https://i.scdn.co/image/ab6761610000f1784870cd833ebe1092601820c3", "height": 160, "width": 160}], "name": "Black Sabbath", "popularity": 84, "type": "artist", "uri": "spotify:artist:5M52tdBnJaKSvOpJGz8mfZ"}, {"external_urls": {"spotify": "https://open.spotify.com/artist/1dfeR4HaWDbWqFHLkxsg1d"}, "followers": {"href": null, "total": 54592991}, "genres": ["classic rock", "rock", "glam rock"], "href": "https://api.spotify.com/v1/artists/1dfeR4HaWDbWqFHLkxsg1d", "id": "1dfeR4HaWDbWqFHLkxsg1d", "images": [{"url": "https://i.scdn.co/image/b040846ceba13c3e9c125d68389491094e7f2982", "height": 806, "width": 999}, {"url": "https://i.scdn.co/image/af2b8e57f6d7b5d43a616bd1e27ba552cd8bfd42", "height": 516, "width": 640}, {"url": "https://i.scdn.co/image/c06971e9ff81696699b829484e3be165f4e64368", "height": 161, "width": 200}, {"url": "https://i.scdn.co/image/6dd0ffd270903d1884edf9058c49f58b03db893d", "height": 52, "width": 64}], "name": "Queen", "popularity": 86, "type": "artist", "uri": "spotify:artist:1dfeR4HaWDbWqFHLkxsg1d"}, {"external_urls": {"spotify": "https://open.spotify.com/artist/6deZN1bslXzeGvOLaLMOIF"}, "followers": {"href": null, "total": 7720354}, "genres": ["post-grunge", "rock"], "href": "https://api.spotify.com/v1/artists/6deZN1bslXzeGvOLaLMOIF", "id": "6deZN1bslXzeGvOLaLMOIF", "images": [{"url": "https://i.scdn.co/image/ab6761610000e5eb4ad382f899596d8c7b9e8e09", "height": 640, "width": 640}, {"url": "https://i.scdn.co/image/ab676161000051744ad382f899596d8c7b9e8e09", "height": 320, "width": 320}, {"url": "https://i.scdn.co/image/ab6761610000f1784ad382f899596d8c7b9e8e09", "height": 160, "width": 160}], "name": "Nickelback", "popularity": 82, "type": "artist", "uri": "spotify:artist:6deZN1bslXzeGvOLaLMOIF"}]}}