{"playlists": {"href": "https://api.spotify.com/v1/search?offset=0&limit=5&query=sassy%20girl%20boss&type=playlist", "limit": 5, "next": "https://api.spotify.com/v1/search?offset=5&limit=5&query=sassy%20girl%20boss&type=playlist", "offset": 0, "previous": null, "total": 810, "items": [{"collaborative": false, "description": "", "external_urls": {"spotify": "https://open.spotify.com/playlist/2IVPai3KAIqvx5QiwZaYuc"}, "href": "https://api.spotify.com/v1/playlists/2IVPai3KAIqvx5QiwZaYuc", "id": "2IVPai3KAIqvx5QiwZaYuc", "images": [{"height": null, "url": "https://image-cdn-ak.spotifycdn.com/image/ab67706c0000da84ada0df2e81f078aacc4a1953", "width": null}], "name": "sassy boss bitch babe tunes 4 hot girlz", "owner": {"display_name": "Alorah", "external_urls": {"spotify": "https://open.spotify.com/user/t4eousvqn1nfp7j7vgufegt4n"}, "href": "https://api.spotify.com/v1/users/t4eousvqn1nfp7j7vgufegt4n", "id": "t4eousvqn1nfp7j7vgufegt4n", "type": "user", "uri": "spotify:user:t4eousvqn1nfp7j7vgufegt4n"}, "primary_color": null, "public": true, "snapshot_id": "AAAAcKbUOvWNHUIOnxkI5V7YGC6ySIyw", "tracks": {"href": "https://api.spotify.com/v1/playlists/2IVPai3KAIqvx5QiwZaYuc/tracks", "total": 100}, "type": "playlist", "uri": "spotify:playlist:2IVPai3KAIqvx5QiwZaYuc"}, {"collaborative": false, "description": "girl boss anthems to make you feel strong and independent", "external_urls": {"spotify": "https://open.spotify.com/playlist/5aPwKjwNHr6dnCejLcPTVx"}, "href": "https://api.spotify.com/v1/playlists/5aPwKjwNHr6dnCejLcPTVx", "id": "5aPwKjwNHr6dnCejLcPTVx", "images": [{"height": null, "url": "https://image-cdn-ak.spotifycdn.com/image/ab67706c0000d72c37eec09a3286276080fcc1e5", "width": null}], "name": "GIRL BOSS ANTHEMS \ud83d\udc8b", "owner": {"display_name": "gracey g.", "external_urls": {"spotify": "https://open.spotify.com/user/1198177587"}, "href": "https://api.spotify.com/v1/users/1198177587", "id": "1198177587", "type": "user", "uri": "spotify:user:1198177587"}, "primary_color": null, "public": true, "snapshot_id": "AABKqXb/wVYv8QEVGKxAojGds0gvEMcs", "tracks": {"href": "https://api.spotify.com/v1/playlists/5aPwKjwNHr6dnCejLcPTVx/tracks", "total": 211}, "type": "playlist", "uri": "spotify:playlist:5aPwKjwNHr6dnCejLcPTVx"}, {"collaborative": false, "description": "", "external_urls": {"spotify": "https://open.spotify.com/playlist/4xfyPGZkX37FoPRI03Sjkq"}, "href": "https://api.spotify.com/v1/playlists/4xfyPGZkX37FoPRI03Sjkq", "id": "4xfyPGZkX37FoPRI03Sjkq", "images": [{"height": null, "url": "https://image-cdn-ak.spotifycdn.com/image/ab676d63000076a00f1af6bd252f68eb9db2edbb", "width": null}], "name": "Sassy Girl Boss Vibes", "owner": {"display_name": "Ashlynn Sabrina Landreth", "external_urls": {"spotify": "https://open.spotify.com/user/22s6ipz4hul7eubajg7sxxq7y"}, "href": "https://api.spotify.com/v1/users/22s6ipz4hul7eubajg7sxxq7y", "id": "22s6ipz4hul7eubajg7sxxq7y", "type": "user", "uri": "spotify:user:22s6ipz4hul7eubajg7sxxq7y"}, "primary_color": null, "public": true, "snapshot_id": "AAAAAjFnNg6rQNiBGdRYHM6wZblpcfgO", "tracks": {"href": "https://api.spotify.com/v1/playlists/4xfyPGZkX37FoPRI03Sjkq/tracks", "total": 30}, "type": "playlist", "uri": "spotify:playlist:4xfyPGZkX37FoPRI03Sjkq"}, {"collaborative": false, "description": "BANGERS FOR BAD BITCHES \ud83d\udc85\ud83c\udffc\ud83d\udc96\ud83d\udcb8\ud83d\udc60 INQUIRE ONLY AT IG _Panamagirl - BOSS BITCH MOOD - HOT GIRL SUMMER - GIRLBOSS MUSIC - BAD GIRL - LADY BOSS - BADDASS WOMAN ANTHEMS - 2000s CLUBBING - TWERKING &#x2F; RATCHET HOE - HYPE SONGS FOR THE GIRLS - FEMALE RAP &amp; R&amp;B - REVENGE", "external_urls": {"spotify": "https://open.spotify.com/playlist/2f67AbWKCd2Ry2jkzDejs7"}, "href": "https://api.spotify.com/v1/playlists/2f67AbWKCd2Ry2jkzDejs7", "id": "2f67AbWKCd2Ry2jkzDejs7", "images": [{"height": null, "url": "https://image-cdn-ak.spotifycdn.com/image/ab67706c0000d72c36438f0cd71162ad7c10cde1", "width": null}], "name": "Bad Bitch Energy \ud83c\udf80\ud83d\udc84 Hot Girl Era, Baddie Vibes, Confident Girl Boss Playlist, Bad Girl Songs ", "owner": {"display_name": "PRETTY GIRL FM \ud83d\udc96\ud83c\udf80", "external_urls": {"spotify": "https://open.spotify.com/user/0w409tk3re1l9e9i9vfjlzse9"}, "href": "https://api.spotify.com/v1/users/0w409tk3re1l9e9i9vfjlzse9", "id": "0w409tk3re1l9e9i9vfjlzse9", "type": "user", "uri": "spotify:user:0w409tk3re1l9e9i9vfjlzse9"}, "primary_color": null, "public": true, "snapshot_id": "AAAQXUuS1iSvgIR0ytjzFGwiMj/gytd8", "tracks": {"href": "https://api.spotify.com/v1/playlists/2f67AbWKCd2Ry2jkzDejs7/tracks", "total": 179}, "type": "playlist", "uri": "spotify:playlist:2f67AbWKCd2Ry2jkzDejs7"}, {"collaborative": false, "description": "", "external_urls": {"spotify": "https://open.spotify.com/playlist/1gmUnz0zNeuaIipKum3TC8"}, "href": "https://api.spotify.com/v1/playlists/1gmUnz0zNeuaIipKum3TC8", "id": "1gmUnz0zNeuaIipKum3TC8", "images": [{"height": null, "url": "https://image-cdn-fa.spotifycdn.com/image/ab67706c0000da84670f4e1de8cdd6b353445be3", "width": null}], "name": "sassy gym girl boss", "owner": {"display_name": "emilyyy_g", "external_urls": {"spotify": "https://open.spotify.com/user/nel4uirwzl7wikwycfncr9nsa"}, "href": "https://api.spotify.com/v1/users/nel4uirwzl7wikwycfncr9nsa", "id": "nel4uirwzl7wikwycfncr9nsa", "type": "user", "uri": "spotify:user:nel4uirwzl7wikwycfncr9nsa"}, "primary_color": null, "public": true, "snapshot_id": "AAAAP3CAEkEc2FHZh902guIKUrsdQwxy", "tracks": {"href": "https://api.spotify.com/v1/playlists/1gmUnz0zNeuaIipKum3TC8/tracks", "total": 56}, "type": "playlist", "uri": "spotify:playlist:1gmUnz0zNeuaIipKum3TC8"}]}}