{"playlists": {"href": "https://api.spotify.com/v1/search?offset=0&limit=5&query=indan%20pop&type=playlist", "limit": 5, "next": "https://api.spotify.com/v1/search?offset=5&limit=5&query=indan%20pop&type=playlist", "offset": 0, "previous": null, "total": 1000, "items": [null, {"collaborative": false, "description": "yahoo mitski  :3  new insanely popular song when", "external_urls": {"spotify": "https://open.spotify.com/playlist/5bCctT0xLoKjveezxLDdDB"}, "href": "https://api.spotify.com/v1/playlists/5bCctT0xLoKjveezxLDdDB", "id": "5bCctT0xLoKjveezxLDdDB", "images": [{"height": null, "url": "https://image-cdn-ak.spotifycdn.com/image/ab67706c0000da84d7572f486415f7a74828c0f7", "width": null}], "name": "Mitski popular songs \u2606", "owner": {"display_name": "Muffinp\u00e5bordet", "external_urls": {"spotify": "https://open.spotify.com/user/31wheajtc34i7gh4o75bdzpkpx2q"}, "href": "https://api.spotify.com/v1/users/31wheajtc34i7gh4o75bdzpkpx2q", "id": "31wheajtc34i7gh4o75bdzpkpx2q", "type": "user", "uri": "spotify:user:31wheajtc34i7gh4o75bdzpkpx2q"}, "primary_color": null, "public": true, "snapshot_id": "AAAANmaz9Dx/yA/V71ewZ0Zx1esOyIdu", "tracks": {"href": "https://api.spotify.com/v1/playlists/5bCctT0xLoKjveezxLDdDB/tracks", "total": 10}, "type": "playlist", "uri": "spotify:playlist:5bCctT0xLoKjveezxLDdDB"}, null, {"collaborative": false, "description": "", "external_urls": {"spotify": "https://open.spotify.com/playlist/3aXibVEk6ojoMGghBWoS68"}, "href": "https://api.spotify.com/v1/playlists/3aXibVEk6ojoMGghBWoS68", "id": "3aXibVEk6ojoMGghBWoS68", "images": [{"height": 640, "url": "https://mosaic.scdn.co/640/ab67616d00001e023c8449d26f21077181fe633dab67616d00001e024ca0001aecb4a1d344a2a4feab67616d00001e02a1f65e2fbabed7195226d8b6ab67616d00001e02b6e01aed96a03d8706c91931", "width": 640}, {"height": 300, "url": "https://mosaic.scdn.co/300/ab67616d00001e023c8449d26f21077181fe633dab67616d00001e024ca0001aecb4a1d344a2a4feab67616d00001e02a1f65e2fbabed7195226d8b6ab67616d00001e02b6e01aed96a03d8706c91931", "width": 300}, {"height": 60, "url": "https://mosaic.scdn.co/60/ab67616d00001e023c8449d26f21077181fe633dab67616d00001e024ca0001aecb4a1d344a2a4feab67616d00001e02a1f65e2fbabed7195226d8b6ab67616d00001e02b6e01aed96a03d8706c91931", "width": 60}], "name": "insane clown posse playlist", "owner": {"display_name": "KidnaPPer", "external_urls": {"spotify": "https://open.spotify.com/user/aedm3ulf3ht8dmqge8ubkj8sp"}, "href": "https://api.spotify.com/v1/users/aedm3ulf3ht8dmqge8ubkj8sp", "id": "aedm3ulf3ht8dmqge8ubkj8sp", "type": "user", "uri": "spotify:user:aedm3ulf3ht8dmqge8ubkj8sp"}, "primary_color": null, "public": true, "snapshot_id": "AAAAFSl5avx5rK5anUOtJV1NW3yQI2S+", "tracks": {"href": "https://api.spotify.com/v1/playlists/3aXibVEk6ojoMGghBWoS68/tracks", "total": 18}, "type": "playlist", "uri": "spotify:playlist:3aXibVEk6ojoMGghBWoS68"}, {"collaborative": false, "description": "", "external_urls": {"spotify": "https://open.spotify.com/playlist/2hBKJPwmU90BZeo38tKGXo"}, "href": "https://api.spotify.com/v1/playlists/2hBKJPwmU90BZeo38tKGXo", "id": "2hBKJPwmU90BZeo38tKGXo", "images": [{"height": null, "url": "https://image-cdn-ak.spotifycdn.com/image/ab67706c0000da84ac892bc2cdb55eaea3e34e99", "width": null}], "name": "INDIAN PARTY HITS", "owner": {"display_name": "Aliyah \ud83e\udd8b", "external_urls": {"spotify": "https://open.spotify.com/user/1178695297"}, "href": "https://api.spotify.com/v1/users/1178695297", "id": "1178695297", "type": "user", "uri": "spotify:user:1178695297"}, "primary_color": null, "public": true, "snapshot_id": "AAAAUTxv2SdSq2GEot7DDkOcWaLAZTns", "tracks": {"href": "https://api.spotify.com/v1/playlists/2hBKJPwmU90BZeo38tKGXo/tracks", "total": 74}, "type": "playlist", "uri": "spotify:playlist:2hBKJPwmU90BZeo38tKGXo"}]}}